No,Tanggal,debit.x,debit.y
1,1/31/2016,131.8,131.8
2,2/1/2016,128.6,131.8
3,2/2/2016,135.7,131.8
4,2/3/2016,131,131.8
5,2/4/2016,131,131
6,2/5/2016,131.8,130.2
7,2/6/2016,133.3,134.1
8,2/7/2016,129.4,131
9,2/8/2016,129.4,148.2
10,2/9/2016,131,132.5
11,2/10/2016,129.4,131.8
12,2/11/2016,149,142
13,2/12/2016,135.7,151.4
14,2/13/2016,131.8,172.2
15,2/14/2016,131,152.1
16,2/15/2016,131.8,131.8
17,2/16/2016,131.8,131.8
18,2/17/2016,131.8,131.8
19,2/18/2016,142,130.2
20,2/19/2016,135.7,141.2
21,2/20/2016,149,134.9
22,2/21/2016,166.8,131.8
23,2/22/2016,136.5,131.8
24,2/23/2016,131.8,129.4
25,2/24/2016,129.4,130.2
26,2/25/2016,131,129.4
27,2/26/2016,130.2,131.8
28,2/27/2016,130.2,131.8
29,2/28/2016,132.5,131
30,2/29/2016,131.8,131
31,3/1/2016,131.8,131.8
32,3/2/2016,131.8,131.8
33,3/3/2016,131.8,131.8
34,3/4/2016,131.8,152.1
35,3/5/2016,131,145.9
36,3/6/2016,130.2,139.6
37,3/7/2016,134.1,139.6
38,3/8/2016,131,166.8
39,3/9/2016,148.2,173
40,3/10/2016,132.5,152.9
41,3/11/2016,131.8,136.5
42,3/12/2016,142,152.1
43,3/13/2016,151.4,154.5
44,3/14/2016,172.2,133.3
45,3/15/2016,152.1,131.8
46,3/16/2016,131.8,131.8
47,3/17/2016,131.8,131.8
48,3/18/2016,131.8,129.4
49,3/19/2016,130.2,130.2
50,3/20/2016,141.2,132.5
51,3/21/2016,134.9,159.9
52,3/22/2016,131.8,137.3
53,3/23/2016,131.8,131.8
54,3/24/2016,129.4,131
55,3/25/2016,130.2,131.8
56,3/26/2016,129.4,144.3
57,3/27/2016,131.8,132.5
58,3/28/2016,131.8,131.8
59,3/29/2016,131,131.8
60,3/30/2016,131,131
61,3/31/2016,131.8,130.2
62,4/1/2016,131.8,130.2
63,4/2/2016,131.8,131.8
64,4/3/2016,152.1,150.6
65,4/4/2016,145.9,155.2
66,4/5/2016,139.6,150.6
67,4/6/2016,139.6,191.3
68,4/7/2016,166.8,167.6
69,4/8/2016,173,156
70,4/9/2016,152.9,133.3
71,4/10/2016,136.5,131.8
72,4/11/2016,152.1,131
73,4/12/2016,154.5,129.4
74,4/13/2016,133.3,130.2
75,4/14/2016,131.8,131
76,4/15/2016,131.8,130.2
77,4/16/2016,131.8,132.5
78,4/17/2016,129.4,131.8
79,4/18/2016,130.2,131.8
80,4/19/2016,132.5,168.4
81,4/20/2016,159.9,141.2
82,4/21/2016,137.3,131.8
83,4/22/2016,131.8,132.5
84,4/23/2016,131,131.8
85,4/24/2016,131.8,136.5
86,4/25/2016,144.3,134.1
87,4/26/2016,132.5,149.8
88,4/27/2016,131.8,146.7
89,4/28/2016,131.8,161.4
90,4/29/2016,131,131.8
91,4/30/2016,130.2,131.8
92,5/1/2016,130.2,131.8
93,5/2/2016,131.8,156.8
94,5/3/2016,150.6,133.3
95,5/4/2016,155.2,131.8
96,5/5/2016,150.6,131.8
97,5/6/2016,191.3,205.6
98,5/7/2016,167.6,147.5
99,5/8/2016,156,134.9
100,5/9/2016,133.3,131.8
101,5/10/2016,131.8,130.2
102,5/11/2016,131,131
103,5/12/2016,129.4,130.2
104,5/13/2016,130.2,154.5
105,5/14/2016,131,131.8
106,5/15/2016,130.2,159.1
107,5/16/2016,132.5,131.8
108,5/17/2016,131.8,169.9
109,5/18/2016,131.8,162.2
110,5/19/2016,168.4,149
111,5/20/2016,141.2,138.1
112,5/21/2016,131.8,138.1
113,5/22/2016,132.5,134.1
114,5/23/2016,131.8,131.8
115,5/24/2016,136.5,131.8
116,5/25/2016,134.1,130.2
117,5/26/2016,149.8,129.4
118,5/27/2016,146.7,136.5
119,5/28/2016,161.4,130.2
120,5/29/2016,131.8,129.4
121,5/30/2016,131.8,129.4
122,5/31/2016,131.8,131.8
123,6/1/2016,156.8,131.8
124,6/2/2016,133.3,131.8
125,6/3/2016,131.8,180.6
126,6/4/2016,131.8,141.2
127,6/5/2016,205.6,138.1
128,6/6/2016,147.5,131.8
129,6/7/2016,134.9,131
130,6/8/2016,131.8,148.2
131,6/9/2016,130.2,138.8
132,6/10/2016,131,138.1
133,6/11/2016,130.2,139.6
134,6/12/2016,154.5,134.9
135,6/13/2016,131.8,131.8
136,6/14/2016,159.1,130.2
137,6/15/2016,131.8,130.2
138,6/16/2016,169.9,141.2
139,6/17/2016,162.2,134.1
140,6/18/2016,149,144.3
141,6/19/2016,138.1,143.6
142,6/20/2016,138.1,133.3
143,6/21/2016,134.1,131.8
144,6/22/2016,131.8,131
145,6/23/2016,131.8,130.2
146,6/24/2016,130.2,182.2
147,6/25/2016,129.4,154.5
148,6/26/2016,136.5,142
149,6/27/2016,130.2,136.5
150,6/28/2016,129.4,131.8
151,6/29/2016,129.4,131
152,6/30/2016,131.8,131
153,7/1/2016,131.8,131.8
154,7/2/2016,131.8,131.8
155,7/3/2016,180.6,131.8
156,7/4/2016,141.2,131.8
157,7/5/2016,138.1,173
158,7/6/2016,131.8,159.1
159,7/7/2016,131,142.8
160,7/8/2016,148.2,134.9
161,7/9/2016,138.8,131.8
162,7/10/2016,138.1,130.2
163,7/11/2016,139.6,130.2
164,7/12/2016,134.9,138.1
165,7/13/2016,131.8,131
166,7/14/2016,130.2,151.4
167,7/15/2016,130.2,147.5
168,7/16/2016,141.2,138.8
169,7/17/2016,134.1,131.8
170,7/18/2016,144.3,131.8
171,7/19/2016,143.6,131.8
172,7/20/2016,133.3,131
173,7/21/2016,131.8,131
174,7/22/2016,131,135.7
175,7/23/2016,130.2,162.2
176,7/24/2016,182.2,145.1
177,7/25/2016,154.5,131
178,7/26/2016,142,131.8
179,7/27/2016,136.5,131.8
180,7/28/2016,131.8,131.8
181,7/29/2016,131,130.2
182,7/30/2016,131,131.8
183,7/31/2016,131.8,134.9
184,8/1/2016,131.8,134.9
185,8/2/2016,131.8,131.8
186,8/3/2016,131.8,132.5
187,8/4/2016,173,131.8
188,8/5/2016,159.1,131.8
189,8/6/2016,142.8,144.3
190,8/7/2016,134.9,142.8
191,8/8/2016,131.8,139.6
192,8/9/2016,130.2,139.6
193,8/10/2016,130.2,138.8
194,8/11/2016,138.1,139.6
195,8/12/2016,131,136.5
196,8/13/2016,151.4,134.1
197,8/14/2016,147.5,134.9
198,8/15/2016,138.8,131
199,8/16/2016,131.8,138.8
200,8/17/2016,131.8,131.8
201,8/18/2016,131.8,146.7
202,8/19/2016,131,148.2
203,8/20/2016,131,131.8
204,8/21/2016,135.7,131.8
205,8/22/2016,162.2,138.1
206,8/23/2016,145.1,139.6
207,8/24/2016,131,134.9
208,8/25/2016,131.8,131
209,8/26/2016,131.8,138.1
210,8/27/2016,131.8,153.7
211,8/28/2016,130.2,131.8
212,8/29/2016,131.8,141.2
213,8/30/2016,134.9,131.8
214,8/31/2016,134.9,133.3
215,9/1/2016,131.8,133.3
216,9/2/2016,132.5,131.8
217,9/3/2016,131.8,144.3
218,9/4/2016,131.8,131.8
219,9/5/2016,144.3,131.8
220,9/6/2016,142.8,160.7
221,9/7/2016,139.6,152.1
222,9/8/2016,139.6,138.1
223,9/9/2016,138.8,131.8
224,9/10/2016,139.6,133.3
225,9/11/2016,136.5,132.5
226,9/12/2016,134.1,133.3
227,9/13/2016,134.9,130.2
228,9/14/2016,131,123.8
229,9/15/2016,138.8,123.8
230,9/16/2016,131.8,123.8
231,9/17/2016,146.7,125.4
232,9/18/2016,148.2,123.8
233,9/19/2016,131.8,124.6
234,9/20/2016,131.8,143.6
235,9/21/2016,138.1,131.8
236,9/22/2016,139.6,128.6
237,9/23/2016,134.9,125.4
238,9/24/2016,131,120.6
239,9/25/2016,138.1,123.8
240,9/26/2016,153.7,123.8
241,9/27/2016,131.8,131
242,9/28/2016,141.2,125.4
243,9/29/2016,131.8,122.2
244,9/30/2016,133.3,123.8
245,10/1/2016,133.3,123.8
246,10/2/2016,131.8,131.8
247,10/3/2016,144.3,131.8
248,10/4/2016,131.8,131.8
249,10/5/2016,131.8,123
250,10/6/2016,160.7,122.2
251,10/7/2016,152.1,123.8
252,10/8/2016,138.1,127.8
253,10/9/2016,131.8,122.2
254,10/10/2016,133.3,122.2
255,10/11/2016,132.5,122.2
256,10/12/2016,133.3,138.1
257,10/13/2016,130.2,133.3
258,10/14/2016,123.8,127
259,10/15/2016,123.8,122.2
260,10/16/2016,123.8,121.4
261,10/17/2016,125.4,123
262,10/18/2016,123.8,131.8
263,10/19/2016,124.6,129.4
264,10/20/2016,143.6,123.8
265,10/21/2016,131.8,123
266,10/22/2016,128.6,123
267,10/23/2016,125.4,123
268,10/24/2016,120.6,123
269,10/25/2016,123.8,129.4
270,10/26/2016,123.8,123.8
271,10/27/2016,131,138.1
272,10/28/2016,125.4,143.6
273,10/29/2016,122.2,131.8
274,10/30/2016,123.8,130.2
275,10/31/2016,123.8,130.2
276,11/1/2016,131.8,131.8
277,11/2/2016,131.8,131.8
278,11/3/2016,131.8,131.8
279,11/4/2016,123,130.2
280,11/5/2016,122.2,123.8
281,11/6/2016,123.8,123.8
282,11/7/2016,127.8,152.1
283,11/8/2016,122.2,130.2
284,11/9/2016,122.2,123.8
285,11/10/2016,122.2,126.2
286,11/11/2016,138.1,123.8
287,11/12/2016,133.3,123.8
288,11/13/2016,127,123.8
289,11/14/2016,122.2,123.8
290,11/15/2016,121.4,123.8
291,11/16/2016,123,133.3
292,11/17/2016,131.8,144.3
293,11/18/2016,129.4,133.3
294,11/19/2016,123.8,135.7
295,11/20/2016,123,132.5
296,11/21/2016,123,125.4
297,11/22/2016,123,127.8
298,11/23/2016,123,140.4
299,11/24/2016,129.4,142.8
300,11/25/2016,123.8,129.4
301,11/26/2016,138.1,147.5
302,11/27/2016,143.6,146.7
303,11/28/2016,131.8,141.2
304,11/29/2016,130.2,132.5
305,11/30/2016,130.2,131.8
306,12/1/2016,131.8,130.2
307,12/2/2016,131.8,131.8
308,12/3/2016,131.8,130.2
309,12/4/2016,130.2,127.8
310,12/5/2016,123.8,123.8
311,12/6/2016,123.8,123.8
312,12/7/2016,152.1,130.2
313,12/8/2016,130.2,123.8
314,12/9/2016,123.8,123.8
315,12/10/2016,126.2,122.2
316,12/11/2016,123.8,122.2
317,12/12/2016,123.8,122.2
318,12/13/2016,123.8,120.6
319,12/14/2016,123.8,120.6
320,12/15/2016,123.8,141.2
321,12/16/2016,133.3,122.2
322,12/17/2016,144.3,122.2
323,12/18/2016,133.3,122.2
324,12/19/2016,135.7,122.2
325,12/20/2016,132.5,131.8
326,12/21/2016,125.4,127.8
327,12/22/2016,127.8,122.2
328,12/23/2016,140.4,141.2
329,12/24/2016,142.8,132.5
330,12/25/2016,129.4,122.2
331,12/26/2016,147.5,128.6
332,12/27/2016,146.7,123
333,12/28/2016,141.2,122.2
334,12/29/2016,132.5,128.6
335,12/30/2016,131.8,122.2
336,12/31/2016,130.2,119.8
337,1/1/2017,131.8,119.8
338,1/2/2017,130.2,134.1
339,1/3/2017,127.8,91.5
340,1/4/2017,123.8,127
341,1/5/2017,123.8,119.8
342,1/6/2017,130.2,119.8
343,1/7/2017,123.8,130.2
344,1/8/2017,123.8,119.8
345,1/9/2017,122.2,119.8
346,1/10/2017,122.2,119.8
347,1/11/2017,122.2,131.8
348,1/12/2017,120.6,127
349,1/13/2017,120.6,119.8
350,1/14/2017,141.2,152.9
351,1/15/2017,122.2,106.2
352,1/16/2017,122.2,123.8
353,1/17/2017,122.2,123.8
354,1/18/2017,122.2,135.7
355,1/19/2017,131.8,129.4
356,1/20/2017,127.8,144.3
357,1/21/2017,122.2,145.1
358,1/22/2017,141.2,149
359,1/23/2017,132.5,138.1
360,1/24/2017,122.2,155.2
361,1/25/2017,128.6,138.1
362,1/26/2017,123,125.4
363,1/27/2017,122.2,123.8
364,1/28/2017,128.6,123.8
365,1/29/2017,122.2,130.2
366,1/30/2017,119.8,129.4
367,1/31/2017,119.8,123.8
368,2/1/2017,134.1,122.2
369,2/2/2017,91.5,148.2
370,2/3/2017,127,124.6
371,2/4/2017,119.8,122.2
372,2/5/2017,119.8,122.2
373,2/6/2017,130.2,121.4
374,2/7/2017,119.8,119.8
375,2/8/2017,119.8,126.2
376,2/9/2017,119.8,119.8
377,2/10/2017,131.8,119.8
378,2/11/2017,127,119.8
379,2/12/2017,119.8,123.8
380,2/13/2017,152.9,135.7
381,2/14/2017,106.2,128.6
382,2/15/2017,123.8,123.8
383,2/16/2017,123.8,151.4
384,2/17/2017,135.7,132.5
385,2/18/2017,129.4,131.8
386,2/19/2017,144.3,139.6
387,2/20/2017,145.1,127
388,2/21/2017,149,143.6
389,2/22/2017,138.1,123.8
390,2/23/2017,155.2,145.9
391,2/24/2017,138.1,145.9
392,2/25/2017,125.4,167.6
393,2/26/2017,123.8,120.6
394,2/27/2017,123.8,128.6
395,2/28/2017,130.2,128.6
396,3/1/2017,129.4,145.9
397,3/2/2017,123.8,135.7
398,3/3/2017,122.2,163.8
399,3/4/2017,148.2,150.6
400,3/5/2017,124.6,153.7
401,3/6/2017,122.2,159.9
402,3/7/2017,122.2,170.7
403,3/8/2017,121.4,178.4
404,3/9/2017,119.8,143.6
405,3/10/2017,126.2,133.3
406,3/11/2017,119.8,131.8
407,3/12/2017,119.8,127
408,3/13/2017,119.8,123.8
409,3/14/2017,123.8,130.2
410,3/15/2017,135.7,130.2
411,3/16/2017,128.6,131
412,3/17/2017,123.8,127.8
413,3/18/2017,151.4,123.8
414,3/19/2017,132.5,119.8
415,3/20/2017,131.8,123.8
416,3/21/2017,139.6,123.8
417,3/22/2017,127,119.8
418,3/23/2017,143.6,115.8
419,3/24/2017,123.8,122.2
420,3/25/2017,145.9,152.1
421,3/26/2017,145.9,126.2
422,3/27/2017,167.6,143.6
423,3/28/2017,120.6,123.8
424,3/29/2017,128.6,159.1
425,3/30/2017,128.6,125.4
426,3/31/2017,145.9,130.2
427,4/1/2017,135.7,126.2
428,4/2/2017,163.8,123.8
429,4/3/2017,150.6,156
430,4/4/2017,153.7,163.8
431,4/5/2017,159.9,155.2
432,4/6/2017,170.7,138.1
433,4/7/2017,178.4,122.2
434,4/8/2017,143.6,120.6
435,4/9/2017,133.3,120.6
436,4/10/2017,131.8,148.2
437,4/11/2017,127,126.2
438,4/12/2017,123.8,145.9
439,4/13/2017,130.2,131.8
440,4/14/2017,130.2,137.3
441,4/15/2017,131,130.2
442,4/16/2017,127.8,130.2
443,4/17/2017,123.8,130.2
444,4/18/2017,119.8,134.1
445,4/19/2017,123.8,136.5
446,4/20/2017,123.8,159.9
447,4/21/2017,119.8,156
448,4/22/2017,115.8,170.7
449,4/23/2017,122.2,131
450,4/24/2017,152.1,123.8
451,4/25/2017,126.2,144.3
452,4/26/2017,143.6,131
453,4/27/2017,123.8,123.8
454,4/28/2017,159.1,132.5
455,4/29/2017,125.4,123.8
456,4/30/2017,130.2,123.8
457,5/1/2017,126.2,128.6
458,5/2/2017,123.8,131.8
459,5/3/2017,156,150.6
460,5/4/2017,163.8,131.8
461,5/5/2017,155.2,131.8
462,5/6/2017,138.1,131.8
463,5/7/2017,122.2,130.2
464,5/8/2017,120.6,131.8
465,5/9/2017,120.6,131.8
466,5/10/2017,148.2,131.8
467,5/11/2017,126.2,138.8
468,5/12/2017,145.9,143.6
469,5/13/2017,131.8,130.2
470,5/14/2017,137.3,121.4
471,5/15/2017,130.2,119.8
472,5/16/2017,130.2,119.8
473,5/17/2017,130.2,143.6
474,5/18/2017,134.1,130.2
475,5/19/2017,136.5,115
476,5/20/2017,159.9,119.8
477,5/21/2017,156,131.8
478,5/22/2017,170.7,130
479,5/23/2017,131,144.3
480,5/24/2017,123.8,151.4
481,5/25/2017,144.3,131.8
482,5/26/2017,131,131.8
483,5/27/2017,123.8,133.3
484,5/28/2017,132.5,123.8
485,5/29/2017,123.8,120.6
486,5/30/2017,123.8,119.8
487,5/31/2017,128.6,119.8
488,6/1/2017,131.8,119.8
489,6/2/2017,150.6,134.1
490,6/3/2017,131.8,119.8
491,6/4/2017,131.8,119.8
492,6/5/2017,131.8,115.8
493,6/6/2017,130.2,117.4
494,6/7/2017,131.8,120.6
495,6/8/2017,131.8,124.6
496,6/9/2017,131.8,120.6
497,6/10/2017,138.8,124.6
498,6/11/2017,143.6,120.6
499,6/12/2017,130.2,119.8
500,6/13/2017,121.4,119.8
501,6/14/2017,119.8,119.8
502,6/15/2017,119.8,126.2
503,6/16/2017,143.6,123.8
504,6/17/2017,130.2,123.8
505,6/18/2017,115,156
506,6/19/2017,119.8,131.8
507,6/20/2017,131.8,131.8
508,6/21/2017,130,119
509,6/22/2017,144.3,127.8
510,6/23/2017,151.4,128.6
511,6/24/2017,131.8,138.8
512,6/25/2017,131.8,135.7
513,6/26/2017,133.3,123.8
514,6/27/2017,123.8,123.8
515,6/28/2017,120.6,127
516,6/29/2017,119.8,147.5
517,6/30/2017,119.8,141.2
518,7/1/2017,119.8,119.8
519,7/2/2017,134.1,123
520,7/3/2017,119.8,131
521,7/4/2017,119.8,120.6
522,7/5/2017,115.8,123.8
523,7/6/2017,117.4,122.2
524,7/7/2017,120.6,119.8
525,7/8/2017,124.6,129.4
526,7/9/2017,120.6,119.8
527,7/10/2017,124.6,122.2
528,7/11/2017,120.6,143.6
529,7/12/2017,119.8,122.2
530,7/13/2017,119.8,122.2
531,7/14/2017,119.8,123
532,7/15/2017,126.2,120.6
533,7/16/2017,123.8,119.8
534,7/17/2017,123.8,123.8
535,7/18/2017,156,131.8
536,7/19/2017,131.8,142.5
537,7/20/2017,131.8,131
538,7/21/2017,119,130.2
539,7/22/2017,127.8,119
540,7/23/2017,128.6,115.8
541,7/24/2017,138.8,117.4
542,7/25/2017,135.7,123
543,7/26/2017,123.8,121.4
544,7/27/2017,123.8,122.2
545,7/28/2017,127,119.8
546,7/29/2017,147.5,123
547,7/30/2017,141.2,123.8
548,7/31/2017,119.8,123.8
549,8/1/2017,123,126.2
550,8/2/2017,131,123.8
551,8/3/2017,120.6,118.2
552,8/4/2017,123.8,119.8
553,8/5/2017,122.2,119
554,8/6/2017,119.8,124.6
555,8/7/2017,129.4,127
556,8/8/2017,119.8,120.6
557,8/9/2017,122.2,129.4
558,8/10/2017,143.6,127.8
559,8/11/2017,122.2,136.5
560,8/12/2017,122.2,131
561,8/13/2017,123,128.6
