14.9266110280412
11.0557641903822
14.2951127229184
12.0622126772915
7.79249335908631
9.08987042260769
4.82010726409367
6.05949914453819
14.0406189637681
6.08966882394344
9.31986911401566
9.48295439377991
8.45961309833117
5.79921740132967
-5.71077857947403
4.84100311635382
6.14058677848727
6.80559048179979
10.5949933801749
9.0720328778544
14.8402728703956
11.7374583806252
10.1241115369768
8.33834325567313
11.6033085422571
6.1134821572656
10.9685030921508
17.0124046729192
14.3002173201239
8.66751711973299
8.15244863884426
18.2494495717926
12.8958685481475
6.96324102180604
1.62817149371566
5.93213894525031
5.50202164539424
7.00410876789763
9.32576894521054
3.33184598619823
10.5975287123123
15.6885651576561
19.5011189060453
3.30669937627612
2.57703304274709
2.32930499084139
0.712197316020799
11.4119968065735
-2.24961251278013
2.43153877943615
6.8024258632519
9.58957241323082
10.0355966900641
8.9616886989878
8.73318966229231
6.99113041359956
11.3710243987808
5.27101267681349
6.19948389378808
16.5857372997575
10.7829546445477
14.2125887810461
8.64394774446551
3.99493118673858
8.26590270748621
9.35180919104314
10.8009448746509
-32.6753149537778
12.7598335387629
10.0904850699901
