6.85398656897967
3.39095118355611
6.17161447570548
10.4434055523701
8.94988101014229
9.99764472569104
10.3529593127634
16.7450659044813
10.265151789672
8.94962172396962
9.31542752788125
7.5426012628186
8.90113195342933
10.1533106529449
8.96136296732776
10.3497410583646
1.23867675896188
8.27494368021845
7.37789941183214
-1.01150245083044
10.0956547841922
6.43451933793587
10.0063188537122
9.8470432497812
12.0537719067555
11.9797035829824
4.78892352047725
11.1815652456278
19.2991789064477
12.5882134508363
11.5652097040752
6.56848162423421
11.5545422821325
10.9804190943361
5.38508243000519
9.76876609649019
11.555719709473
13.4493433522396
11.3450479449542
13.1171218448689
7.80745192681071
10.0460570714055
6.47911369910296
10.5098649124379
8.61097068091599
9.05534384041593
8.02372391752302
9.27209969741099
7.69172307141935
9.71700241623538
8.22296741688299
9.07957579391791
10.465000824714
8.67080725079382
10.2949965583677
11.6204200815398
9.1453799858167
-5.06006947241581
11.9095019626177
2.99306488676663
10.1572177921083
16.5969996031661
11.2424377239891
9.26827221277363
11.1321465682546
12.1753733395049
6.13582392949547
8.39278086656052
12.9158434142996
10.226615262856
8.52862362596707
12.5967490165875
6.85128015497473
11.058403099235
7.91814836033593
5.25149485823526
5.34653846317569
6.65338982405931
6.41253762623547
5.1691777469662
9.21966951755761
7.44824132493008
6.48618298835861
8.89873464182854
12.6325603172187
12.6998625958283
19.66730385201
6.51814309816467
9.20645749808924
13.0763610868787
11.9719532019712
9.13245507617375
10.3390942447481
5.13884238726676
4.14572095216419
8.06737347092186
12.5025309903481
-17.4474366137797
12.8142574326001
10.9513009546729
12.2234066987781
-4.84170876075232
9.3097608087564
5.77972283215591
11.6697264515096
9.82653020274712
8.6603269918417
8.96087481454217
5.86772916659293
4.98879536010405
7.95589758281209
6.47065287137834
5.21609517803615
8.09324648935761
11.064818654016
8.14413235379018
9.92249226100516
2.13866808443775
-43.7160913070606
23.7138193738539
10.0146582601003
11.1249781249709
12.5317084926997
13.7197660363002
4.56563081267928
3.83428038790456
8.43689458335071
11.1523425580257
3.22946216694776
8.19193033967522
6.74980524646203
11.339980140833
7.38765865138546
13.3325955227943
4.26010682643009
5.27059528108575
9.24501879836456
5.7583264492445
13.2045481938053
-16.4768631857968
-11.1974378786534
7.21961170597393
6.46110781862576
34.1343038581567
5.27260249293052
