,Nama Stasiun ,WMO ID,Tanggal,suhu.minimum,suhu.maksimum,suhu.rata.rata,kelembaban.rata.rata,lama.penyinaran,kecepatan.angin.rata.rata,curah.hujan
1,Stasiun Geofisika Tuntungan,96037,1/31/2016,22.6,28.8,25.3,89,3.7,1.5,0
2,Stasiun Geofisika Tuntungan,96037,2/1/2016,22.7,31.4,25.8,88,0.4,2,0
3,Stasiun Geofisika Tuntungan,96037,2/2/2016,21.2,32.6,26.1,84,2.1,1.5,2.95
4,Stasiun Geofisika Tuntungan,96037,2/3/2016,21.6,33.6,27,84,9,2,0
5,Stasiun Geofisika Tuntungan,96037,2/4/2016,23.4,33.6,27.3,83,9,1.5,3.5
6,Stasiun Geofisika Tuntungan,96037,2/5/2016,23.6,32.9,27.6,82,9,1.5,8.65
7,Stasiun Geofisika Tuntungan,96037,2/6/2016,23,30.6,26.6,87,9,2,13.8
8,Stasiun Geofisika Tuntungan,96037,2/7/2016,23,33.7,27.2,83,1.9,2,12.5
9,Stasiun Geofisika Tuntungan,96037,2/8/2016,23.2,32.3,27.1,81,9,2,109
10,Stasiun Geofisika Tuntungan,96037,2/9/2016,23.8,34.2,27.3,78,8.25,1,127
11,Stasiun Geofisika Tuntungan,96037,2/10/2016,23.1,33,27.6,84,10.2,1,15.2
12,Stasiun Geofisika Tuntungan,96037,2/11/2016,23.2,33.4,27.4,82,9,1.5,58.65
13,Stasiun Geofisika Tuntungan,96037,2/12/2016,22.8,32,27.7,85.5,9,1.5,22.95
14,Stasiun Geofisika Tuntungan,96037,2/13/2016,23.6,30.3,26.1,91,9,2,2.2
15,Stasiun Geofisika Tuntungan,96037,2/14/2016,23.6,34.3,26.5,85,1.4,1,0.8
16,Stasiun Geofisika Tuntungan,96037,2/15/2016,24.4,32.2,27.7,85,5.3,1,8.8
17,Stasiun Geofisika Tuntungan,96037,2/16/2016,22.8,32,26,88,3.7,1.5,0
18,Stasiun Geofisika Tuntungan,96037,2/17/2016,22.8,28.2,27.1,86,9,1.5,2.6
19,Stasiun Geofisika Tuntungan,96037,2/18/2016,22.8,29.4,26.2,89,9,1,18.8
20,Stasiun Geofisika Tuntungan,96037,2/19/2016,23.7,34.6,28,83,9,2,0
21,Stasiun Geofisika Tuntungan,96037,2/20/2016,23,34.9,27.9,78,9,2,5.3
22,Stasiun Geofisika Tuntungan,96037,2/21/2016,22.6,34.4,27,85,9,2,4
23,Stasiun Geofisika Tuntungan,96037,2/22/2016,23.8,33.8,27.8,82,7,2,0
24,Stasiun Geofisika Tuntungan,96037,2/23/2016,24.4,33.8,26.9,78,6.5,2.5,0
25,Stasiun Geofisika Tuntungan,96037,2/24/2016,22.8,33.8,27,80,9,2,0
26,Stasiun Geofisika Tuntungan,96037,2/25/2016,23,34.6,28.1,79,5.5,1,0
27,Stasiun Geofisika Tuntungan,96037,2/26/2016,24.2,32.4,27.5,86,9,1.5,0.5
28,Stasiun Geofisika Tuntungan,96037,2/27/2016,24.1,31.8,28.1,87,1.9,1,0.7
29,Stasiun Geofisika Tuntungan,96037,2/28/2016,23.4,32,27.1,86,2.1,1,0
30,Stasiun Geofisika Tuntungan,96037,2/29/2016,23.2,32,26.8,84,5.55,1,0
31,Stasiun Geofisika Tuntungan,96037,3/1/2016,23.4,32.4,27.2,83,9,2,16
32,Stasiun Geofisika Tuntungan,96037,3/2/2016,23.6,32.2,27,85,9,2,8.8
33,Stasiun Geofisika Tuntungan,96037,3/3/2016,22.2,33,26.5,78,3.8,2,0
34,Stasiun Geofisika Tuntungan,96037,3/4/2016,22.2,32,25,83,9,1.5,0
35,Stasiun Geofisika Tuntungan,96037,3/5/2016,22.2,32.2,27,82,0.3,1,0
36,Stasiun Geofisika Tuntungan,96037,3/6/2016,23.6,31.8,26.9,83,5.35,2,0
37,Stasiun Geofisika Tuntungan,96037,3/7/2016,24,31,26.8,93,4,3,16.9
38,Stasiun Geofisika Tuntungan,96037,3/8/2016,23.2,29.8,25.5,88.5,2.3,1,0
39,Stasiun Geofisika Tuntungan,96037,3/9/2016,23,29.8,23.9,96.5,5.65,2,1.4
40,Stasiun Geofisika Tuntungan,96037,3/10/2016,21.6,32.6,26.3,82,0,1,0
41,Stasiun Geofisika Tuntungan,96037,3/11/2016,22.6,29.3,25.3,91.5,7.95,1,9.6
42,Stasiun Geofisika Tuntungan,96037,3/12/2016,23.2,30.2,26.1,89,11,3,4.8
43,Stasiun Geofisika Tuntungan,96037,3/13/2016,22.2,32.8,26.4,87.5,16,1,0
44,Stasiun Geofisika Tuntungan,96037,3/14/2016,23,32,26.5,86.5,5.8,2,0
45,Stasiun Geofisika Tuntungan,96037,3/15/2016,23.3,31.8,27.2,86,3.8,1,0
46,Stasiun Geofisika Tuntungan,96037,3/16/2016,22.2,33.2,26.8,86,18,1,1.5
47,Stasiun Geofisika Tuntungan,96037,3/17/2016,23.4,33.6,26.5,85.5,9,3,18.8
48,Stasiun Geofisika Tuntungan,96037,3/18/2016,22.6,31.2,27.6,82.5,6.65,3,0
49,Stasiun Geofisika Tuntungan,96037,3/19/2016,22,33.2,26.6,82,2.65,2,0
50,Stasiun Geofisika Tuntungan,96037,3/20/2016,23,33.1,27.5,84,9,2,0
51,Stasiun Geofisika Tuntungan,96037,3/21/2016,22.2,32,27.4,82,8.65,2,0
52,Stasiun Geofisika Tuntungan,96037,3/22/2016,22.4,31.2,26.7,86,2.7,2,0
53,Stasiun Geofisika Tuntungan,96037,3/23/2016,22.6,33,27.2,84,9,2,4.4
54,Stasiun Geofisika Tuntungan,96037,3/24/2016,22.6,32.6,27.5,81,5.9,1,0
55,Stasiun Geofisika Tuntungan,96037,3/25/2016,21.8,32.4,26.3,83,9,2.5,0
56,Stasiun Geofisika Tuntungan,96037,3/26/2016,22.4,30,26.2,84,9,2,0
57,Stasiun Geofisika Tuntungan,96037,3/27/2016,23,31.55,26.3,81,1.9,2,1.4
58,Stasiun Geofisika Tuntungan,96037,3/28/2016,21,32.05,26,81,4.3,1,0
59,Stasiun Geofisika Tuntungan,96037,3/29/2016,24.1,33.9,27.4,84.5,9,2,1.7
60,Stasiun Geofisika Tuntungan,96037,3/30/2016,21.2,33.4,26.8,87,9,2,0
61,Stasiun Geofisika Tuntungan,96037,3/31/2016,23.8,32.2,27.3,88.5,1.2,2,0
62,Stasiun Geofisika Tuntungan,96037,4/1/2016,23.8,33,27.3,82,24,2,0
63,Stasiun Geofisika Tuntungan,96037,4/2/2016,22.6,33.7,27.3,80,9,1.5,0
64,Stasiun Geofisika Tuntungan,96037,4/3/2016,22.6,33.6,27.7,85.5,9,2,0
65,Stasiun Geofisika Tuntungan,96037,4/4/2016,23.6,34,28.2,83,9,1.5,0
66,Stasiun Geofisika Tuntungan,96037,4/5/2016,24,35.2,26.8,86.5,4.6,2,0.1
67,Stasiun Geofisika Tuntungan,96037,4/6/2016,23.4,33.8,27.6,84.5,7.7,1.5,7.6
68,Stasiun Geofisika Tuntungan,96037,4/7/2016,23.9,33.8,26.7,86,9,1.5,0
69,Stasiun Geofisika Tuntungan,96037,4/8/2016,22.9,35,27.9,82,5.8,2,0
70,Stasiun Geofisika Tuntungan,96037,4/9/2016,23,35,27.7,85,9,2,0
71,Stasiun Geofisika Tuntungan,96037,4/10/2016,23.6,34.4,28.1,79,3.9,1,0
72,Stasiun Geofisika Tuntungan,96037,4/11/2016,23.5,34.6,28.9,82,8.7,1.5,8
73,Stasiun Geofisika Tuntungan,96037,4/12/2016,24.6,34,28.4,82,9,2.5,12.8
74,Stasiun Geofisika Tuntungan,96037,4/13/2016,23.4,34.3,28.3,80,9,2,0
75,Stasiun Geofisika Tuntungan,96037,4/14/2016,24.4,32.8,27.5,84,9,2,0.6
76,Stasiun Geofisika Tuntungan,96037,4/15/2016,24.2,35,27.9,84,0.3,1,25.7
77,Stasiun Geofisika Tuntungan,96037,4/16/2016,24.2,35,28.5,80,9.4,1,1
78,Stasiun Geofisika Tuntungan,96037,4/17/2016,23.4,35.6,28.5,79,9,2.5,0
79,Stasiun Geofisika Tuntungan,96037,4/18/2016,23.5,34.4,28.4,81,9,2.5,0.7
80,Stasiun Geofisika Tuntungan,96037,4/19/2016,24.6,34.2,29.2,79,5.65,1,0
81,Stasiun Geofisika Tuntungan,96037,4/20/2016,24.6,34.9,28.7,80,9,2.5,4.6
82,Stasiun Geofisika Tuntungan,96037,4/21/2016,24.8,30.2,27.7,85,9,1,0
83,Stasiun Geofisika Tuntungan,96037,4/22/2016,22.6,34.6,27.4,80,0,2,0
84,Stasiun Geofisika Tuntungan,96037,4/23/2016,22.6,34.3,27.5,84,9,3,4
85,Stasiun Geofisika Tuntungan,96037,4/24/2016,22.6,34.8,28.1,77,9,1.5,7
86,Stasiun Geofisika Tuntungan,96037,4/25/2016,23,33.8,26.5,90,9,1.5,6
87,Stasiun Geofisika Tuntungan,96037,4/26/2016,23.5,34.2,27.7,84,1.15,1,2.7
88,Stasiun Geofisika Tuntungan,96037,4/27/2016,23.1,34.7,28,81,9,2,0
89,Stasiun Geofisika Tuntungan,96037,4/28/2016,22.2,35.1,27.7,77,6.85,2,0
90,Stasiun Geofisika Tuntungan,96037,4/29/2016,22.4,35.4,27.9,79,9,3,0
91,Stasiun Geofisika Tuntungan,96037,4/30/2016,23.6,34.7,28.2,83.5,9,1.5,0.8
92,Stasiun Geofisika Tuntungan,96037,5/1/2016,24,35,28.7,78,9,2,2.8
93,Stasiun Geofisika Tuntungan,96037,5/2/2016,24.6,34.9,29.1,77,9,2,0
94,Stasiun Geofisika Tuntungan,96037,5/3/2016,24.2,35.1,28.6,80,9,2.5,0
95,Stasiun Geofisika Tuntungan,96037,5/4/2016,23.6,35,27.7,82,9,2,0
96,Stasiun Geofisika Tuntungan,96037,5/5/2016,23.6,35,28.6,82,23,1,0.3
97,Stasiun Geofisika Tuntungan,96037,5/6/2016,24,35.2,28.5,81,17,1,2.8
98,Stasiun Geofisika Tuntungan,96037,5/7/2016,24,35,28.3,79,9,2.5,0.1
99,Stasiun Geofisika Tuntungan,96037,5/8/2016,23,35.4,27.9,79,9,2,10
100,Stasiun Geofisika Tuntungan,96037,5/9/2016,24.9,33.95,28.7,80,9,3,0
101,Stasiun Geofisika Tuntungan,96037,5/10/2016,23,35.1,29,79,8.6,2.5,0
102,Stasiun Geofisika Tuntungan,96037,5/11/2016,26.15,34.4,27.1,90,6.2,1,4
103,Stasiun Geofisika Tuntungan,96037,5/12/2016,23.5,34.1,27.9,83,2.3,2.5,8
104,Stasiun Geofisika Tuntungan,96037,5/13/2016,24.4,33.45,28.1,83,9,2,0
105,Stasiun Geofisika Tuntungan,96037,5/14/2016,23.4,35.3,27.4,82,5.75,2.5,0
106,Stasiun Geofisika Tuntungan,96037,5/15/2016,23.4,31.9,27.1,88,6,2,0
107,Stasiun Geofisika Tuntungan,96037,5/16/2016,23,34,28.5,83,0.7,1,8
108,Stasiun Geofisika Tuntungan,96037,5/17/2016,25,33.2,28,85,9,2,2
109,Stasiun Geofisika Tuntungan,96037,5/18/2016,23,35.2,29,80,1.5,2,0
110,Stasiun Geofisika Tuntungan,96037,5/19/2016,25,33,27.6,87,9,2,0
111,Stasiun Geofisika Tuntungan,96037,5/20/2016,21.6,35.35,28.7,80,0,1,32
112,Stasiun Geofisika Tuntungan,96037,5/21/2016,25.15,34.6,27.1,88,9,1.5,74.2
113,Stasiun Geofisika Tuntungan,96037,5/22/2016,20.6,34.6,28.5,82,9,2,75
114,Stasiun Geofisika Tuntungan,96037,5/23/2016,25.4,34.9,28.9,81,6,1,0
115,Stasiun Geofisika Tuntungan,96037,5/24/2016,23.5,33.8,27.3,87,2.85,1.5,17
116,Stasiun Geofisika Tuntungan,96037,5/25/2016,23.8,33.6,27.3,86,3.5,1.5,0
117,Stasiun Geofisika Tuntungan,96037,5/26/2016,23.8,33.6,27.7,85,4.7,1.5,3
118,Stasiun Geofisika Tuntungan,96037,5/27/2016,23.4,36.2,28.4,77,9,1.5,14.2
119,Stasiun Geofisika Tuntungan,96037,5/28/2016,23.4,36.2,29.2,78,5.7,2,2.25
120,Stasiun Geofisika Tuntungan,96037,5/29/2016,24.4,34,27.7,85,9,2,32
121,Stasiun Geofisika Tuntungan,96037,5/30/2016,23.8,34,27.3,87,9,1.5,29.5
122,Stasiun Geofisika Tuntungan,96037,5/31/2016,23.6,35,28.6,78,3.7,2,81.5
123,Stasiun Geofisika Tuntungan,96037,6/1/2016,23.6,34.9,29,80,8.25,1,0
124,Stasiun Geofisika Tuntungan,96037,6/2/2016,25.2,35.6,29,82,9,2,48.5
125,Stasiun Geofisika Tuntungan,96037,6/3/2016,23,35.4,27.8,84,9,2.5,41.5
126,Stasiun Geofisika Tuntungan,96037,6/4/2016,24.2,34,26.6,88,5.9,1.5,8.2
127,Stasiun Geofisika Tuntungan,96037,6/5/2016,23.6,34.3,27.9,82,24,2,0.2
128,Stasiun Geofisika Tuntungan,96037,6/6/2016,25,30.6,26.1,91,9,1.5,0
129,Stasiun Geofisika Tuntungan,96037,6/7/2016,23.2,34.4,28.2,81,5,1,1.7
130,Stasiun Geofisika Tuntungan,96037,6/8/2016,24.2,33.7,28.3,82,9,1.5,10
131,Stasiun Geofisika Tuntungan,96037,6/9/2016,23.5,34,28.1,84,9,1.5,28.3
132,Stasiun Geofisika Tuntungan,96037,6/10/2016,25.4,33.3,26.1,92,6.35,1,0
133,Stasiun Geofisika Tuntungan,96037,6/11/2016,21.2,34.7,26.8,79,0,1.5,1
134,Stasiun Geofisika Tuntungan,96037,6/12/2016,23.4,34.7,27.5,83,6.8,2,0.9
135,Stasiun Geofisika Tuntungan,96037,6/13/2016,21.6,32.7,28.2,82,9,2,0.8
136,Stasiun Geofisika Tuntungan,96037,6/14/2016,24.6,34.6,27.4,86,2.2,1.5,7.3
137,Stasiun Geofisika Tuntungan,96037,6/15/2016,24.7,33.4,27,88,4.4,2,36
138,Stasiun Geofisika Tuntungan,96037,6/16/2016,24.6,33,28.4,84,2.1,1.5,1.6
139,Stasiun Geofisika Tuntungan,96037,6/17/2016,24.2,33,27.5,87,9,1.5,1.1
140,Stasiun Geofisika Tuntungan,96037,6/18/2016,25.5,32.6,28.7,82,9,2,2.3
141,Stasiun Geofisika Tuntungan,96037,6/19/2016,23.8,33.9,26.5,88,4,1,0.05
142,Stasiun Geofisika Tuntungan,96037,6/20/2016,23.4,34,25.6,91,4.1,2,0.8
143,Stasiun Geofisika Tuntungan,96037,6/21/2016,22.5,34,27,83,0.6,1.5,2.5
144,Stasiun Geofisika Tuntungan,96037,6/22/2016,24,34.4,26.6,85,9,1.5,0.2
145,Stasiun Geofisika Tuntungan,96037,6/23/2016,22.4,34.4,27.5,86,5.3,2,34.5
146,Stasiun Geofisika Tuntungan,96037,6/24/2016,22.4,32,28.4,81,9,2,0
147,Stasiun Geofisika Tuntungan,96037,6/25/2016,22.4,34,27.8,84,4.65,2,0
148,Stasiun Geofisika Tuntungan,96037,6/26/2016,25.2,34.4,28.3,83,6.2,2,0
149,Stasiun Geofisika Tuntungan,96037,6/27/2016,24,34,27.1,88,4.6,2,0
150,Stasiun Geofisika Tuntungan,96037,6/28/2016,23.4,30,26.8,88,6.7,3,0
151,Stasiun Geofisika Tuntungan,96037,6/29/2016,23.5,34.2,26.6,85,4.5,1,0
152,Stasiun Geofisika Tuntungan,96037,6/30/2016,22.9,30.9,26.4,86,3.6,2,0
153,Stasiun Geofisika Tuntungan,96037,7/1/2016,22.6,34.7,27.6,80,0.7,2,0
154,Stasiun Geofisika Tuntungan,96037,7/2/2016,22.7,34.9,25.9,86,7.6,2,0
155,Stasiun Geofisika Tuntungan,96037,7/3/2016,22.4,30.6,27,85,5.5,2,0
156,Stasiun Geofisika Tuntungan,96037,7/4/2016,22.1,34.2,27.4,82,5.3,2,0
157,Stasiun Geofisika Tuntungan,96037,7/5/2016,22.6,34.6,27.5,81,7.3,2,0
158,Stasiun Geofisika Tuntungan,96037,7/6/2016,22.4,34.3,28.1,82,7.6,2,5.5
159,Stasiun Geofisika Tuntungan,96037,7/7/2016,24.2,34.2,27.7,85,5.4,2,0
160,Stasiun Geofisika Tuntungan,96037,7/8/2016,24,33,27.6,79,4.5,1.5,5.5
161,Stasiun Geofisika Tuntungan,96037,7/9/2016,22.6,33.6,27.1,82,5.2,2,18
162,Stasiun Geofisika Tuntungan,96037,7/10/2016,23,34.9,27.7,78,9,1.5,21
163,Stasiun Geofisika Tuntungan,96037,7/11/2016,24,33.8,28.4,76,6.9,2,0
164,Stasiun Geofisika Tuntungan,96037,7/12/2016,23.8,33.2,28.3,84,10.05,2,0
165,Stasiun Geofisika Tuntungan,96037,7/13/2016,23.7,33.6,27.3,84,3.8,2,26.2
166,Stasiun Geofisika Tuntungan,96037,7/14/2016,22.6,34,27.3,81,4.3,2,0
167,Stasiun Geofisika Tuntungan,96037,7/15/2016,23.9,34,27.5,84,7.2,2,0
168,Stasiun Geofisika Tuntungan,96037,7/16/2016,24.2,33.9,27.3,87,3.9,2,0
169,Stasiun Geofisika Tuntungan,96037,7/17/2016,23.6,33.4,24.7,94,2.2,2,3.7
170,Stasiun Geofisika Tuntungan,96037,7/18/2016,23.5,31.4,25.3,86,0,2,1.5
171,Stasiun Geofisika Tuntungan,96037,7/19/2016,23,33.2,25.9,82,3.5,1,3.5
172,Stasiun Geofisika Tuntungan,96037,7/20/2016,21.7,33.4,26.8,88,5,1.5,0.3
173,Stasiun Geofisika Tuntungan,96037,7/21/2016,24,33.2,26.8,86,2.5,2,24
174,Stasiun Geofisika Tuntungan,96037,7/22/2016,22.6,32,26.2,83.5,9,1.5,6
175,Stasiun Geofisika Tuntungan,96037,7/23/2016,22.3,33.4,27.2,84,5.5,2,2.65
176,Stasiun Geofisika Tuntungan,96037,7/24/2016,22.6,34.6,28.05,81,5.2,2,4.1
177,Stasiun Geofisika Tuntungan,96037,7/25/2016,23.4,35,28.3,75,9,1.5,28.8
178,Stasiun Geofisika Tuntungan,96037,7/26/2016,21.6,35.4,27.5,75,8,1.5,2.5
179,Stasiun Geofisika Tuntungan,96037,7/27/2016,23.8,35.5,28.6,81.5,5.3,1,0.1
180,Stasiun Geofisika Tuntungan,96037,7/28/2016,23.9,35.4,28,76,7.3,1.5,26.8
181,Stasiun Geofisika Tuntungan,96037,7/29/2016,21.8,34.6,27.2,81,2.6,2,18.2
182,Stasiun Geofisika Tuntungan,96037,7/30/2016,22.6,35,27.3,79,9,1.5,0
183,Stasiun Geofisika Tuntungan,96037,7/31/2016,22.6,35.2,28,78,9,2,0
184,Stasiun Geofisika Tuntungan,96037,8/1/2016,21.8,36,27.8,78,8,2,0
185,Stasiun Geofisika Tuntungan,96037,8/2/2016,21.5,36,27.5,81,8,2,0
186,Stasiun Geofisika Tuntungan,96037,8/3/2016,22.6,35.1,27.1,82,9.6,1.5,16.2
187,Stasiun Geofisika Tuntungan,96037,8/4/2016,22.2,35.8,27.4,78,3.8,2.5,34.7
188,Stasiun Geofisika Tuntungan,96037,8/5/2016,23.6,32.3,27.3,85,8.1,1.5,0.7
189,Stasiun Geofisika Tuntungan,96037,8/6/2016,23.2,34.7,26.6,83,0,3,0
190,Stasiun Geofisika Tuntungan,96037,8/7/2016,23.3,34.8,27.6,84,6.5,1,13.1
191,Stasiun Geofisika Tuntungan,96037,8/8/2016,21.6,34.2,25.7,90,7.7,1,0
192,Stasiun Geofisika Tuntungan,96037,8/9/2016,22.4,34.3,27.2,81,7.1,2,0
193,Stasiun Geofisika Tuntungan,96037,8/10/2016,23.4,34.8,26.9,83,5.8,2,0.4
194,Stasiun Geofisika Tuntungan,96037,8/11/2016,22.5,34.2,28.3,79,9,2,1.4
195,Stasiun Geofisika Tuntungan,96037,8/12/2016,23.2,33.5,27.2,81,7.7,1.5,12.7
196,Stasiun Geofisika Tuntungan,96037,8/13/2016,22.7,32.6,27,79,6.9,2,5.3
197,Stasiun Geofisika Tuntungan,96037,8/14/2016,21.5,31.2,26,83,5.3,2,1.15
198,Stasiun Geofisika Tuntungan,96037,8/15/2016,21.5,31.2,25.4,90,1,1.5,0
199,Stasiun Geofisika Tuntungan,96037,8/16/2016,21.6,32.8,27.8,82,0,1,0.4
200,Stasiun Geofisika Tuntungan,96037,8/17/2016,22.8,29,25.4,91,6.2,1,8.5
201,Stasiun Geofisika Tuntungan,96037,8/18/2016,21,32,25.5,82,0,2,10
202,Stasiun Geofisika Tuntungan,96037,8/19/2016,21.6,31.9,24.7,89,9,2,0
203,Stasiun Geofisika Tuntungan,96037,8/20/2016,23.15,32.4,26.7,81,2.8,1,5.5
204,Stasiun Geofisika Tuntungan,96037,8/21/2016,21.6,33.2,25.2,87,5.3,2,2.9
205,Stasiun Geofisika Tuntungan,96037,8/22/2016,22.8,32.8,25.7,88,4.2,2,0
206,Stasiun Geofisika Tuntungan,96037,8/23/2016,24.05,31.8,26.6,84,5.1,2,31.6
207,Stasiun Geofisika Tuntungan,96037,8/24/2016,21.8,31.8,26.4,86,4.2,1.5,5
208,Stasiun Geofisika Tuntungan,96037,8/25/2016,23,31.8,27.1,83,6.2,1.5,1.6
209,Stasiun Geofisika Tuntungan,96037,8/26/2016,22.6,33.9,27.3,80,9,2,1.6
210,Stasiun Geofisika Tuntungan,96037,8/27/2016,23.4,33.8,27.4,84,7.8,3,0.4
211,Stasiun Geofisika Tuntungan,96037,8/28/2016,23.8,31.8,27.1,86,5.5,2,15.1
212,Stasiun Geofisika Tuntungan,96037,8/29/2016,23.2,33.4,26.9,83,1.7,2,3.3
213,Stasiun Geofisika Tuntungan,96037,8/30/2016,22.2,33.5,26.8,80,6.6,2,24
214,Stasiun Geofisika Tuntungan,96037,8/31/2016,22.8,34.2,26.8,86,9,2.5,1
215,Stasiun Geofisika Tuntungan,96037,9/1/2016,22.1,34.4,25.9,82,9,2,1.5
216,Stasiun Geofisika Tuntungan,96037,9/2/2016,21.2,33.8,26.9,79,7,2,42
217,Stasiun Geofisika Tuntungan,96037,9/3/2016,21.2,34.7,26.7,79,6.2,2,0.4
218,Stasiun Geofisika Tuntungan,96037,9/4/2016,21,34.6,27.6,82,10,1.5,0.7
219,Stasiun Geofisika Tuntungan,96037,9/5/2016,23.4,34.2,28,81,7.6,2,1
220,Stasiun Geofisika Tuntungan,96037,9/6/2016,22.2,34.4,27.1,80,6.4,1.5,36.6
221,Stasiun Geofisika Tuntungan,96037,9/7/2016,22,33.4,27,82,6.1,1.5,62
222,Stasiun Geofisika Tuntungan,96037,9/8/2016,23,34.8,27.8,78,5.3,1,14.5
223,Stasiun Geofisika Tuntungan,96037,9/9/2016,22.2,33.8,27.4,80,9,1.5,97
224,Stasiun Geofisika Tuntungan,96037,9/10/2016,24.6,33.8,27.6,82,5.4,1.5,17.5
225,Stasiun Geofisika Tuntungan,96037,9/11/2016,22.3,34.4,27.2,85,5.2,2,0.8
226,Stasiun Geofisika Tuntungan,96037,9/12/2016,24,34.4,27.7,82,6.5,2,63
227,Stasiun Geofisika Tuntungan,96037,9/13/2016,23,33.2,27.7,80,2,1,0.3
228,Stasiun Geofisika Tuntungan,96037,9/14/2016,23,34.5,27.7,79,8.1,1,21.6
229,Stasiun Geofisika Tuntungan,96037,9/15/2016,23.6,34.6,26.6,86,7.5,2,0
230,Stasiun Geofisika Tuntungan,96037,9/16/2016,23,34.7,27.7,80,6.7,2.5,1.55
231,Stasiun Geofisika Tuntungan,96037,9/17/2016,22.6,34.1,27.2,83,7.2,1.5,9
232,Stasiun Geofisika Tuntungan,96037,9/18/2016,23.2,34,27.3,84,9,1.5,27.95
233,Stasiun Geofisika Tuntungan,96037,9/19/2016,23.2,33.7,26.7,84,3,1,135.5
234,Stasiun Geofisika Tuntungan,96037,9/20/2016,22.8,31.7,26.1,89,6.4,2,55
235,Stasiun Geofisika Tuntungan,96037,9/21/2016,22.8,33.9,27.5,83,9,1.5,66.7
236,Stasiun Geofisika Tuntungan,96037,9/22/2016,22.8,34,27.7,85,5.8,1.5,27.5
237,Stasiun Geofisika Tuntungan,96037,9/23/2016,23.3,31.8,26.7,85,0,1,23.5
238,Stasiun Geofisika Tuntungan,96037,9/24/2016,23.6,33,27.4,83,9,2,0
239,Stasiun Geofisika Tuntungan,96037,9/25/2016,23.9,33.8,27.8,81,2,1,15.35
240,Stasiun Geofisika Tuntungan,96037,9/26/2016,25,33.8,28.5,81,9,2,1.5
241,Stasiun Geofisika Tuntungan,96037,9/27/2016,23.1,32.2,26.9,87,1,2,0.8
242,Stasiun Geofisika Tuntungan,96037,9/28/2016,23.6,33.3,26.1,88,3.5,2,34.5
243,Stasiun Geofisika Tuntungan,96037,9/29/2016,23.2,31,26.8,87,4.1,1,61
244,Stasiun Geofisika Tuntungan,96037,9/30/2016,25,30,26.3,89,9,1.5,51
245,Stasiun Geofisika Tuntungan,96037,10/1/2016,23,32.9,27.2,84,0.5,3,14.8
246,Stasiun Geofisika Tuntungan,96037,10/2/2016,21.8,31,25.7,84,5.3,1,11
247,Stasiun Geofisika Tuntungan,96037,10/3/2016,21.7,33.6,27,83,9,1.5,3.4
248,Stasiun Geofisika Tuntungan,96037,10/4/2016,23.3,33.6,27.6,84,5.7,2,36
249,Stasiun Geofisika Tuntungan,96037,10/5/2016,23.4,33,26.6,86,5.6,1,18.5
250,Stasiun Geofisika Tuntungan,96037,10/6/2016,22.6,33.5,25.4,90,3.7,1,5.6
251,Stasiun Geofisika Tuntungan,96037,10/7/2016,23.5,33.5,26.1,86,4.7,3,115
252,Stasiun Geofisika Tuntungan,96037,10/8/2016,21.5,33.6,26.9,84,3.05,1,2.2
253,Stasiun Geofisika Tuntungan,96037,10/9/2016,22,30.4,26.2,88,5,3,6
254,Stasiun Geofisika Tuntungan,96037,10/10/2016,23.1,32.9,26.8,84,0.3,1.5,0.6
255,Stasiun Geofisika Tuntungan,96037,10/11/2016,22,33,25,88,4.3,1,16
256,Stasiun Geofisika Tuntungan,96037,10/12/2016,22.3,34.2,27.3,82,6.6,1,45.5
257,Stasiun Geofisika Tuntungan,96037,10/13/2016,21.8,33.5,27.8,83,7.15,1,0
258,Stasiun Geofisika Tuntungan,96037,10/14/2016,22.8,33.7,27.4,84,2,2,31.4
259,Stasiun Geofisika Tuntungan,96037,10/15/2016,23.7,35,28.2,80,9,2,25
260,Stasiun Geofisika Tuntungan,96037,10/16/2016,23,33.3,27.1,83,7.9,1.5,0.5
261,Stasiun Geofisika Tuntungan,96037,10/17/2016,22.3,33.3,27,82,3.7,1,2
262,Stasiun Geofisika Tuntungan,96037,10/18/2016,22.4,33.3,26,88,6.75,2,0.2
263,Stasiun Geofisika Tuntungan,96037,10/19/2016,21.8,33.2,25.7,89,4.9,1,18
264,Stasiun Geofisika Tuntungan,96037,10/20/2016,22.4,33.5,25.6,87,6.3,2.5,0
265,Stasiun Geofisika Tuntungan,96037,10/21/2016,21.8,32.8,26.7,83,4.2,1,0
266,Stasiun Geofisika Tuntungan,96037,10/22/2016,23.1,32.7,25.6,89,2.4,1.5,18
267,Stasiun Geofisika Tuntungan,96037,10/23/2016,22.3,32.6,26.8,84,2.3,1.5,65
268,Stasiun Geofisika Tuntungan,96037,10/24/2016,22,32.2,27.3,84,3,3,5
269,Stasiun Geofisika Tuntungan,96037,10/25/2016,22.7,34,26.5,83,2.8,1,0.05
270,Stasiun Geofisika Tuntungan,96037,10/26/2016,22.4,33.9,27.3,78,6.1,2,5
271,Stasiun Geofisika Tuntungan,96037,10/27/2016,23,33.8,26.9,83,5.4,1.5,38
272,Stasiun Geofisika Tuntungan,96037,10/28/2016,21.8,33.2,26,86,5.85,2,14.5
273,Stasiun Geofisika Tuntungan,96037,10/29/2016,22.2,33,26.9,85,4.35,2.5,0.5
274,Stasiun Geofisika Tuntungan,96037,10/30/2016,23,32.9,26.4,84,4,2,1.5
275,Stasiun Geofisika Tuntungan,96037,10/31/2016,22.6,32.9,27.2,85,3.8,1.5,3.3
276,Stasiun Geofisika Tuntungan,96037,11/1/2016,22.7,33.4,27.1,83,5.6,2,28.6
277,Stasiun Geofisika Tuntungan,96037,11/2/2016,21.6,33.2,26.7,82,8.75,2,0.1
278,Stasiun Geofisika Tuntungan,96037,11/3/2016,22.8,32.5,26.7,86,6.1,1,6.2
279,Stasiun Geofisika Tuntungan,96037,11/4/2016,22.8,31.2,26.4,87,1.9,3,0.75
280,Stasiun Geofisika Tuntungan,96037,11/5/2016,22,32.4,26.1,88,0,1,3
281,Stasiun Geofisika Tuntungan,96037,11/6/2016,22.7,32.4,26.1,86,2.4,2,4
282,Stasiun Geofisika Tuntungan,96037,11/7/2016,22.8,32.8,27.1,83,9,2,40
283,Stasiun Geofisika Tuntungan,96037,11/8/2016,22.1,32.6,25.5,90,6.7,1,5.8
284,Stasiun Geofisika Tuntungan,96037,11/9/2016,22.4,33.5,27,84,1.75,1,1.3
285,Stasiun Geofisika Tuntungan,96037,11/10/2016,22.6,33.4,26.4,89,6,2,21.8
286,Stasiun Geofisika Tuntungan,96037,11/11/2016,23,33.4,26.3,89,3.9,2,5.2
287,Stasiun Geofisika Tuntungan,96037,11/12/2016,24,31.8,27.4,88,9,2,3.8
288,Stasiun Geofisika Tuntungan,96037,11/13/2016,22.4,33.4,26.1,90,0.4,1,0.3
289,Stasiun Geofisika Tuntungan,96037,11/14/2016,23.4,32.2,26.7,88,3.4,1.5,0.5
290,Stasiun Geofisika Tuntungan,96037,11/15/2016,22.8,32.3,26.5,91,2.8,1.5,1.25
291,Stasiun Geofisika Tuntungan,96037,11/16/2016,23.2,32.7,27,84,1.4,1.5,0
292,Stasiun Geofisika Tuntungan,96037,11/17/2016,23,32.4,26.4,90,1.75,2,1.2
293,Stasiun Geofisika Tuntungan,96037,11/18/2016,23.6,32.3,26.9,87,2,1,47.5
294,Stasiun Geofisika Tuntungan,96037,11/19/2016,23,33.2,26.5,84,9,2,3
295,Stasiun Geofisika Tuntungan,96037,11/20/2016,23.5,32.6,26.1,89,1.6,1,1.5
296,Stasiun Geofisika Tuntungan,96037,11/21/2016,22.4,32.4,26,88,5.45,1.5,1.1
297,Stasiun Geofisika Tuntungan,96037,11/22/2016,21.8,32.2,24.9,91,4.45,1.5,0
298,Stasiun Geofisika Tuntungan,96037,11/23/2016,22,32.8,27.1,87,1.2,1,8.5
299,Stasiun Geofisika Tuntungan,96037,11/24/2016,23,31.5,26.6,87,2.6,1.5,3.4
300,Stasiun Geofisika Tuntungan,96037,11/25/2016,22.2,32.6,25.1,90,0,2,0.3
301,Stasiun Geofisika Tuntungan,96037,11/26/2016,21.9,33.1,26.3,84,4.9,2.5,0
302,Stasiun Geofisika Tuntungan,96037,11/27/2016,21.1,29,25.9,91,6.8,1,3.4
303,Stasiun Geofisika Tuntungan,96037,11/28/2016,22,29,24.9,90,0,1,1.5
304,Stasiun Geofisika Tuntungan,96037,11/29/2016,23.6,30.6,25.6,90,3,1,0.3
305,Stasiun Geofisika Tuntungan,96037,11/30/2016,22.4,32.2,25.7,91,1,1.5,2.5
306,Stasiun Geofisika Tuntungan,96037,12/1/2016,23,32.1,26.5,88,2.7,1,5
307,Stasiun Geofisika Tuntungan,96037,12/2/2016,23.2,29.8,25.9,91,9,2,8.1
308,Stasiun Geofisika Tuntungan,96037,12/3/2016,22.2,31.4,26.3,87,0.5,2,1.5
309,Stasiun Geofisika Tuntungan,96037,12/4/2016,22.4,31.4,26.4,84,0,1,6.2
310,Stasiun Geofisika Tuntungan,96037,12/5/2016,22.4,28.3,26,93,4.8,2,2.8
311,Stasiun Geofisika Tuntungan,96037,12/6/2016,23.6,32,26.7,85,0,2,2
312,Stasiun Geofisika Tuntungan,96037,12/7/2016,23,29.7,25.5,93,3.85,1.5,0
313,Stasiun Geofisika Tuntungan,96037,12/8/2016,23,33.2,27.4,85,0,1.5,3.85
314,Stasiun Geofisika Tuntungan,96037,12/9/2016,24,29.2,26.2,91,4,1.5,13
315,Stasiun Geofisika Tuntungan,96037,12/10/2016,24.2,31.2,26.6,91,9,3,0
316,Stasiun Geofisika Tuntungan,96037,12/11/2016,22.6,31.4,26.6,85,2.8,1,0.5
317,Stasiun Geofisika Tuntungan,96037,12/12/2016,23.6,30.8,26.7,89,1.9,2,66
318,Stasiun Geofisika Tuntungan,96037,12/13/2016,22.4,31,26.4,87,2.3,1.5,0.1
319,Stasiun Geofisika Tuntungan,96037,12/14/2016,22.9,30.4,26.2,85,3,1,0
320,Stasiun Geofisika Tuntungan,96037,12/15/2016,22.2,32.4,25.9,86,0.1,1.5,7.8
321,Stasiun Geofisika Tuntungan,96037,12/16/2016,23,32.4,25.8,88,4.4,1,0.1
322,Stasiun Geofisika Tuntungan,96037,12/17/2016,22.2,32.4,25.9,89,1.7,2.5,0.5
323,Stasiun Geofisika Tuntungan,96037,12/18/2016,23,32.4,27.2,87,2,2,7.1
324,Stasiun Geofisika Tuntungan,96037,12/19/2016,22.8,32.3,26.1,89,1.5,2,1.5
325,Stasiun Geofisika Tuntungan,96037,12/20/2016,22.6,28.2,25.1,90,0,2,12.8
326,Stasiun Geofisika Tuntungan,96037,12/21/2016,22.9,32,26.6,87,0,1.5,3
327,Stasiun Geofisika Tuntungan,96037,12/22/2016,23.4,32.8,26.7,88,4,2,0
328,Stasiun Geofisika Tuntungan,96037,12/23/2016,22.5,33.2,25.6,91,0,1.5,27.6
329,Stasiun Geofisika Tuntungan,96037,12/24/2016,22.9,29.8,26.1,90,1.5,2,10
330,Stasiun Geofisika Tuntungan,96037,12/25/2016,22.6,33,27.1,83,9,2,9.7
331,Stasiun Geofisika Tuntungan,96037,12/26/2016,23,32.9,26.5,91,9,1.5,0
332,Stasiun Geofisika Tuntungan,96037,12/27/2016,22.5,33.2,26.3,86,0,1.5,0.8
333,Stasiun Geofisika Tuntungan,96037,12/28/2016,20.6,33.3,26.9,87,0,1.5,0
334,Stasiun Geofisika Tuntungan,96037,12/29/2016,23.2,33.2,26.7,87,1.4,1.5,0
335,Stasiun Geofisika Tuntungan,96037,12/30/2016,22.8,30.6,25.9,90,0.7,2,0
336,Stasiun Geofisika Tuntungan,96037,12/31/2016,23,30.5,24.8,90,4.8,1.5,13.6
337,Stasiun Geofisika Tuntungan,96037,1/1/2017,22,28.7,24.8,91,0.2,2,1.6
338,Stasiun Geofisika Tuntungan,96037,1/2/2017,22.1,31.6,26.3,89,0,2,2.1
339,Stasiun Geofisika Tuntungan,96037,1/3/2017,22.2,33.1,26.4,88,3.1,1.5,9.9
340,Stasiun Geofisika Tuntungan,96037,1/4/2017,21.7,34,28.2,80,5.6,1,0.9
341,Stasiun Geofisika Tuntungan,96037,1/5/2017,23.7,33.9,27.6,78,5.7,1.5,1
342,Stasiun Geofisika Tuntungan,96037,1/6/2017,21.6,33.9,26.9,81,4.5,2,0
343,Stasiun Geofisika Tuntungan,96037,1/7/2017,21.5,34.2,27.4,81,6.1,1,2.2
344,Stasiun Geofisika Tuntungan,96037,1/8/2017,22.6,34.2,26.8,83,7.4,1.5,0.3
345,Stasiun Geofisika Tuntungan,96037,1/9/2017,22.5,33.4,27,81,1.7,1,0
346,Stasiun Geofisika Tuntungan,96037,1/10/2017,23,33.3,25.7,88,5.1,1.5,0
347,Stasiun Geofisika Tuntungan,96037,1/11/2017,22.4,31,26,87,1.9,1.5,0
348,Stasiun Geofisika Tuntungan,96037,1/12/2017,22.2,31,26.1,84,9,2,21
349,Stasiun Geofisika Tuntungan,96037,1/13/2017,23.6,30.9,26.2,89,9,2,23
350,Stasiun Geofisika Tuntungan,96037,1/14/2017,22.2,31.4,26.4,88,2.5,2.5,23.1
351,Stasiun Geofisika Tuntungan,96037,1/15/2017,21.7,33.2,26.4,79,3.3,1.5,9.4
352,Stasiun Geofisika Tuntungan,96037,1/16/2017,20.2,34.4,25.3,84,9,2.5,10
353,Stasiun Geofisika Tuntungan,96037,1/17/2017,19,32.6,26.4,84,5.9,2.5,0.5
354,Stasiun Geofisika Tuntungan,96037,1/18/2017,22.4,32.4,26.4,86,6.9,3,38.6
355,Stasiun Geofisika Tuntungan,96037,1/19/2017,21.8,29,25.4,89,4,2,0
356,Stasiun Geofisika Tuntungan,96037,1/20/2017,22.3,30.7,25.6,87,1,3,5.5
357,Stasiun Geofisika Tuntungan,96037,1/21/2017,21.9,32.2,25.1,88,9,2,1.5
358,Stasiun Geofisika Tuntungan,96037,1/22/2017,21.5,32.2,25.8,88,5,1.5,0
359,Stasiun Geofisika Tuntungan,96037,1/23/2017,22.9,29.7,25.5,93,4.1,1.5,2.1
360,Stasiun Geofisika Tuntungan,96037,1/24/2017,22.2,30.4,26.1,89,0,2,20.4
361,Stasiun Geofisika Tuntungan,96037,1/25/2017,23,30.4,26,87,9,1.5,2.8
362,Stasiun Geofisika Tuntungan,96037,1/26/2017,21.8,31.1,26.5,85,9,1.5,6.9
363,Stasiun Geofisika Tuntungan,96037,1/27/2017,21,31,25.4,87,9,1.5,2.8
364,Stasiun Geofisika Tuntungan,96037,1/28/2017,22.4,31,26,86,2.4,1.5,1.6
365,Stasiun Geofisika Tuntungan,96037,1/29/2017,23.2,31.2,25.8,88,3.4,2,26.5
366,Stasiun Geofisika Tuntungan,96037,1/30/2017,21.4,28.2,23.8,94,5.1,1.5,0
367,Stasiun Geofisika Tuntungan,96037,1/31/2017,21.4,29.6,26,88,0,1,0
368,Stasiun Geofisika Tuntungan,96037,2/1/2017,22.5,29.8,25.5,91,2.4,1.5,0.5
369,Stasiun Geofisika Tuntungan,96037,2/2/2017,22.6,31.4,25.9,88,1.9,2,7.4
370,Stasiun Geofisika Tuntungan,96037,2/3/2017,23,31.5,26.3,86,3,1.5,1.5
371,Stasiun Geofisika Tuntungan,96037,2/4/2017,22.1,31.1,26.5,87,9,1.5,0
372,Stasiun Geofisika Tuntungan,96037,2/5/2017,22,32.7,26.7,81,0.9,1,12.6
373,Stasiun Geofisika Tuntungan,96037,2/6/2017,22.6,32.6,27,83,3,1.5,12.5
374,Stasiun Geofisika Tuntungan,96037,2/7/2017,23.2,32.6,27,84,2.5,1.5,8
375,Stasiun Geofisika Tuntungan,96037,2/8/2017,21.6,33.7,26.6,82,5.1,1.5,1.3
376,Stasiun Geofisika Tuntungan,96037,2/9/2017,21.2,33.6,26.6,78,6.8,1.5,1.2
377,Stasiun Geofisika Tuntungan,96037,2/10/2017,21.2,33.4,26.5,81,9,1.5,0.6
378,Stasiun Geofisika Tuntungan,96037,2/11/2017,21.8,33.4,26.5,85,7.8,1.5,7.15
379,Stasiun Geofisika Tuntungan,96037,2/12/2017,21.8,28.2,25.6,92,3.9,1,0.1
380,Stasiun Geofisika Tuntungan,96037,2/13/2017,20.8,32.6,26.4,82,0,2,11.5
381,Stasiun Geofisika Tuntungan,96037,2/14/2017,21.6,32.6,25.5,87,6,2,7
382,Stasiun Geofisika Tuntungan,96037,2/15/2017,21.7,32.7,25.8,86,5.6,1.5,23
383,Stasiun Geofisika Tuntungan,96037,2/16/2017,20.8,31.4,26,86,0.7,2,0
384,Stasiun Geofisika Tuntungan,96037,2/17/2017,21,31.5,26.3,85,4.7,1.5,1.7
385,Stasiun Geofisika Tuntungan,96037,2/18/2017,22,32.1,26.5,84,5.3,1.5,1
386,Stasiun Geofisika Tuntungan,96037,2/19/2017,22.2,31.4,26.4,87,5.5,1,0
387,Stasiun Geofisika Tuntungan,96037,2/20/2017,22.6,31.8,26.9,84,2.8,1.5,1.1
388,Stasiun Geofisika Tuntungan,96037,2/21/2017,22.2,30.7,25.7,86,9,2,7
389,Stasiun Geofisika Tuntungan,96037,2/22/2017,22.2,30.6,24.8,89,3.3,2,10.8
390,Stasiun Geofisika Tuntungan,96037,2/23/2017,22.2,30.6,24.1,95,0.3,1.5,0
391,Stasiun Geofisika Tuntungan,96037,2/24/2017,21.6,29.9,25.3,89,0,1.5,10.3
392,Stasiun Geofisika Tuntungan,96037,2/25/2017,21.4,30.4,25.9,86,0.1,2,0
393,Stasiun Geofisika Tuntungan,96037,2/26/2017,22,30.5,25.8,91,3.5,1.5,0.8
394,Stasiun Geofisika Tuntungan,96037,2/27/2017,22.5,30.4,24.7,93,2.3,1.5,0.7
395,Stasiun Geofisika Tuntungan,96037,2/28/2017,19.6,31.4,24.5,86,0.1,1.5,10
396,Stasiun Geofisika Tuntungan,96037,3/1/2017,20.6,31.4,25.9,81,3.8,1.5,0.4
397,Stasiun Geofisika Tuntungan,96037,3/2/2017,21.5,31.4,26,80,7.8,1,2.1
398,Stasiun Geofisika Tuntungan,96037,3/3/2017,20.9,31.6,25.2,87,0.55,1,18.3
399,Stasiun Geofisika Tuntungan,96037,3/4/2017,21.8,32.2,26.2,84,3.6,1,2.9
400,Stasiun Geofisika Tuntungan,96037,3/5/2017,21,32.5,25.9,83,6.6,2,27.1
401,Stasiun Geofisika Tuntungan,96037,3/6/2017,23.2,33.4,26.5,86,9,2,34
402,Stasiun Geofisika Tuntungan,96037,3/7/2017,20.8,33.7,26.9,80,8.4,2.5,0
403,Stasiun Geofisika Tuntungan,96037,3/8/2017,20.9,31.8,26.2,85,9.1,1,5
404,Stasiun Geofisika Tuntungan,96037,3/9/2017,20.6,31.9,26.6,88,2.6,1,0
405,Stasiun Geofisika Tuntungan,96037,3/10/2017,22.4,30.1,26.3,81,3.2,2.5,0
406,Stasiun Geofisika Tuntungan,96037,3/11/2017,22.8,31.9,26.5,82,9,3,0
407,Stasiun Geofisika Tuntungan,96037,3/12/2017,22.4,31.9,26.1,87,7.4,2,0
408,Stasiun Geofisika Tuntungan,96037,3/13/2017,21.4,32.6,26,81,3.85,2.5,0.1
409,Stasiun Geofisika Tuntungan,96037,3/14/2017,21.2,30.9,25.2,89,9,1.5,0
410,Stasiun Geofisika Tuntungan,96037,3/15/2017,21.8,32,26.2,84,2.7,1,0
411,Stasiun Geofisika Tuntungan,96037,3/16/2017,23.2,27.2,24.5,92,4.5,2.5,0
412,Stasiun Geofisika Tuntungan,96037,3/17/2017,22.4,30,25.8,84,0.2,1,6.1
413,Stasiun Geofisika Tuntungan,96037,3/18/2017,22,30.2,26.3,84,9,1.5,14.2
414,Stasiun Geofisika Tuntungan,96037,3/19/2017,22.9,30.4,25.3,89,1.7,1,37.4
415,Stasiun Geofisika Tuntungan,96037,3/20/2017,22.6,32.6,26.9,83,4.6,1.5,15.3
416,Stasiun Geofisika Tuntungan,96037,3/21/2017,23.8,32.2,27.2,85,9,1.5,10.4
417,Stasiun Geofisika Tuntungan,96037,3/22/2017,22.7,33.6,26.7,84,4.2,2,5.5
418,Stasiun Geofisika Tuntungan,96037,3/23/2017,23,31.9,25.9,88,4.35,1.5,0
419,Stasiun Geofisika Tuntungan,96037,3/24/2017,21.6,32.1,26.5,84,0,1,0.1
420,Stasiun Geofisika Tuntungan,96037,3/25/2017,21.8,32.5,25.5,88,9,1.5,16.4
421,Stasiun Geofisika Tuntungan,96037,3/26/2017,22,32.8,26.6,83,2.2,1.5,0.3
422,Stasiun Geofisika Tuntungan,96037,3/27/2017,22,33,26.5,82,3.1,1.5,0
423,Stasiun Geofisika Tuntungan,96037,3/28/2017,22.2,32.1,26.9,84,7.95,2,11
424,Stasiun Geofisika Tuntungan,96037,3/29/2017,22.9,29.8,25.3,92,4.7,2,3.3
425,Stasiun Geofisika Tuntungan,96037,3/30/2017,22.6,30.9,26,89,0.3,1,1.3
426,Stasiun Geofisika Tuntungan,96037,3/31/2017,22.2,33.6,26.2,84,2.2,2.5,15.3
427,Stasiun Geofisika Tuntungan,96037,4/1/2017,22.3,31.8,26.8,84,6.4,1.5,0
428,Stasiun Geofisika Tuntungan,96037,4/2/2017,21.8,30.6,25.8,89,4.7,1.5,3
429,Stasiun Geofisika Tuntungan,96037,4/3/2017,21,32.2,24.7,89,0.5,1,1.95
430,Stasiun Geofisika Tuntungan,96037,4/4/2017,23,32.2,26.2,88,4,1.5,13
431,Stasiun Geofisika Tuntungan,96037,4/5/2017,21.9,30.7,25.7,86,1,2,3.5
432,Stasiun Geofisika Tuntungan,96037,4/6/2017,21.8,32.3,26.5,85,9,1.5,55.3
433,Stasiun Geofisika Tuntungan,96037,4/7/2017,21.2,33.4,26.6,81,7.5,1.5,19
434,Stasiun Geofisika Tuntungan,96037,4/8/2017,22.1,32.6,26.8,84,9,1.5,29.5
435,Stasiun Geofisika Tuntungan,96037,4/9/2017,22.2,32.8,26.7,84,9,1.5,0.25
436,Stasiun Geofisika Tuntungan,96037,4/10/2017,22,33.2,26.6,81,9,1.5,16.3
437,Stasiun Geofisika Tuntungan,96037,4/11/2017,22.1,32.8,26.8,83,9,2,0.6
438,Stasiun Geofisika Tuntungan,96037,4/12/2017,22.8,33.6,27,83,5.2,2.5,6.3
439,Stasiun Geofisika Tuntungan,96037,4/13/2017,21.6,31.2,26,83,9,1.5,3.1
440,Stasiun Geofisika Tuntungan,96037,4/14/2017,21.6,32.9,27,83,9,2,4.5
441,Stasiun Geofisika Tuntungan,96037,4/15/2017,24.4,33.4,26.7,84,9,2.5,5.5
442,Stasiun Geofisika Tuntungan,96037,4/16/2017,21.7,33.6,27.4,81,5,2,2.75
443,Stasiun Geofisika Tuntungan,96037,4/17/2017,22.5,33.6,27,83,9,1.5,0
444,Stasiun Geofisika Tuntungan,96037,4/18/2017,21.4,31.2,25.3,88,6.6,1.5,0
445,Stasiun Geofisika Tuntungan,96037,4/19/2017,21.6,31.2,26.3,85,2.2,1.5,1.8
446,Stasiun Geofisika Tuntungan,96037,4/20/2017,23.2,33.6,26.4,84,0.8,1,0.1
447,Stasiun Geofisika Tuntungan,96037,4/21/2017,21.4,33,26.8,82,7.6,1.5,13
448,Stasiun Geofisika Tuntungan,96037,4/22/2017,22.3,33.8,27.9,81,9,1.5,3.8
449,Stasiun Geofisika Tuntungan,96037,4/23/2017,23.8,31.6,27,85,9.8,1,0
450,Stasiun Geofisika Tuntungan,96037,4/24/2017,22.4,32.6,27.4,82,0.9,1.5,0.15
451,Stasiun Geofisika Tuntungan,96037,4/25/2017,23.2,33.5,27.7,82,8.8,1.5,0
452,Stasiun Geofisika Tuntungan,96037,4/26/2017,22.6,30.7,26.2,91,7.1,2,3.9
453,Stasiun Geofisika Tuntungan,96037,4/27/2017,22.6,32.1,25.9,86,0.4,1,4
454,Stasiun Geofisika Tuntungan,96037,4/28/2017,22.6,28.6,25.8,91,3.9,1,0
455,Stasiun Geofisika Tuntungan,96037,4/29/2017,23.5,32.6,26.3,89,0,2,7.3
456,Stasiun Geofisika Tuntungan,96037,4/30/2017,22.6,32.8,26.6,86,3.6,1.5,0
457,Stasiun Geofisika Tuntungan,96037,5/1/2017,22.7,28.6,26,91,9,2,0
458,Stasiun Geofisika Tuntungan,96037,5/2/2017,22.4,32,26,88,0,1,71
459,Stasiun Geofisika Tuntungan,96037,5/3/2017,22.4,32.4,26.3,85,6.6,1,0
460,Stasiun Geofisika Tuntungan,96037,5/4/2017,21.9,32.5,26,87,8.6,3,12.3
461,Stasiun Geofisika Tuntungan,96037,5/5/2017,23.2,33.4,26.7,85,9.7,1,5.5
462,Stasiun Geofisika Tuntungan,96037,5/6/2017,23,33.4,26.4,88,7.6,2.5,47.5
463,Stasiun Geofisika Tuntungan,96037,5/7/2017,23,32.5,25.7,89,8.9,1.5,10
464,Stasiun Geofisika Tuntungan,96037,5/8/2017,22.6,33.5,26.8,84,7.6,2,7.3
465,Stasiun Geofisika Tuntungan,96037,5/9/2017,22.6,33.6,27.7,83,4.3,2,0.5
466,Stasiun Geofisika Tuntungan,96037,5/10/2017,23.6,32.6,26.6,88,5.05,1,64.8
467,Stasiun Geofisika Tuntungan,96037,5/11/2017,23,31.8,27.4,84,3.75,1,11.7
468,Stasiun Geofisika Tuntungan,96037,5/12/2017,23.2,31.6,26.1,89,9,1.5,72.5
469,Stasiun Geofisika Tuntungan,96037,5/13/2017,22.6,32.8,26.3,86,1.2,1.5,35.6
470,Stasiun Geofisika Tuntungan,96037,5/14/2017,22.6,33,26.9,86,3.4,1.5,7.6
471,Stasiun Geofisika Tuntungan,96037,5/15/2017,24.5,31.8,26.7,87,5.15,2,1.1
472,Stasiun Geofisika Tuntungan,96037,5/16/2017,23.5,34.8,28.8,82,0.4,1,0
473,Stasiun Geofisika Tuntungan,96037,5/17/2017,22.6,34.8,27.9,82,9,2.5,0.55
474,Stasiun Geofisika Tuntungan,96037,5/18/2017,22.8,33.4,26.9,82,9,1.5,78.2
475,Stasiun Geofisika Tuntungan,96037,5/19/2017,22.8,32.6,26.9,85,3.05,1,44.5
476,Stasiun Geofisika Tuntungan,96037,5/20/2017,22.8,32.6,27,82,1.05,1,0.1
477,Stasiun Geofisika Tuntungan,96037,5/21/2017,21.8,31.1,25.7,86,1.9,1.5,0
478,Stasiun Geofisika Tuntungan,96037,5/22/2017,20.9,32.9,26.3,81,4.6,1.5,3.2
479,Stasiun Geofisika Tuntungan,96037,5/23/2017,22.6,34.3,27.7,81,8.1,2,3.5
480,Stasiun Geofisika Tuntungan,96037,5/24/2017,22.6,34.2,28,81,10,1,7
481,Stasiun Geofisika Tuntungan,96037,5/25/2017,23.8,34.3,27.4,83,9,1.5,123.3
482,Stasiun Geofisika Tuntungan,96037,5/26/2017,23.4,30.2,25.2,92,0.8,1.5,42.5
483,Stasiun Geofisika Tuntungan,96037,5/27/2017,23,30.8,26.8,86,0,1.5,79.2
484,Stasiun Geofisika Tuntungan,96037,5/28/2017,21.8,32.9,25.9,84,9,3,3.25
485,Stasiun Geofisika Tuntungan,96037,5/29/2017,21.7,32.4,26.9,84,8.2,1.5,10
486,Stasiun Geofisika Tuntungan,96037,5/30/2017,23.1,33.3,27.8,82,5.3,1.5,20.3
487,Stasiun Geofisika Tuntungan,96037,5/31/2017,23.3,33,25.7,91,9,1,0.2
488,Stasiun Geofisika Tuntungan,96037,6/1/2017,21.4,34,27,82,3,1.5,0
489,Stasiun Geofisika Tuntungan,96037,6/2/2017,23.5,32.9,28.2,82,8.2,1.5,70
490,Stasiun Geofisika Tuntungan,96037,6/3/2017,24,30,26.8,93,7.1,1,0
491,Stasiun Geofisika Tuntungan,96037,6/4/2017,23,32.8,26.1,89,9,1.5,8.4
492,Stasiun Geofisika Tuntungan,96037,6/5/2017,22.2,32.4,25.5,92,5.15,1,1.8
493,Stasiun Geofisika Tuntungan,96037,6/6/2017,22.3,31.8,27,86,3,1.5,0
494,Stasiun Geofisika Tuntungan,96037,6/7/2017,23,32.8,27.4,83,2.9,1.5,0
495,Stasiun Geofisika Tuntungan,96037,6/8/2017,23.1,32.8,26.8,89,6.2,1,0
496,Stasiun Geofisika Tuntungan,96037,6/9/2017,23.1,32.4,26.3,89,3.5,1.5,0
497,Stasiun Geofisika Tuntungan,96037,6/10/2017,22.5,32.4,27,85,3.6,1,1.8
498,Stasiun Geofisika Tuntungan,96037,6/11/2017,22,31.2,26.6,88,7.2,1.5,0
499,Stasiun Geofisika Tuntungan,96037,6/12/2017,22,33.8,27.7,85,2.8,2,8
500,Stasiun Geofisika Tuntungan,96037,6/13/2017,23,30,27.2,91,6.7,1,12.5
501,Stasiun Geofisika Tuntungan,96037,6/14/2017,23.6,31.4,27.5,88,1.4,2,0
502,Stasiun Geofisika Tuntungan,96037,6/15/2017,24,32.8,28.8,85,0.6,1,0
503,Stasiun Geofisika Tuntungan,96037,6/16/2017,24.5,34.2,29,85,3.6,2,0
504,Stasiun Geofisika Tuntungan,96037,6/17/2017,23.5,31.9,26,92,5.7,2,1
505,Stasiun Geofisika Tuntungan,96037,6/18/2017,25,33.6,28.1,84,2.1,1.5,0.2
506,Stasiun Geofisika Tuntungan,96037,6/19/2017,23.4,33.9,28,84,9,1.5,1.2
507,Stasiun Geofisika Tuntungan,96037,6/20/2017,23.8,33.9,27.4,87,9,2,7.5
508,Stasiun Geofisika Tuntungan,96037,6/21/2017,24.2,33,28,84,0.7,2,0
509,Stasiun Geofisika Tuntungan,96037,6/22/2017,25,33.9,27.3,88,4,1.5,10
510,Stasiun Geofisika Tuntungan,96037,6/23/2017,22.8,33.2,26.9,91,7.1,1.5,14.5
511,Stasiun Geofisika Tuntungan,96037,6/24/2017,22.8,34.1,26.4,91,5.7,2,5.8
512,Stasiun Geofisika Tuntungan,96037,6/25/2017,23.1,33.6,26.4,90,2.75,2,31.5
513,Stasiun Geofisika Tuntungan,96037,6/26/2017,23,33.5,27.5,87,6,1,0
514,Stasiun Geofisika Tuntungan,96037,6/27/2017,23.4,34.6,27.5,86,4.5,1,27
515,Stasiun Geofisika Tuntungan,96037,6/28/2017,23.7,34.4,27.5,87,6.2,2,28.7
516,Stasiun Geofisika Tuntungan,96037,6/29/2017,23.1,32.7,27.6,89,4.7,1.5,12.3
517,Stasiun Geofisika Tuntungan,96037,6/30/2017,23.8,32.7,27.2,88,9,1.5,1
518,Stasiun Geofisika Tuntungan,96037,7/1/2017,22.6,34.6,26.5,86,9,2,1.5
519,Stasiun Geofisika Tuntungan,96037,7/2/2017,21.8,33,27.2,84,9.8,1.5,7.5
520,Stasiun Geofisika Tuntungan,96037,7/3/2017,23.7,35.5,27.3,83,6.9,1.5,0.3
521,Stasiun Geofisika Tuntungan,96037,7/4/2017,24.1,34,28,84,7.8,1.5,0
522,Stasiun Geofisika Tuntungan,96037,7/5/2017,23,34.8,28.3,81,5.15,1,22
523,Stasiun Geofisika Tuntungan,96037,7/6/2017,22.8,34.4,28.1,79,9,2,22
524,Stasiun Geofisika Tuntungan,96037,7/7/2017,22.9,33.6,28.3,80,7.8,1.5,10.6
525,Stasiun Geofisika Tuntungan,96037,7/8/2017,23.7,34.35,27.8,81,8.8,2,7.5
526,Stasiun Geofisika Tuntungan,96037,7/9/2017,24,35.2,28.6,80,9.6,3,0
527,Stasiun Geofisika Tuntungan,96037,7/10/2017,24,32.9,27.7,86,8.6,1,44.4
528,Stasiun Geofisika Tuntungan,96037,7/11/2017,22.4,34.5,28,81,9,2.5,2.5
529,Stasiun Geofisika Tuntungan,96037,7/12/2017,21.4,34.1,27.2,83,7.8,1.5,48
530,Stasiun Geofisika Tuntungan,96037,7/13/2017,21.4,34.1,29.5,80,8.2,1,31.3
531,Stasiun Geofisika Tuntungan,96037,7/14/2017,21.2,32.9,26.2,85,9,1.5,2.6
532,Stasiun Geofisika Tuntungan,96037,7/15/2017,21.4,33.4,27.5,81,9,1.5,0.15
533,Stasiun Geofisika Tuntungan,96037,7/16/2017,25,32.8,28.1,85,9,1.5,0
534,Stasiun Geofisika Tuntungan,96037,7/17/2017,24.55,32.2,26.7,83,6.2,1,13.6
535,Stasiun Geofisika Tuntungan,96037,7/18/2017,23,32.3,25.3,91,2.7,2,0
536,Stasiun Geofisika Tuntungan,96037,7/19/2017,21.6,34.4,26.9,85,0,1.5,0
537,Stasiun Geofisika Tuntungan,96037,7/20/2017,22.1,34.4,27.8,81,9.4,1.5,0
538,Stasiun Geofisika Tuntungan,96037,7/21/2017,22,34.6,27.5,78,9,1.5,5.5
539,Stasiun Geofisika Tuntungan,96037,7/22/2017,22,33.5,26.2,89,8.4,1,0
540,Stasiun Geofisika Tuntungan,96037,7/23/2017,22.4,33.5,25.6,89,5.7,1,0
541,Stasiun Geofisika Tuntungan,96037,7/24/2017,21.7,32.2,27.5,86,3.2,2,0
542,Stasiun Geofisika Tuntungan,96037,7/25/2017,21.8,32.4,26.6,86,8.65,1,6.8
543,Stasiun Geofisika Tuntungan,96037,7/26/2017,22.4,33.2,25.9,85,9,1.5,0
544,Stasiun Geofisika Tuntungan,96037,7/27/2017,22.6,33.8,26.3,88,6.3,2.5,0
545,Stasiun Geofisika Tuntungan,96037,7/28/2017,22.5,33.8,27.1,85,4.6,2.5,0
546,Stasiun Geofisika Tuntungan,96037,7/29/2017,21.1,33.4,26.5,87,4.3,2.5,0
547,Stasiun Geofisika Tuntungan,96037,7/30/2017,22.3,33.6,26.1,85,8.6,2,16.8
548,Stasiun Geofisika Tuntungan,96037,7/31/2017,22.4,33.2,27,85,7.5,1,0
549,Stasiun Geofisika Tuntungan,96037,8/1/2017,22.4,30.3,26.3,89,5.1,2,0.2
550,Stasiun Geofisika Tuntungan,96037,8/2/2017,22.6,32.6,26.7,85,0.8,1.5,0
551,Stasiun Geofisika Tuntungan,96037,8/3/2017,22.6,33.2,26,88,9,2.5,10
552,Stasiun Geofisika Tuntungan,96037,8/4/2017,22.1,32.6,27.6,84,7.45,2,21.2
553,Stasiun Geofisika Tuntungan,96037,8/5/2017,22.2,32.3,26.2,87,4,2,10.6
554,Stasiun Geofisika Tuntungan,96037,8/6/2017,22.1,31.1,26.2,88,4.4,2,0
555,Stasiun Geofisika Tuntungan,96037,8/7/2017,23.8,32,27.2,84,1.8,1,2.6
556,Stasiun Geofisika Tuntungan,96037,8/8/2017,22.9,33.1,25.8,88,9,2.5,0.8
557,Stasiun Geofisika Tuntungan,96037,8/9/2017,21.8,32.6,26.2,86,9.7,2,17
558,Stasiun Geofisika Tuntungan,96037,8/10/2017,21,33.6,26.4,83,2.8,1.5,1.75
559,Stasiun Geofisika Tuntungan,96037,8/11/2017,20.8,33.5,27.3,83,5.5,2.5,26
560,Stasiun Geofisika Tuntungan,96037,8/12/2017,22,35.1,27,81,3.6,1,0.7
561,Stasiun Geofisika Tuntungan,96037,8/13/2017,22.5,31.6,26.7,83,7.7,1.5,1.7
562,Stasiun Geofisika Tuntungan,96037,8/14/2017,22.6,31.1,27.3,84.5,2.55,1,29
563,Stasiun Geofisika Tuntungan,96037,8/15/2017,22.6,34,27.9,80,5,1.5,34.4
564,Stasiun Geofisika Tuntungan,96037,8/16/2017,21.9,33.5,27.2,80,9.2,1.5,50
565,Stasiun Geofisika Tuntungan,96037,8/17/2017,21.9,32.1,27.3,83,7.1,1,0.2
566,Stasiun Geofisika Tuntungan,96037,8/18/2017,21.6,33.1,26.8,83,3.6,1.5,33.5
567,Stasiun Geofisika Tuntungan,96037,8/19/2017,21.6,33.9,28,80,6.4,1,0
568,Stasiun Geofisika Tuntungan,96037,8/20/2017,21.4,33.9,27.8,83,9.1,2,0
569,Stasiun Geofisika Tuntungan,96037,8/21/2017,21.4,32.75,27.4,80,9,1.5,0
570,Stasiun Geofisika Tuntungan,96037,8/22/2017,21.4,34.6,27.6,81,8,1,0.5
571,Stasiun Geofisika Tuntungan,96037,8/23/2017,21.4,34,27.6,79,9,1.5,4.1
572,Stasiun Geofisika Tuntungan,96037,8/24/2017,22.2,34.2,27.1,81,6.4,1.5,2
573,Stasiun Geofisika Tuntungan,96037,8/25/2017,22.1,35.3,28.1,78,5,1,27
574,Stasiun Geofisika Tuntungan,96037,8/26/2017,21.9,33.1,27.2,74,9,1.5,18.15
575,Stasiun Geofisika Tuntungan,96037,8/27/2017,22,35,27.8,72,9,1.5,9.3
576,Stasiun Geofisika Tuntungan,96037,8/28/2017,22.4,34.1,27.3,83,9,1.5,0
577,Stasiun Geofisika Tuntungan,96037,8/29/2017,22.6,33,27.3,82,9.45,1.5,3.4
578,Stasiun Geofisika Tuntungan,96037,8/30/2017,22.8,33.8,27.6,84,9,1.5,0.5
579,Stasiun Geofisika Tuntungan,96037,8/31/2017,22.8,31.1,26.7,84,7.45,1,0.35
580,Stasiun Geofisika Tuntungan,96037,9/1/2017,22.8,33.4,27.9,83,9,2,4.3
581,Stasiun Geofisika Tuntungan,96037,9/2/2017,22.8,32.5,26.8,85,7.3,2.5,64.3
582,Stasiun Geofisika Tuntungan,96037,9/3/2017,23.2,32.2,26.9,83,7.6,0.5,0.1
583,Stasiun Geofisika Tuntungan,96037,9/4/2017,23.3,34.4,28.6,75,3.6,2,8.15
584,Stasiun Geofisika Tuntungan,96037,9/5/2017,23.4,31.2,27.8,82,9,1.5,7.2
585,Stasiun Geofisika Tuntungan,96037,9/6/2017,22.5,33.8,27.6,81,2,1.5,16.7
586,Stasiun Geofisika Tuntungan,96037,9/7/2017,24.2,33,26.4,88,6.2,1.5,19.6
587,Stasiun Geofisika Tuntungan,96037,9/8/2017,22.6,33,26.3,88,4.55,2,4.5
588,Stasiun Geofisika Tuntungan,96037,9/9/2017,23,33.2,26.8,86,3.2,1,6
589,Stasiun Geofisika Tuntungan,96037,9/10/2017,22.6,30.6,26.3,86,7,1,6
590,Stasiun Geofisika Tuntungan,96037,9/11/2017,22.7,29.5,25.2,89,7,1,15.2
591,Stasiun Geofisika Tuntungan,96037,9/12/2017,23.2,31.2,26.8,85,2.2,1.5,12.4
592,Stasiun Geofisika Tuntungan,96037,9/13/2017,21.9,33.2,25.5,86,4.6,2,3
593,Stasiun Geofisika Tuntungan,96037,9/14/2017,21.9,31.2,25.9,88,6.6,2,0
594,Stasiun Geofisika Tuntungan,96037,9/15/2017,22,32,26.5,85,1.1,1.5,141
595,Stasiun Geofisika Tuntungan,96037,9/16/2017,22,33.3,26.3,84,4.8,1,50.8
596,Stasiun Geofisika Tuntungan,96037,9/17/2017,22.4,32,27.2,85,5.7,1.5,1.4
597,Stasiun Geofisika Tuntungan,96037,9/18/2017,23,32.7,28.1,79,2.6,1,3
598,Stasiun Geofisika Tuntungan,96037,9/19/2017,23.1,34.2,28.2,82,9,2,10
599,Stasiun Geofisika Tuntungan,96037,9/20/2017,22.7,31.3,26.2,84,9.3,1.5,3
600,Stasiun Geofisika Tuntungan,96037,9/21/2017,22.4,32.4,27.3,82,2.6,1,45
601,Stasiun Geofisika Tuntungan,96037,9/22/2017,22,33.9,27,84,8.2,1,0.7
602,Stasiun Geofisika Tuntungan,96037,9/23/2017,23.45,33.95,27.4,80,9.2,1,53.5
603,Stasiun Geofisika Tuntungan,96037,9/24/2017,22,33.6,27.7,83,7.5,1.5,4
604,Stasiun Geofisika Tuntungan,96037,9/25/2017,22.2,32.2,27,83,6,1,14
605,Stasiun Geofisika Tuntungan,96037,9/26/2017,22.9,33.8,27.7,82,1.9,1,9.8
606,Stasiun Geofisika Tuntungan,96037,9/27/2017,22.6,30.4,26.1,89,9,1,28.5
607,Stasiun Geofisika Tuntungan,96037,9/28/2017,21.9,32.55,25.8,84,0,1,0.1
608,Stasiun Geofisika Tuntungan,96037,9/29/2017,21.8,31.8,26.9,85,7.4,1,7.5
609,Stasiun Geofisika Tuntungan,96037,9/30/2017,22.4,34.2,26.2,85,3.1,1,4.8
610,Stasiun Geofisika Tuntungan,96037,10/1/2017,22.2,32,26.2,89,7.4,1,1.6
611,Stasiun Geofisika Tuntungan,96037,10/2/2017,22.1,33,27.1,85,0,1.5,29.7
612,Stasiun Geofisika Tuntungan,96037,10/3/2017,24.65,32.9,26.9,87,9,1,0.5
613,Stasiun Geofisika Tuntungan,96037,10/4/2017,23,31.9,26.8,86,0,1.5,11
614,Stasiun Geofisika Tuntungan,96037,10/5/2017,23,32.6,26.5,88,6,1,11.9
615,Stasiun Geofisika Tuntungan,96037,10/6/2017,22.8,32.8,26.2,87,4.8,1,0
616,Stasiun Geofisika Tuntungan,96037,10/7/2017,22.5,33,26.1,88,6.15,2,4.4
617,Stasiun Geofisika Tuntungan,96037,10/8/2017,23.7,29.1,26.3,90,8.85,1,8.2
618,Stasiun Geofisika Tuntungan,96037,10/9/2017,23.2,31.2,26.8,90,0,1.5,0
619,Stasiun Geofisika Tuntungan,96037,10/10/2017,23.2,31.4,27.2,87,1.5,1.5,23
620,Stasiun Geofisika Tuntungan,96037,10/11/2017,22.8,32.3,26.4,88,3,1,1.8
621,Stasiun Geofisika Tuntungan,96037,10/12/2017,22.5,33.8,26.1,87,1.4,2.5,71.5
622,Stasiun Geofisika Tuntungan,96037,10/13/2017,22.3,31.3,26.5,85,8.15,1,19
623,Stasiun Geofisika Tuntungan,96037,10/14/2017,22.8,32.8,26,86,9,2.5,1.3
624,Stasiun Geofisika Tuntungan,96037,10/15/2017,22.2,30.8,25.2,91,4.5,2,27.4
625,Stasiun Geofisika Tuntungan,96037,10/16/2017,22.2,32.3,26.7,85,0.8,2,22.1
626,Stasiun Geofisika Tuntungan,96037,10/17/2017,22.2,33.2,27,84,2.5,2,0
627,Stasiun Geofisika Tuntungan,96037,10/18/2017,22.2,31.1,26.6,88,7.2,2,0
628,Stasiun Geofisika Tuntungan,96037,10/19/2017,22.6,29.3,25.6,92,2,1.5,0
629,Stasiun Geofisika Tuntungan,96037,10/20/2017,22.1,32.8,25.6,87,0,2,0
630,Stasiun Geofisika Tuntungan,96037,10/21/2017,21.9,30.8,26,87,1.7,1.5,0
631,Stasiun Geofisika Tuntungan,96037,10/22/2017,21.8,33.7,26.5,85,9,2,0.5
632,Stasiun Geofisika Tuntungan,96037,10/23/2017,22.1,33.9,26.8,83,7.25,1,0.2
633,Stasiun Geofisika Tuntungan,96037,10/24/2017,22.1,33.5,27,84,6.2,1,26.4
634,Stasiun Geofisika Tuntungan,96037,10/25/2017,22.2,33.6,27,82,4.7,1,9.7
635,Stasiun Geofisika Tuntungan,96037,10/26/2017,22.2,32.5,26.2,86,7.2,1,0.4
636,Stasiun Geofisika Tuntungan,96037,10/27/2017,22,32,26.5,87,2,1.5,14.5
637,Stasiun Geofisika Tuntungan,96037,10/28/2017,22.6,32,27.6,84,9,2,16.7
638,Stasiun Geofisika Tuntungan,96037,10/29/2017,23,28,24.9,94,5.8,2,2.3
639,Stasiun Geofisika Tuntungan,96037,10/30/2017,22.4,31.2,25.8,89,0,1.5,3.1
640,Stasiun Geofisika Tuntungan,96037,10/31/2017,23.6,32.6,25.9,86,3.2,1,12.2
641,Stasiun Geofisika Tuntungan,96037,11/1/2017,22,30.6,25.9,88,7,1.5,15.9
642,Stasiun Geofisika Tuntungan,96037,11/2/2017,22.6,32.2,26.7,87,0.75,1,0.7
643,Stasiun Geofisika Tuntungan,96037,11/3/2017,22.2,31.6,26.2,87,4.8,1,5.45
644,Stasiun Geofisika Tuntungan,96037,11/4/2017,22.5,32.8,27,85,4.5,2,34.4
645,Stasiun Geofisika Tuntungan,96037,11/5/2017,22.2,29.8,26,88,5.6,1,35.1
646,Stasiun Geofisika Tuntungan,96037,11/6/2017,22.4,32.8,24.8,93,9,1,29
647,Stasiun Geofisika Tuntungan,96037,11/7/2017,21.2,32.2,26.2,83,0.7,2,18
648,Stasiun Geofisika Tuntungan,96037,11/8/2017,21.6,32.1,25.9,86,6.2,2,8.8
649,Stasiun Geofisika Tuntungan,96037,11/9/2017,22.3,34,27.5,86,5.1,1,0.35
650,Stasiun Geofisika Tuntungan,96037,11/10/2017,23.4,32.4,27.5,84,7.6,1,0
651,Stasiun Geofisika Tuntungan,96037,11/11/2017,22.8,31.4,26.8,87,4.1,2,88.3
652,Stasiun Geofisika Tuntungan,96037,11/12/2017,21.6,29.8,24.5,96,2.9,2,24
653,Stasiun Geofisika Tuntungan,96037,11/13/2017,21.7,33.2,27.1,85,0,1,25.4
654,Stasiun Geofisika Tuntungan,96037,11/14/2017,21.9,33.8,26.2,87,6.9,1,0.9
655,Stasiun Geofisika Tuntungan,96037,11/15/2017,22,34,27.4,82,6.7,2,0
656,Stasiun Geofisika Tuntungan,96037,11/16/2017,21,35.6,27,78,9,1.5,1.55
657,Stasiun Geofisika Tuntungan,96037,11/17/2017,20.3,34.8,27.1,77,9,1.5,0.1
658,Stasiun Geofisika Tuntungan,96037,11/18/2017,20.8,34.6,27.6,78,9,1.5,1.3
659,Stasiun Geofisika Tuntungan,96037,11/19/2017,22.1,34,27.5,79,9,1.5,0
660,Stasiun Geofisika Tuntungan,96037,11/20/2017,22.4,34.7,27.4,79,8.6,2,0
661,Stasiun Geofisika Tuntungan,96037,11/21/2017,23.1,33.6,28.1,81,8.8,1,0
662,Stasiun Geofisika Tuntungan,96037,11/22/2017,23.9,33.3,28,82,9,2,12
663,Stasiun Geofisika Tuntungan,96037,11/23/2017,23.4,33.8,27.3,82,9,2,0
664,Stasiun Geofisika Tuntungan,96037,11/24/2017,23,30.6,26.8,86,6,1.5,2
665,Stasiun Geofisika Tuntungan,96037,11/25/2017,22.8,32.4,27.1,83,3.4,2.5,2
666,Stasiun Geofisika Tuntungan,96037,11/26/2017,22.9,30.1,25.6,95,6.1,2,14.8
667,Stasiun Geofisika Tuntungan,96037,11/27/2017,21.9,31.6,25.8,88,0.95,1,23
668,Stasiun Geofisika Tuntungan,96037,11/28/2017,21.8,32.2,26.6,86,7.8,2.5,1.5
669,Stasiun Geofisika Tuntungan,96037,11/29/2017,22.4,31,26,89,3.3,2,0.4
670,Stasiun Geofisika Tuntungan,96037,11/30/2017,22.4,30.9,25.6,91,6,1,0.2
671,Stasiun Geofisika Tuntungan,96037,12/1/2017,21.8,31.2,26.2,88,2.4,1,0
672,Stasiun Geofisika Tuntungan,96037,12/2/2017,22,32.2,27.1,82,7.85,1,65
673,Stasiun Geofisika Tuntungan,96037,12/3/2017,23.2,31.2,26.1,88,6.2,1.5,42.6
674,Stasiun Geofisika Tuntungan,96037,12/4/2017,24.4,30.6,25.7,90,0,1,7.7
675,Stasiun Geofisika Tuntungan,96037,12/5/2017,21.4,30.6,25.4,86,2.7,2,9.1
676,Stasiun Geofisika Tuntungan,96037,12/6/2017,21.2,31,25.9,85,0.8,1.5,0
677,Stasiun Geofisika Tuntungan,96037,12/7/2017,21.7,30.8,26.4,91,3.25,1.5,0
678,Stasiun Geofisika Tuntungan,96037,12/8/2017,21.6,27.4,25.5,93,3.6,2,1.9
679,Stasiun Geofisika Tuntungan,96037,12/9/2017,22.9,30.7,26.6,87,0,2,11.5
680,Stasiun Geofisika Tuntungan,96037,12/10/2017,22.2,32,25.2,91,9,1.5,0
681,Stasiun Geofisika Tuntungan,96037,12/11/2017,21.8,30.2,25.9,89,3.2,1,0
682,Stasiun Geofisika Tuntungan,96037,12/12/2017,22,29.2,25.9,93,1.9,2,12
683,Stasiun Geofisika Tuntungan,96037,12/13/2017,23.6,30.7,26.7,88,0,2,1.9
684,Stasiun Geofisika Tuntungan,96037,12/14/2017,22.6,29.2,26.1,88,0.8,1,1.2
685,Stasiun Geofisika Tuntungan,96037,12/15/2017,22.8,30.2,26,89,9,1,0.5
686,Stasiun Geofisika Tuntungan,96037,12/16/2017,22,32.2,26.4,85,3.4,1.5,0
687,Stasiun Geofisika Tuntungan,96037,12/17/2017,22.2,32.2,27.4,85,9,2,0.2
688,Stasiun Geofisika Tuntungan,96037,12/18/2017,22.2,32.6,26.5,85,9,1.5,0
689,Stasiun Geofisika Tuntungan,96037,12/19/2017,21.3,32.8,26.7,81,9,2,42.4
690,Stasiun Geofisika Tuntungan,96037,12/20/2017,21.8,33.2,27,81,9,2.5,6.6
691,Stasiun Geofisika Tuntungan,96037,12/21/2017,23.2,32.8,27.5,82,9,1.5,9.2
692,Stasiun Geofisika Tuntungan,96037,12/22/2017,22.6,32.4,27.2,85,3.05,1,35.5
693,Stasiun Geofisika Tuntungan,96037,12/23/2017,23.2,28.8,26,88,9,1.5,4.1
694,Stasiun Geofisika Tuntungan,96037,12/24/2017,22.7,31.6,26.3,88,0,1,0.5
695,Stasiun Geofisika Tuntungan,96037,12/25/2017,22.8,28.8,25.2,93,9,1.5,18.4
696,Stasiun Geofisika Tuntungan,96037,12/26/2017,22.6,30.4,25.4,91,0,1,53.5
697,Stasiun Geofisika Tuntungan,96037,12/27/2017,22.6,31.2,26.3,87,0.8,1,1
698,Stasiun Geofisika Tuntungan,96037,12/28/2017,22.6,26.8,24.5,93,2.8,1,14
699,Stasiun Geofisika Tuntungan,96037,12/29/2017,22,26,24.3,92,0,2.5,2.6
700,Stasiun Geofisika Tuntungan,96037,12/30/2017,22,31.4,26.3,85,0,2.5,5
701,Stasiun Geofisika Tuntungan,96037,12/31/2017,22,31.3,25.2,90,3.9,1,7.4
