6.95456187846743
6.94596110750979
64.2161340852925
11.5738589212912
10.5277544309238
32.1795924043586
4.39106337965322
5.7427651889722
9.39284675672076
4.26755269758083
10.0768003222611
5.3780049002644
3.99894685470832
8.93565838791113
2.51430655310123
15.7531034712964
8.86479015259896
14.9581039729333
6.74607587284257
6.58271707403156
7.04903169615555
9.11125425122307
6.72746898431397
9.00638828217116
3.07315852341277
7.50479305445101
9.57772507973877
9.35762690048914
9.23769975076503
7.20531877181275
0.220882155215055
4.60170712218135
7.0247080893992
7.3183781392089
9.65527165880252
8.30741229645239
8.76105778648081
7.22613866180257
5.35770628689563
8.5944452120598
6.577186093552
5.73697174837523
7.3524378475227
7.76615893269367
6.3890026818818
3.73019215630532
12.3092882334811
9.25424528712164
7.7948324504283
6.28871287671614
7.66709472556634
6.81595580135651
-0.243647419197989
36.1812267190184
7.04663132137203
-2.49916492198873
7.78737838177872
8.84010772421745
9.90267716820808
9.01355057474528
7.99260695267438
4.60666348375091
8.32288670625049
36.4250078986357
10.3226268843485
9.2511713231915
9.4371222436417
7.29479117124877
7.90716151864671
2.32341504985892
5.79124127960575
7.63838290588385
