"No"
"No"
"No"
"No"
"No"
"No"
"No"
"No"
"No"
"No"
"No"
"No"
"No"
"No"
"No"
"No"
"No"
"No"
"No"
"No"
"No"
"No"
"No"
"No"
"No"
"No"
"No"
"No"
"No"
"No"
"No"
"No"
"No"
"No"
"No"
"No"
"No"
"No"
"No"
"No"
"No"
"No"
"No"
"No"
"No"
"No"
"No"
"No"
"No"
"No"
"No"
"No"
"No"
"No"
"No"
"No"
"No"
"No"
"No"
"No"
"No"
"No"
"No"
"No"
"No"
"No"
"No"
"No"
"No"
"No"
"No"
"No"
"No"
"No"
"No"
"No"
"No"
"No"
"No"
"No"
"No"
"No"
"No"
"No"
"No"
"No"
"No"
"No"
"No"
"No"
"No"
"No"
"No"
"No"
"No"
"No"
"No"
"No"
"No"
"No"
"No"
"No"
"No"
"No"
"No"
"No"
"No"
"No"
"No"
"No"
"No"
"No"
"No"
"No"
"No"
"No"
"No"
"No"
"No"
"No"
"No"
"No"
"No"
"No"
"No"
"No"
"No"
"No"
"No"
"No"
"No"
"No"
"No"
"No"
"No"
"No"
"No"
"No"
"No"
"No"
"No"
"No"
"No"
"No"
"No"
"No"
"No"
"No"
"No"
"No"
"No"
"No"
"No"
"No"
"No"
"No"
"No"
"No"
"No"
"No"
"No"
"No"
"No"
"No"
"No"
"No"
"No"
"No"
"No"
"No"
"No"
"No"
"No"
"No"
"No"
"No"
"No"
"No"
"No"
"No"
"No"
"No"
"No"
"No"
"No"
"No"
"No"
"No"
"No"
"No"
"No"
"No"
"No"
"No"
"No"
"No"
"No"
"No"
"No"
"No"
"No"
"No"
"No"
"No"
"No"
"No"
"No"
"No"
"No"
"No"
"No"
"No"
"No"
"No"
"No"
"No"
"No"
"No"
"No"
"No"
"No"
"No"
"No"
"No"
"No"
"No"
"No"
"No"
"No"
"No"
"No"
"No"
"No"
"No"
"No"
"No"
"No"
"No"
"No"
"No"
"No"
"No"
"No"
"No"
"No"
"No"
"No"
"No"
"No"
"No"
"No"
"No"
"No"
"No"
"No"
"No"
"No"
"No"
"No"
"No"
"No"
"No"
"No"
"No"
"No"
"No"
"No"
"No"
"No"
"No"
"No"
"No"
"No"
"No"
"No"
"No"
"No"
"No"
"No"
"No"
"No"
"No"
"No"
"No"
"No"
"No"
"No"
"No"
"No"
"No"
