9.42494164314706
7.12239452815024
13.3195630367315
8.24263701292534
16.6417863056348
8.02568872726154
5.99588751726907
7.79021970304993
3.34266308462789
6.40507103409212
4.44122279462422
14.9244368368835
31.5316721922946
-1.39839921109498
23.6816060189386
14.7830220383538
-5.77429802319495
16.2481438979479
-3.12989197451689
25.8905610966374
6.88927639729411
-5.2350828207785
14.6897865507834
12.4966427548398
0.515014590200228
15.3583748410895
-2.10260611326987
11.3684274190844
3.37991450047451
17.7965581609729
14.8512543455054
2.75379701805581
6.34740181439675
9.1302699903289
9.55857508741609
22.8737740647887
-32.5453767660293
-7.11621635781148
6.59620149956875
18.2424785594934
-0.502621525841029
3.68347465483032
11.399408715425
12.9210542693306
30.259295835387
3.9285128280006
5.14258982707423
11.5549721810154
14.5320298594801
16.2001802549977
20.6308749792034
2.71034860503889
7.38094618118639
20.5073149075691
7.0850131249704
2.57713353720311
8.10441869232541
11.1331767390068
16.3576999034157
19.6870010874463
12.7128948166443
19.0611485458015
6.36195660123795
-5.38705115839723
19.1883270871564
8.55383428428663
-25.301164749129
-11.4006939660167
17.9205801961341
8.62736958910924
15.967015705404
-2.57719143566753
21.4064264807635
37.2905819434198
-1.54046541140328
-1.15107922629826
13.2198851104728
19.5974152095358
-2.49829617397233
2.82593969321353
-5.313517888827
5.87812177826015
-5.81538841983854
24.7103189635925
6.28514015500896
7.99504686048271
0.443286314041165
2.06728131415068
30.8656915502597
8.38110662357393
-7.7356787150763
5.3283633165243
-2.79514031969006
26.764350949806
33.9944164335553
4.82950403068393
25.4160811282282
13.5758591246524
9.42756067844978
16.1995956885677
4.60866888745174
20.3671332410345
-6.67471044191735
16.1356971421152
12.0610834165135
14.9935506849579
16.3013328242766
12.3250923375753
0.985823555227263
15.9540740971988
15.0021333632037
2.32562432711758
20.7950155660204
-3.49802876941146
11.7058099788801
-6.67315501628414
23.3680861326537
1.28765219599734
-1.69730162207376
6.15866260274321
-1.49972103653407
-2.32326197404964
16.528957585998
7.29793881272264
7.10895998477213
5.56245920351906
18.3835081905962
14.2371994035027
14.4089413061153
27.7052846881563
20.7178138476603
20.5294748302057
14.2676410055487
22.9403407646532
17.9724037785449
4.52874449074632
16.2442040807569
-1.3793100565723
3.29852195911834
-10.5837235530525
18.1015686484579
11.3412077222843
19.3881610719627
14.0837912526268
18.837945492776
3.09624843859217
6.32022559919589
15.1863994187919
11.7015596119508
15.8542253289873
18.3181465180339
1.03773521021865
19.0395323006108
13.3042138952647
13.5086773671289
11.4896158380938
6.71038090194772
-5.77287657951926
10.212527553615
9.80471543269929
15.0204447310492
12.0523564689437
18.0224990570349
17.2766440088297
21.9115297243068
23.7769185262349
-4.46696548584494
34.0321951965328
16.0223640605295
6.71464045890635
10.7206421634373
13.0355053298261
21.3673569139644
14.1431833671119
15.5256066503517
15.5084127583591
-8.11784527160209
13.134609369082
16.8508942232329
15.365351681237
-3.98665365991329
-1.4619557394451
11.867106454625
7.85947777682665
17.352854307752
11.499197578919
10.3763080832374
1.82923932934852
2.8004912717809
15.2893638945289
18.6688078670316
-1.90439515027963
4.50409142386979
2.76422840693481
1.15787781070022
3.43463348560455
14.1614870767231
23.0078927415313
18.7102015510054
11.03837928254
7.70502282211509
14.6381280778972
4.3980072058862
8.69764003886972
2.40411138761519
-0.340812321767018
15.814963770349
12.1643978286124
10.9633354303621
8.53343665647094
3.2722302475266
18.4423234818428
1.84002128169793
27.8974761720196
3.50397048638809
4.72898242514879
0.546126521713619
22.7962466332731
12.1105411570085
12.3683178779626
-11.7411734574132
-9.83458949296945
8.76032112084031
11.297849554501
-3.81080893400822
14.5417071618132
7.54731608600572
3.77713374125445
5.33902176298634
17.7452647822674
11.1703540072157
9.93838660114752
4.64305274854023
-0.258314656912433
4.95088607243203
11.8321555379668
15.1392170102783
11.1250764648729
-18.6098501494491
3.86520726231335
3.07493868356065
-0.121709918075389
-12.9956783442215
10.5498714160724
6.31661063553727
8.26551494063099
-1.94053815216009
21.9637992997279
4.87436120287094
8.5509559792548
6.80639413181414
16.5028704386509
1.68079022042225
13.7047598918851
15.6000670817045
9.32181615740059
19.8610228623221
12.5835186693063
16.4642657409445
-0.628115242775047
0.543010818876965
14.6500551844893
-26.500699434948
-22.5418428465486
12.2103245822243
7.66236539562283
1.18300328260186
5.11636684956063
13.7664575385226
1.67578168628223
-3.03540302392435
1.17343944897015
12.0423563671126
2.6745894351718
5.60183996818351
5.21568537264444
16.1834213522716
0.529196541531358
-1.12760694547892
27.0795937168392
18.5312894402414
21.1004506112449
13.9642780789908
-3.11474329518968
-9.86093454110153
-27.186788408959
-0.513894271969782
-1.99730007791131
9.58319387862604
14.2471289444822
