7.65013952139116
7.55655754804001
18.5594086071142
3.58523333103751
6.2122937298504
12.6394797839365
8.2573880902715
13.5192371425178
10.1079851779849
7.41550572988798
9.97938869228529
5.32208945541734
9.24774733421316
6.16071088722595
8.95783743016553
12.4363681495998
8.50810121705663
13.020171836714
9.7309378179039
6.03577540902235
6.60793839549976
8.02480655076119
6.78183700586033
9.37054301281147
6.21410143820141
1.80010600836102
8.88521939241258
9.57254932311817
8.48278118835499
7.05729558834704
1.38567336723183
3.60828546282268
7.68763989066812
7.63772349208642
9.65508861678817
8.44407886735551
6.60264801961652
7.57020385874196
4.03060916586129
7.42032513163645
5.71381151699151
8.0169194402832
6.04919603240551
6.58461250148608
2.0202990868523
-4.72692561802996
7.64809504281252
8.38178181961424
6.83466353069059
6.27705651398314
7.91761114553907
6.41758389968045
6.36609359485649
17.5338534761701
6.11488356293085
3.91358053215179
4.84255965617995
5.51465445563512
9.23464951384932
7.4915782429089
10.2010189446995
8.53470196924738
9.13583772920093
15.8740810750582
9.28337797065985
6.04156769152796
5.19650566575639
2.05374117073832
4.84079106302303
7.72910506973851
5.95419588104733
7.12977590355158
