Tanggal,suhu minimum ,suhu maksimum ,suhu rata-rata ,kelembaban rata-rata ,lama penyinaran ,kecepatan angin rata-rata ,curah hujan 
20/06/2018,24.2,34.4,28.6,82,7.4,1,0.1
21/06/2018,24.6,35.2,28.8,80,8.3,1,2
22/06/2018,26.2,32.4,28.4,84,8.6,1.75,6.3
23/06/2018,25.8,33.2,28.7,83,0,1,0.3
24/06/2018,26,35.4,29.3,78,6.8,3,42
25/06/2018,25.8,34,28.7,83,7,1,36.5
26/06/2018,25,34.4,28.1,79,6.2,1,6
27/06/2018,23.8,31.4,27,88,7.7,2,0
28/06/2018,22.4,29.8,26.2,88,0,2,6.45
29/06/2018,24.4,33,27.3,87,0,1,38
30/06/2018,24,30,26.3,91,9.5,1,2.85
01/07/2018,23.4,32.4,27.6,86,2.9,1,0.6
02/07/2018,23.8,28.6,24.6,94,4.5,1,1.5
03/07/2018,23,31.2,26.5,85,0,1,1.2
04/07/2018,22.6,32.05,25.8,85,3.9,1,0.1
05/07/2018,23.4,31.4,26.8,84,4.4,1,0
06/07/2018,23.8,31.2,26.9,85,3.6,2,19.3
07/07/2018,24.4,32.8,28.2,80,0,2,0
08/07/2018,21.2,29.8,25.7,87,10.5,3,1
09/07/2018,23,32.4,26.9,85,0.9,2,26.5
10/07/2018,22.2,32.8,26.2,84,8.8,1,0.5
11/07/2018,23,30.95,25.8,90.5,4.8,1,6.2
12/07/2018,25,32.4,27.7,86,1.9,1,0
13/07/2018,23.2,31.6,26.9,83,6.3,1,5
14/07/2018,23,32.4,26.8,86,7.45,1,0
15/07/2018,23.4,32.3,26.25,86.5,9.4,1,0
16/07/2018,24.4,32.4,28.1,84,2.6,1,0
17/07/2018,24.4,33.6,28,82,4.3,3,0
18/07/2018,23.2,30.3,25.4,91,6.9,2,45.4
19/07/2018,21.2,30.8,25.4,89,0,1,0
,,,,,,,
,,,,,,,
,,,,,,,
,,,,,,,
,,,,,,,
,,,,,,,
,,,,,,,
,,,,,,,
,,,,,,,
,,,,,,,
,,,,,,,
,,,,,,,
,,,,,,,
,,,,,,,
,,,,,,,
,,,,,,,
,,,,,,,
,,,,,,,
,,,,,,,
,,,,,,,
,,,,,,,
,,,,,,,
,,,,,,,
,,,,,,,
,,,,,,,
,,,,,,,
,,,,,,,
