Tanggal,suhu minimum ,suhu maksimum ,suhu rata-rata ,kelembaban rata-rata ,lama penyinaran ,kecepatan angin rata-rata ,curah hujan 
29/06/2018,0.6,0.852941176,0.85106383,0.25,0.704761905,0,0.904761905
30/06/2018,0.68,0.970588235,0.893617021,0.125,0.79047619,0,0.067857143
01/07/2018,1,0.558823529,0.808510638,0.375,0.819047619,0.375,0.014285714
02/07/2018,0.92,0.676470588,0.872340426,0.3125,0,0,0.035714286
03/07/2018,0.96,1,1,0,0.647619048,1,0.028571429
04/07/2018,0.92,0.794117647,0.872340426,0.3125,0.666666667,0,0.002380952
05/07/2018,0.76,0.852941176,0.744680851,0.0625,0.59047619,0,0
06/07/2018,0.52,0.411764706,0.510638298,0.625,0.733333333,0.5,0.45952381
07/07/2018,0.24,0.176470588,0.340425532,0.625,0,0.5,0
08/07/2018,0.64,0.647058824,0.574468085,0.5625,0,0,0.023809524
09/07/2018,0.56,0.205882353,0.361702128,0.8125,0.904761905,0,0.630952381
10/07/2018,0.44,0.558823529,0.638297872,0.5,0.276190476,0,0.011904762
7/11/2018,0.52,0,0,1,0.428571429,0,
7/12/2018,0.36,0.382352941,0.404255319,0.4375,0,0,
7/13/2018,0.28,0.507352941,0.255319149,0.4375,0.371428571,0,
7/14/2018,0.44,0.411764706,0.468085106,0.375,0.419047619,0,
7/15/2018,0.52,0.382352941,0.489361702,0.4375,0.342857143,0.5,
7/16/2018,0.64,0.617647059,0.765957447,0.125,0,0.5,
7/17/2018,0,0.176470588,0.234042553,0.5625,1,1,
7/18/2018,0.36,0.558823529,0.489361702,0.4375,0.085714286,0.5,
7/19/2018,0.2,0.617647059,0.340425532,0.375,0.838095238,0,
7/20/2018,0.36,0.345588235,0.255319149,0.78125,0.457142857,0,
7/21/2018,0.76,0.558823529,0.659574468,0.5,0.180952381,0,
7/22/2018,0.4,0.441176471,0.489361702,0.3125,0.6,0,
7/23/2018,0.36,0.558823529,0.468085106,0.5,0.70952381,0,
7/24/2018,0.44,0.544117647,0.35106383,0.53125,0.895238095,0,
7/25/2018,0.64,0.558823529,0.744680851,0.375,0.247619048,0,
7/26/2018,0.64,0.735294118,0.723404255,0.25,0.40952381,1,
7/27/2018,0.4,0.25,0.170212766,0.8125,0.657142857,0.5,
7/28/2018,0,0.323529412,0.170212766,0.6875,0,0,
