136.219464230158
135.306389832118
137.101016904603
137.101016904603
137.394598489247
129.109043111824
129.349004731465
129.426539498894
129.426539498894
129.426539498894
137.389162588418
129.426539498894
129.426539498894
129.810669794785
129.659245500919
129.349004731465
129.123952650877
129.349004731465
129.123952650877
129.349004731465
129.426539498894
129.426539498894
129.426539498894
129.536177716252
129.109043111824
129.109043111824
134.707296502871
137.101016904603
137.101016904603
129.504525018932
131.204117188354
132.685246725824
136.905848061909
137.263522702491
129.109043111824
129.109043111824
130.149432076545
135.810599861945
136.609618074568
129.426539498894
129.14387878566
136.598840072173
129.349004731465
129.109043111824
129.202952981506
129.426539498894
134.31107131794
129.426539498894
129.202952981506
136.30813840146
129.202952981506
129.202952981506
129.14387878566
129.349004731465
129.426539498894
129.109043111824
137.101016904603
136.446837108422
136.598840072173
135.683680341824
129.504525018932
129.810669794785
129.659245500919
129.14387878566
129.273440412458
129.202952981506
129.426539498894
129.14387878566
129.109043111824
129.109043111824
129.536177716252
129.109043111824
129.582216290434
129.426539498894
129.504525018932
129.123952650877
130.149432076545
129.349004731465
134.31107131794
131.204117188354
137.177579094904
136.598840072173
132.685246725824
134.407490047509
136.709083062276
136.807890055373
129.202952981506
130.149432076545
129.810669794785
129.504525018932
129.202952981506
129.349004731465
129.202952981506
129.735428333539
129.659245500919
129.109043111824
137.085675747531
129.536177716252
129.109043111824
132.685246725824
132.685246725824
136.905848061909
137.394598489247
135.683680341824
136.598840072173
135.810599861945
137.263522702491
136.807890055373
132.82003630039
134.602977393256
130.967527183615
133.694669537124
129.14387878566
135.683680341824
136.609618074568
129.109043111824
137.389162588418
136.609618074568
135.617296365655
135.617296365655
135.810599861945
135.683680341824
135.617296365655
137.263522702491
137.101016904603
137.310086388435
129.109043111824
135.111334018071
133.310807968193
137.101016904603
129.237476786905
135.41021277662
137.101016904603
135.683680341824
129.109043111824
136.709083062276
129.14387878566
135.913302390366
137.310086388435
137.263522702491
129.109043111824
131.204117188354
130.149432076545
131.204117188354
129.536177716252
129.237476786905
129.14387878566
129.349004731465
129.735428333539
129.349004731465
129.536177716252
129.109043111824
135.683680341824
134.31107131794
129.123952650877
129.349004731465
129.123952650877
129.14387878566
129.735428333539
129.536177716252
137.310086388435
136.015698082165
136.905848061909
137.394598489247
135.683680341824
136.598840072173
135.810599861945
133.310807968193
136.807890055373
132.82003630039
134.602977393256
130.967527183615
133.694669537124
129.14387878566
135.683680341824
136.609618074568
129.109043111824
137.389162588418
136.609618074568
135.617296365655
135.617296365655
135.810599861945
135.683680341824
135.617296365655
137.263522702491
137.101016904603
137.310086388435
129.109043111824
135.111334018071
133.310807968193
137.101016904603
129.237476786905
129.109043111824
133.399948948419
131.455784509178
134.902887531649
135.913302390366
129.109043111824
129.109043111824
129.109043111824
137.337862481745
136.219464230158
130.149432076545
129.109043111824
136.807890055373
137.101016904603
129.237476786905
129.109043111824
137.177579094904
132.685246725824
129.109043111824
129.109043111824
129.109043111824
130.149432076545
134.707296502871
137.101016904603
137.263522702491
