,Nama Stasiun ,WMO ID,Tanggal,suhu.minimum,suhu.maksimum,suhu.rata.rata,kelembaban.rata.rata,lama.penyinaran,kecepatan.angin.rata.rata,curah.hujan
1,Stasiun Meteorologi Kualanamu,96035,1/7/2016,23.1,29.5,26.3,88,3.1,2,0
2,Stasiun Meteorologi Kualanamu,96035,1/8/2016,23.45,31.6,26.7,88,0.8,2,0.2
3,Stasiun Meteorologi Kualanamu,96035,1/9/2016,21.9,32.5,26.3,85,2.4,2,0
4,Stasiun Meteorologi Kualanamu,96035,1/10/2016,23.3,33.5,27.5,88,7.5,3,0
5,Stasiun Meteorologi Kualanamu,96035,1/11/2016,23.4,33.5,27.3,87,7.7,2,4.9
6,Stasiun Meteorologi Kualanamu,96035,1/12/2016,23.6,33.15,27.3,88,8,2,0
7,Stasiun Meteorologi Kualanamu,96035,1/13/2016,24,32,26.7,92,9,2,0
8,Stasiun Meteorologi Kualanamu,96035,1/14/2016,23.5,33.25,27.5,85,1.7,3,0
9,Stasiun Meteorologi Kualanamu,96035,1/15/2016,23.6,32.85,27.3,88,8.8,2,0.1
10,Stasiun Meteorologi Kualanamu,96035,1/16/2016,23.8,33.6,27.2,87,9.2,2,3.9
11,Stasiun Meteorologi Kualanamu,96035,1/17/2016,23.45,32.6,27.8,87,10.2,3,5.6
12,Stasiun Meteorologi Kualanamu,96035,1/18/2016,24.3,33.4,27.7,87,8.4,2,0
13,Stasiun Meteorologi Kualanamu,96035,1/19/2016,23.9,32.7,27.7,87,9.2,2,0
14,Stasiun Meteorologi Kualanamu,96035,1/20/2016,24.3,31.85,27.1,89,9.2,2,0
15,Stasiun Meteorologi Kualanamu,96035,1/21/2016,24,33.65,26.9,88,1.7,2,0
16,Stasiun Meteorologi Kualanamu,96035,1/22/2016,24.4,32.1,27.3,88,7,3,0
17,Stasiun Meteorologi Kualanamu,96035,1/23/2016,22.8,31.6,26.5,90,4.7,2,0
18,Stasiun Meteorologi Kualanamu,96035,1/24/2016,23.9,30.8,26.8,88,4.2,2,0
19,Stasiun Meteorologi Kualanamu,96035,1/25/2016,23.9,31.4,26.6,92,6.8,1,0
20,Stasiun Meteorologi Kualanamu,96035,1/26/2016,24.35,34,28,86,9,3,0.7
21,Stasiun Meteorologi Kualanamu,96035,1/27/2016,24,34.15,28.3,84,8.9,3,0.2
22,Stasiun Meteorologi Kualanamu,96035,1/28/2016,23.8,33.9,27,86,8.8,3,0.2
23,Stasiun Meteorologi Kualanamu,96035,1/29/2016,24.4,33.7,27.7,83,9.3,4,0
24,Stasiun Meteorologi Kualanamu,96035,1/30/2016,24.4,33,27.5,86,7.2,3,0
25,Stasiun Meteorologi Kualanamu,96035,1/31/2016,23.9,33.6,27.9,81,6.2,3,0
26,Stasiun Meteorologi Kualanamu,96035,2/1/2016,24,34.2,28,83,7.1,3,0
27,Stasiun Meteorologi Kualanamu,96035,2/2/2016,24.6,32.9,27.7,88,7.75,2,5.1
28,Stasiun Meteorologi Kualanamu,96035,2/3/2016,24.1,32,27.4,88,0.7,2,0
29,Stasiun Meteorologi Kualanamu,96035,2/4/2016,23.75,32,27,89,3.6,3,0
30,Stasiun Meteorologi Kualanamu,96035,2/5/2016,24,32.2,27,85,6.4,2,24.45
31,Stasiun Meteorologi Kualanamu,96035,2/6/2016,24.2,32.9,27.9,87,2.3,3,48.9
32,Stasiun Meteorologi Kualanamu,96035,2/7/2016,24.3,32.8,27.4,86,3.3,3,0.6
33,Stasiun Meteorologi Kualanamu,96035,2/8/2016,22.5,32.4,26.8,80,4.8,3,14.3
34,Stasiun Meteorologi Kualanamu,96035,2/9/2016,22.8,29.3,26,90,5.5,2,45.4
35,Stasiun Meteorologi Kualanamu,96035,2/10/2016,23.3,32.8,27.2,87,0.3,3,0
36,Stasiun Meteorologi Kualanamu,96035,2/11/2016,24,31.8,27.4,87,6.4,3,57.4
37,Stasiun Meteorologi Kualanamu,96035,2/12/2016,24,31.2,26.4,93,1.8,2,7.7
38,Stasiun Meteorologi Kualanamu,96035,2/13/2016,24.7,30.8,27.2,89,4.6,3,0
39,Stasiun Meteorologi Kualanamu,96035,2/14/2016,23.8,29.5,25,97,6.9,2,0.4
40,Stasiun Meteorologi Kualanamu,96035,2/15/2016,22.1,32.1,26.1,86,0,3,0.8
41,Stasiun Meteorologi Kualanamu,96035,2/16/2016,23.5,30.8,25.7,91,9.1,2,0
42,Stasiun Meteorologi Kualanamu,96035,2/17/2016,23.8,32.3,25.7,94,3.1,3,1.4
43,Stasiun Meteorologi Kualanamu,96035,2/18/2016,23.4,32.6,27.3,87,4.7,3,1
44,Stasiun Meteorologi Kualanamu,96035,2/19/2016,23.4,31.8,27.4,88,6.9,3,0
45,Stasiun Meteorologi Kualanamu,96035,2/20/2016,24,32.2,27.9,87,5.8,2,5.3
46,Stasiun Meteorologi Kualanamu,96035,2/21/2016,24.8,32.1,27.7,87,5.1,3,2.5
47,Stasiun Meteorologi Kualanamu,96035,2/22/2016,24.3,33.5,26.6,87,6.5,3,0
48,Stasiun Meteorologi Kualanamu,96035,2/23/2016,23.6,31.2,28.1,81,6.4,3,0
49,Stasiun Meteorologi Kualanamu,96035,2/24/2016,22.6,32,26.6,88,3.6,2,0
50,Stasiun Meteorologi Kualanamu,96035,2/25/2016,23,32.9,27.5,84,9.1,3,0
51,Stasiun Meteorologi Kualanamu,96035,2/26/2016,24.3,32.2,27.4,86,10.2,3,8.5
52,Stasiun Meteorologi Kualanamu,96035,2/27/2016,23.4,31.4,27.1,88,6.5,3,0
53,Stasiun Meteorologi Kualanamu,96035,2/28/2016,23.8,32.4,27.7,85,6.5,2,0
54,Stasiun Meteorologi Kualanamu,96035,2/29/2016,23.9,31.4,27.3,87,5.9,3,0
55,Stasiun Meteorologi Kualanamu,96035,3/1/2016,24.4,32.9,27.2,83,9,4,0.5
56,Stasiun Meteorologi Kualanamu,96035,3/2/2016,23.7,31.7,26.1,89,9.8,3,8.8
57,Stasiun Meteorologi Kualanamu,96035,3/3/2016,23.7,32.1,28.2,79,2.3,2,0
58,Stasiun Meteorologi Kualanamu,96035,3/4/2016,23.2,31.9,26.7,88,6.5,3,0
59,Stasiun Meteorologi Kualanamu,96035,3/5/2016,23.2,33.65,27,85,9.4,3,0
60,Stasiun Meteorologi Kualanamu,96035,3/6/2016,23.1,33.4,26.2,91,10.3,3,0
61,Stasiun Meteorologi Kualanamu,96035,3/7/2016,24.4,31.1,27.5,87,4,2,0
62,Stasiun Meteorologi Kualanamu,96035,3/8/2016,24.2,32.8,27.2,90,2.7,2,0
63,Stasiun Meteorologi Kualanamu,96035,3/9/2016,23.8,32,27.3,89,5.7,2,0
64,Stasiun Meteorologi Kualanamu,96035,3/10/2016,24,32,27.7,87,6,3,0
65,Stasiun Meteorologi Kualanamu,96035,3/11/2016,24.9,33.7,27.8,88,9,2,0
66,Stasiun Meteorologi Kualanamu,96035,3/12/2016,24.5,33.2,27.8,89,7.3,3,0
67,Stasiun Meteorologi Kualanamu,96035,3/13/2016,23.9,33.4,27.8,86,8.5,2,0
68,Stasiun Meteorologi Kualanamu,96035,3/14/2016,24.45,33.6,28.2,88,6.8,2,0
69,Stasiun Meteorologi Kualanamu,96035,3/15/2016,23.75,33.7,28.4,84,6.4,3,0
70,Stasiun Meteorologi Kualanamu,96035,3/16/2016,25,32.5,28.2,88,9.4,3,0
71,Stasiun Meteorologi Kualanamu,96035,3/17/2016,25.7,34.2,29.1,82,8.5,3,0
72,Stasiun Meteorologi Kualanamu,96035,3/18/2016,24.35,34.3,28.4,87,8.8,2,0
73,Stasiun Meteorologi Kualanamu,96035,3/19/2016,25.8,32.1,28.6,88,4,3,0
74,Stasiun Meteorologi Kualanamu,96035,3/20/2016,25.3,33.3,28.2,85,7.7,3,0
75,Stasiun Meteorologi Kualanamu,96035,3/21/2016,25.1,33.1,28,89,8.5,3,0
76,Stasiun Meteorologi Kualanamu,96035,3/22/2016,24.6,34.6,28.3,85,1.4,3,0
77,Stasiun Meteorologi Kualanamu,96035,3/23/2016,24.7,33.4,28.7,84,9.7,3,6.8
78,Stasiun Meteorologi Kualanamu,96035,3/24/2016,24.1,34.2,28.4,86,7.4,3,0
79,Stasiun Meteorologi Kualanamu,96037,3/25/2016,24.25,34.4,28.4,87,9.2,4,0
80,Stasiun Meteorologi Kualanamu,96035,3/26/2016,24.8,34.3,31,77,6.3,3,0
81,Stasiun Meteorologi Kualanamu,96035,3/27/2016,25.6,33.8,28.7,82,6.8,4,0
82,Stasiun Meteorologi Kualanamu,96035,3/28/2016,25.5,30.5,27.2,88,6.9,1,0
83,Stasiun Meteorologi Kualanamu,96035,3/29/2016,23.8,34.1,27.9,85,0,3,0
84,Stasiun Meteorologi Kualanamu,96035,3/30/2016,23.3,33.85,28.2,84,8.1,3,0
85,Stasiun Meteorologi Kualanamu,96035,3/31/2016,23.8,33.6,27.8,84,7.7,2,0
86,Stasiun Meteorologi Kualanamu,96035,4/1/2016,23.9,32,28.1,89,7.4,2,0
87,Stasiun Meteorologi Kualanamu,96035,4/2/2016,24.6,34.6,28.6,77,0.2,4,0
88,Stasiun Meteorologi Kualanamu,96036,4/3/2016,23.95,34.7,28.7,82,7.4,3,0
89,Stasiun Meteorologi Kualanamu,96035,4/4/2016,23.2,34.3,28.6,80,7.8,3,0
90,Stasiun Meteorologi Kualanamu,96035,4/5/2016,24.2,35,28.6,84,7.7,4,0
91,Stasiun Meteorologi Kualanamu,96035,4/6/2016,25.4,34.05,28.6,83,9,2,0
92,Stasiun Meteorologi Kualanamu,96035,4/7/2016,24,34.3,28.8,81,7.8,3,0
93,Stasiun Meteorologi Kualanamu,96035,4/8/2016,25.4,32.3,28.5,87,8.2,2,0
94,Stasiun Meteorologi Kualanamu,96035,4/9/2016,25,33.9,28.6,82,3.2,3,0
95,Stasiun Meteorologi Kualanamu,96035,4/10/2016,24.4,33.4,28.1,87,0.5,2,0
96,Stasiun Meteorologi Kualanamu,96035,4/11/2016,25.2,32.7,28.2,85,12.45,2,8
97,Stasiun Meteorologi Kualanamu,96035,4/12/2016,24.9,33.3,28.7,86,1.5,3,6.8
98,Stasiun Meteorologi Kualanamu,96035,4/13/2016,25,32.2,28.7,85,8,3,0
99,Stasiun Meteorologi Kualanamu,96035,4/14/2016,24.4,34.1,28.3,85,3.5,3,0
100,Stasiun Meteorologi Kualanamu,96035,4/15/2016,24.6,34.5,29,84,6.7,3,0
101,Stasiun Meteorologi Kualanamu,96035,4/16/2016,25,34.7,28.9,82,8.7,3,0
102,Stasiun Meteorologi Kualanamu,96035,4/17/2016,25.9,33,28.3,88,7.3,2,0
103,Stasiun Meteorologi Kualanamu,96035,4/18/2016,24.7,34.3,28.2,85,2.3,4,0
104,Stasiun Meteorologi Kualanamu,96035,4/19/2016,25.2,33.5,28.5,85,4.8,3,0
105,Stasiun Meteorologi Kualanamu,96035,4/20/2016,24.7,34.2,28.4,82,5.3,3,0
106,Stasiun Meteorologi Kualanamu,96035,4/21/2016,24.6,32.6,27.8,84,8.9,2,0
107,Stasiun Meteorologi Kualanamu,96035,4/22/2016,25.1,34.2,28.8,84,1.6,3,0
108,Stasiun Meteorologi Kualanamu,96035,4/23/2016,25,34,28.7,87,8.4,3,0
109,Stasiun Meteorologi Kualanamu,96035,4/24/2016,24,35,29.1,80,1.5,3,5
110,Stasiun Meteorologi Kualanamu,96035,4/25/2016,25.5,33.2,29.2,85,9.4,2,0
111,Stasiun Meteorologi Kualanamu,96035,4/26/2016,25.3,35.7,29.2,84,3.7,2,0
112,Stasiun Meteorologi Kualanamu,96035,4/27/2016,25.3,34.2,28.7,84,8.9,2,0
113,Stasiun Meteorologi Kualanamu,96035,4/28/2016,22.8,34.1,29.2,79,3.8,3,0
114,Stasiun Meteorologi Kualanamu,96035,4/29/2016,25.2,34.2,29.2,81,6.5,3,0
115,Stasiun Meteorologi Kualanamu,96041,4/30/2016,25.05,33.8,28.3,83,5.5,2,0.8
116,Stasiun Meteorologi Kualanamu,96042,5/1/2016,24.1,33.6,28.8,83,5.9,2,0.1
117,Stasiun Meteorologi Kualanamu,96035,5/2/2016,24.6,33.8,28,84,3.1,2,0
118,Stasiun Meteorologi Kualanamu,96035,5/3/2016,23.5,34.8,28.8,78,6.2,2,0
119,Stasiun Meteorologi Kualanamu,96035,5/4/2016,24.2,35.5,29,78,5.7,3,0
120,Stasiun Meteorologi Kualanamu,96035,5/5/2016,24.8,33.7,29.2,82,9.2,3,0
121,Stasiun Meteorologi Kualanamu,96035,5/6/2016,24.4,32.7,27.5,83,5.4,2,1.4
122,Stasiun Meteorologi Kualanamu,96035,5/7/2016,24.3,35.2,28.7,81,6.6,3,0.1
123,Stasiun Meteorologi Kualanamu,96035,5/8/2016,25.2,35.15,29.5,82,8,3,30.8
124,Stasiun Meteorologi Kualanamu,96035,5/9/2016,25.8,34.5,29.3,81,5.5,3,0
125,Stasiun Meteorologi Kualanamu,96035,5/10/2016,24,36.1,29.9,80,4.8,4,0
126,Stasiun Meteorologi Kualanamu,96035,5/11/2016,25.8,34.3,28.5,82,4.1,2,4.7
127,Stasiun Meteorologi Kualanamu,96035,5/12/2016,24.6,34.45,28.5,82,3.8,2,9.4
128,Stasiun Meteorologi Kualanamu,96035,5/13/2016,24.8,32,26.4,94,5.3,2,0
129,Stasiun Meteorologi Kualanamu,96035,5/14/2016,23.7,33.7,28,85,0.4,2,0
130,Stasiun Meteorologi Kualanamu,96035,5/15/2016,24.4,33.55,28.8,86,9,2,0
131,Stasiun Meteorologi Kualanamu,96035,5/16/2016,24.25,33.7,28.7,85,8.7,2,1
132,Stasiun Meteorologi Kualanamu,96035,5/17/2016,25.5,32.15,26.6,93,6.3,2,42.1
133,Stasiun Meteorologi Kualanamu,96035,5/18/2016,21.9,33.7,27.4,82,0,2,0
134,Stasiun Meteorologi Kualanamu,96035,5/19/2016,23.4,33,27.9,86,7.8,2,0
135,Stasiun Meteorologi Kualanamu,96035,5/20/2016,25.6,33.05,28,86,2.6,3,0
136,Stasiun Meteorologi Kualanamu,96035,5/21/2016,24.6,34.4,28.3,84,3.2,2,15
137,Stasiun Meteorologi Kualanamu,96035,5/22/2016,24.65,32.3,27.9,89,6.7,2,0.8
138,Stasiun Meteorologi Kualanamu,96035,5/23/2016,24.8,32.3,28.2,90,4,2,0
139,Stasiun Meteorologi Kualanamu,96035,5/24/2016,25.4,33.2,27.8,91,2.8,2,0
140,Stasiun Meteorologi Kualanamu,96035,5/25/2016,25.25,33,28.8,87,0,2,0
141,Stasiun Meteorologi Kualanamu,96035,5/26/2016,24.4,32.8,28.3,86,2.8,3,2.3
142,Stasiun Meteorologi Kualanamu,96035,5/27/2016,24.2,30.3,25.9,92,5.8,2,1.4
143,Stasiun Meteorologi Kualanamu,96035,5/28/2016,23.4,33.8,28.6,83,0,2,0
144,Stasiun Meteorologi Kualanamu,96035,5/29/2016,24.2,33.9,28.7,83,8.7,2,7.3
145,Stasiun Meteorologi Kualanamu,96035,5/30/2016,23.7,33.3,28,85,5.7,2,0.5
146,Stasiun Meteorologi Kualanamu,96035,5/31/2016,25.6,33.5,28.7,82,3,2,8.9
147,Stasiun Meteorologi Kualanamu,96035,6/1/2016,24.2,33.6,27.6,87,5.7,2,0
148,Stasiun Meteorologi Kualanamu,96035,6/2/2016,24.8,33.7,28,89,3,2,0
149,Stasiun Meteorologi Kualanamu,96035,6/3/2016,24.5,32.5,28.2,84,4.9,3,43.5
150,Stasiun Meteorologi Kualanamu,96035,6/4/2016,24.1,32.1,26.6,91,8.2,3,0.6
151,Stasiun Meteorologi Kualanamu,96035,6/5/2016,24.5,34,28,86,6,3,0.1
152,Stasiun Meteorologi Kualanamu,96035,6/6/2016,23.05,31.95,26.9,85,5.9,2,0
153,Stasiun Meteorologi Kualanamu,96035,6/7/2016,23.9,32.6,28.2,83,4,3,0
154,Stasiun Meteorologi Kualanamu,96035,6/8/2016,23.8,33.1,26.4,87,10.3,3,0.6
155,Stasiun Meteorologi Kualanamu,96035,6/9/2016,23.2,32.4,27.6,85,8.9,3,0
156,Stasiun Meteorologi Kualanamu,96035,6/10/2016,23.9,33,27.6,88,6.2,3,0
157,Stasiun Meteorologi Kualanamu,96035,6/11/2016,24,33.6,28.1,85,8.7,3,0
158,Stasiun Meteorologi Kualanamu,96035,6/12/2016,24.4,33,28.6,86,9.8,3,0.3
159,Stasiun Meteorologi Kualanamu,96035,6/13/2016,24.8,32.5,27.4,87,6.5,3,0.6
160,Stasiun Meteorologi Kualanamu,96035,6/14/2016,24.7,31.3,27.3,87,4.1,2,1.8
161,Stasiun Meteorologi Kualanamu,96035,6/15/2016,24.7,32.2,27.8,86,5.5,2,0.6
162,Stasiun Meteorologi Kualanamu,96035,6/16/2016,24.7,33.8,28.3,80,6.7,2,0.2
163,Stasiun Meteorologi Kualanamu,96035,6/17/2016,25,33.3,28.6,78,9.4,3,10.3
164,Stasiun Meteorologi Kualanamu,96035,6/18/2016,25,32.3,27.7,84,10,2,6.1
165,Stasiun Meteorologi Kualanamu,96035,6/19/2016,23.4,32.6,27.4,84,5,3,0.1
166,Stasiun Meteorologi Kualanamu,96035,6/20/2016,23.2,33.3,27.3,84,6,2,14.1
167,Stasiun Meteorologi Kualanamu,96035,6/21/2016,23.2,32.9,27.5,86,8.4,3,0.2
168,Stasiun Meteorologi Kualanamu,96035,6/22/2016,24.2,30.7,27.3,89,6.4,2,0.2
169,Stasiun Meteorologi Kualanamu,96035,6/23/2016,25.2,27.5,25.5,92,6.6,2,0
170,Stasiun Meteorologi Kualanamu,96035,6/24/2016,23.2,30.8,26.2,89,0,3,0
171,Stasiun Meteorologi Kualanamu,96035,6/25/2016,24,32.8,27.5,83,2.8,2,0
172,Stasiun Meteorologi Kualanamu,96035,6/26/2016,23.4,30.5,26,89,9,2,0
173,Stasiun Meteorologi Kualanamu,96035,6/27/2016,23.5,32.2,26.7,92,1.2,3,0
174,Stasiun Meteorologi Kualanamu,96035,6/28/2016,23.1,33.1,27.5,83,3.7,2,0
175,Stasiun Meteorologi Kualanamu,96035,6/29/2016,22.6,32.6,27.1,85,4.6,2,0
176,Stasiun Meteorologi Kualanamu,96035,6/30/2016,23,34.8,27.9,83,5.85,2,0
177,Stasiun Meteorologi Kualanamu,96035,7/1/2016,23.4,33.7,27.5,82,6.15,2,0
178,Stasiun Meteorologi Kualanamu,96035,7/2/2016,23.8,33.9,28.1,80,8,2,0
179,Stasiun Meteorologi Kualanamu,96035,7/3/2016,24.3,35.25,28.4,85,7.2,2,0
180,Stasiun Meteorologi Kualanamu,96035,7/4/2016,22.2,34.7,27.6,83,6.75,2,0
181,Stasiun Meteorologi Kualanamu,96035,7/5/2016,22.8,33.2,27.4,82,1.75,2,0
182,Stasiun Meteorologi Kualanamu,96035,7/6/2016,23.8,33.9,28.3,81,9,2,35.8
183,Stasiun Meteorologi Kualanamu,96035,7/7/2016,24.6,33.9,28.3,82,8.15,3,0
184,Stasiun Meteorologi Kualanamu,96035,7/8/2016,22.6,34.9,27.9,84,7.85,3,27.2
185,Stasiun Meteorologi Kualanamu,96035,7/9/2016,23.4,33.1,27.6,84,8.95,2,0.1
186,Stasiun Meteorologi Kualanamu,96035,7/10/2016,23.7,34.9,28.1,83,9.6,2,0
187,Stasiun Meteorologi Kualanamu,96035,7/11/2016,24.2,34,28.3,83,3.35,4,0
188,Stasiun Meteorologi Kualanamu,96035,7/12/2016,22,31.8,26.9,88,8.6,2,0
189,Stasiun Meteorologi Kualanamu,96035,7/13/2016,23.8,32.8,27.5,85,0,4,7.1
190,Stasiun Meteorologi Kualanamu,96035,7/14/2016,23.3,32.4,27.6,86,6.4,3,0
191,Stasiun Meteorologi Kualanamu,96035,7/15/2016,23.2,33.3,27.5,86,7.7,2,0
192,Stasiun Meteorologi Kualanamu,96035,7/16/2016,23.4,32.8,27.7,84,7.1,3,0
193,Stasiun Meteorologi Kualanamu,96035,7/17/2016,22.9,32.9,27.5,82,6.15,3,16.9
194,Stasiun Meteorologi Kualanamu,96035,7/18/2016,24.1,33.3,28.1,82,9.3,3,5.1
195,Stasiun Meteorologi Kualanamu,96035,7/19/2016,22.6,32.5,27.4,83,9,2,5.4
196,Stasiun Meteorologi Kualanamu,96035,7/20/2016,23.3,33.2,28,84,6.8,3,0.3
197,Stasiun Meteorologi Kualanamu,96035,7/21/2016,23.2,31.7,27.2,79,5.55,2,23.1
198,Stasiun Meteorologi Kualanamu,96035,7/22/2016,23.8,29,26,93,2,2,0
199,Stasiun Meteorologi Kualanamu,96035,7/23/2016,23.3,31.9,27.6,86,0,2,2.4
200,Stasiun Meteorologi Kualanamu,96035,7/24/2016,24.5,28.2,25.9,91,7.15,1,0.1
201,Stasiun Meteorologi Kualanamu,96035,7/25/2016,22.2,30.7,25.8,84,0,3,2.9
202,Stasiun Meteorologi Kualanamu,96035,7/26/2016,22.4,30.4,24.8,94,4.8,3,7.2
203,Stasiun Meteorologi Kualanamu,96035,7/27/2016,22.9,32,26.7,86,4.8,3,0.1
204,Stasiun Meteorologi Kualanamu,96035,7/28/2016,23,31.4,27.2,84,6.75,3,3
205,Stasiun Meteorologi Kualanamu,96035,7/29/2016,22.9,31.3,26.5,83,5.05,3,32.4
206,Stasiun Meteorologi Kualanamu,96035,7/30/2016,23.5,30.7,26.5,86,8.5,3,0
207,Stasiun Meteorologi Kualanamu,96035,7/31/2016,22.2,30.4,26.5,84,5,2,0
208,Stasiun Meteorologi Kualanamu,96035,8/1/2016,23.6,31,26.1,91,7.9,2,0
209,Stasiun Meteorologi Kualanamu,96035,8/2/2016,24.2,31.9,27.6,83,6.45,3,0
210,Stasiun Meteorologi Kualanamu,96035,8/3/2016,23.6,31.3,27,85,9.1,3,0
211,Stasiun Meteorologi Kualanamu,96035,8/4/2016,23.1,30.6,26.2,91,5.6,2,0
212,Stasiun Meteorologi Kualanamu,96035,8/5/2016,23.5,31.8,27.6,85,2.1,3,0.85
213,Stasiun Meteorologi Kualanamu,96035,8/6/2016,23,31.7,26.7,85,9.1,3,0
214,Stasiun Meteorologi Kualanamu,96035,8/7/2016,23.9,32.2,27,84,5.5,3,1.8
215,Stasiun Meteorologi Kualanamu,96038,8/8/2016,23.55,34.4,26.9,83,9,3,0
216,Stasiun Meteorologi Kualanamu,96035,8/9/2016,22,33.8,26.7,82,8.2,3,0
217,Stasiun Meteorologi Kualanamu,96035,8/10/2016,22.2,32.6,27,83,6.75,3,0.4
218,Stasiun Meteorologi Kualanamu,96035,8/11/2016,22.9,33.3,27.9,83,10,2,0
219,Stasiun Meteorologi Kualanamu,96035,8/12/2016,24.2,32.7,28.2,82,7.6,3,12.7
220,Stasiun Meteorologi Kualanamu,96035,8/13/2016,22.5,34.8,27.2,83,7.25,2,2.3
221,Stasiun Meteorologi Kualanamu,96035,8/14/2016,22.7,22.9,27,81,6,2,0.8
222,Stasiun Meteorologi Kualanamu,96035,8/15/2016,22.9,34.9,28.1,83,5.9,2,0
223,Stasiun Meteorologi Kualanamu,96035,8/16/2016,23.6,33.6,26.8,86,9.2,2,1
224,Stasiun Meteorologi Kualanamu,96035,8/17/2016,24.6,33.4,27.9,87,4,2,25
225,Stasiun Meteorologi Kualanamu,96035,8/18/2016,23.45,32.8,27.9,81,6,3,6.9
226,Stasiun Meteorologi Kualanamu,96035,8/19/2016,24.3,32,27.1,86,8.7,2,0
227,Stasiun Meteorologi Kualanamu,96035,8/20/2016,23.6,33.2,27.7,85,2.8,2,5
228,Stasiun Meteorologi Kualanamu,96035,8/21/2016,23.6,33.85,28.4,83,8.8,2,0
229,Stasiun Meteorologi Kualanamu,96035,8/22/2016,24.1,33.6,26.9,90,9.2,3,0
230,Stasiun Meteorologi Kualanamu,96035,8/23/2016,23.8,32.8,27.5,86,9.1,4,4.2
231,Stasiun Meteorologi Kualanamu,96035,8/24/2016,23.7,33.95,27.4,83,8.8,2,53
232,Stasiun Meteorologi Kualanamu,96035,8/25/2016,24.1,33.7,27.7,85,7.9,2,1.6
233,Stasiun Meteorologi Kualanamu,96035,8/26/2016,23.9,32.8,27.5,82,1.5,2,3.2
234,Stasiun Meteorologi Kualanamu,96035,8/27/2016,23.8,31.3,26.9,88,9.5,2,0.4
235,Stasiun Meteorologi Kualanamu,96035,8/28/2016,24.3,33.65,27.7,87,1.4,2,15.1
236,Stasiun Meteorologi Kualanamu,96035,8/29/2016,23.4,32.7,27.3,89,5.3,2,0.2
237,Stasiun Meteorologi Kualanamu,96035,8/30/2016,23.55,32.8,27.3,86,0.5,2,12.5
238,Stasiun Meteorologi Kualanamu,96035,8/31/2016,24.5,31.8,27.5,86,4.7,3,2.8
239,Stasiun Meteorologi Kualanamu,96035,9/1/2016,23.8,33.9,27.3,87,5.4,2,3.6
240,Stasiun Meteorologi Kualanamu,96035,9/2/2016,24.7,33.6,28.4,84,6.2,3,101.6
241,Stasiun Meteorologi Kualanamu,96055,9/3/2016,24.05,32.2,25.9,93,6.4,3,0.4
242,Stasiun Meteorologi Kualanamu,96035,9/4/2016,24.4,33,27.5,83,4.1,3,27.8
243,Stasiun Meteorologi Kualanamu,96035,9/5/2016,24,31.2,26.9,88,7.2,3,55.2
244,Stasiun Meteorologi Kualanamu,96035,9/6/2016,25,30.1,26.6,90,0,2,0.1
245,Stasiun Meteorologi Kualanamu,96035,9/7/2016,23.8,32.7,27.7,85,2.1,3,3.1
246,Stasiun Meteorologi Kualanamu,96035,9/8/2016,22.1,29.5,25.2,86,5.2,2,10.6
247,Stasiun Meteorologi Kualanamu,96035,9/9/2016,22.4,33.5,27.4,84,1.3,2,13.3
248,Stasiun Meteorologi Kualanamu,96035,9/10/2016,23.55,33.1,27.2,86,8.4,3,18.75
249,Stasiun Meteorologi Kualanamu,96035,9/11/2016,23.9,31.1,26.6,88,8.7,2,0
250,Stasiun Meteorologi Kualanamu,96035,9/12/2016,24,32.3,27.1,84,4.7,3,7.7
251,Stasiun Meteorologi Kualanamu,96035,9/13/2016,23.3,32.55,26.7,86,5.8,4,7.7
252,Stasiun Meteorologi Kualanamu,96035,9/14/2016,22.35,33.5,27.2,86,3.9,3,12.9
253,Stasiun Meteorologi Kualanamu,96035,9/15/2016,22.4,30.8,26.5,88,7.4,3,0
254,Stasiun Meteorologi Kualanamu,96035,9/16/2016,23.5,31.8,27.4,87,1.4,2,2.9
255,Stasiun Meteorologi Kualanamu,96035,9/17/2016,23,32.7,27.4,84,7.5,3,0
256,Stasiun Meteorologi Kualanamu,96035,9/18/2016,23.25,34.2,27.2,85,9.2,3,48.3
257,Stasiun Meteorologi Kualanamu,96035,9/19/2016,22.8,32,27.5,85,7.4,2,79.8
258,Stasiun Meteorologi Kualanamu,96035,9/20/2016,24.3,32.9,27.8,83,8.7,2,22.6
259,Stasiun Meteorologi Kualanamu,96035,9/21/2016,24.5,34.2,28.5,82,5.6,2,4.5
260,Stasiun Meteorologi Kualanamu,96035,9/22/2016,24,31.6,27.3,88,8,2,19.4
261,Stasiun Meteorologi Kualanamu,96035,9/23/2016,23.4,32.5,26.8,83,5.2,2,11.9
262,Stasiun Meteorologi Kualanamu,96035,9/24/2016,23.1,32.85,27.2,88,8.1,3,0
263,Stasiun Meteorologi Kualanamu,96035,9/25/2016,22.9,32.7,26.8,88,5.9,2,15.7
264,Stasiun Meteorologi Kualanamu,96035,9/26/2016,22.5,32.95,26.8,85,6.5,3,0
265,Stasiun Meteorologi Kualanamu,96035,9/27/2016,22.5,32.2,27.7,80,5.75,3,35.3
266,Stasiun Meteorologi Kualanamu,96035,9/28/2016,23.7,31.2,26.9,88,4.2,2,0.2
267,Stasiun Meteorologi Kualanamu,96035,9/29/2016,24.1,32.4,27.4,86,4.7,2,61.9
268,Stasiun Meteorologi Kualanamu,96035,9/30/2016,23.1,32,27.9,86,7.1,3,26.3
269,Stasiun Meteorologi Kualanamu,96035,10/1/2016,23.35,32.2,27.5,84,3.5,3,7.2
270,Stasiun Meteorologi Kualanamu,96035,10/2/2016,23.5,32.8,27.6,85,9.3,3,11
271,Stasiun Meteorologi Kualanamu,96035,10/3/2016,22.9,33.7,27.1,87,8.8,2,0
272,Stasiun Meteorologi Kualanamu,96035,10/4/2016,22.8,33.1,27.4,86,7,3,0
273,Stasiun Meteorologi Kualanamu,96035,10/5/2016,22.3,31.1,26.5,87,4.3,4,0
274,Stasiun Meteorologi Kualanamu,96035,10/6/2016,22.1,31.8,27.2,87,6.3,3,4.2
275,Stasiun Meteorologi Kualanamu,96035,10/7/2016,24.4,32.75,27.4,87,7.3,2,15.6
276,Stasiun Meteorologi Kualanamu,96053,10/8/2016,23.1,33.4,25.9,93,6.5,3,2.2
277,Stasiun Meteorologi Kualanamu,96035,10/9/2016,22.5,32.7,26.8,84,8.3,3,56.4
278,Stasiun Meteorologi Kualanamu,96035,10/10/2016,24.4,31.9,27.8,84,7.7,1,0.3
279,Stasiun Meteorologi Kualanamu,96035,10/11/2016,24.4,31.2,27.1,87,4.7,3,30.1
280,Stasiun Meteorologi Kualanamu,96035,10/12/2016,23,31.9,26.8,89,2.4,3,46.2
281,Stasiun Meteorologi Kualanamu,96035,10/13/2016,22.75,31,26.3,88,3.7,2,0
282,Stasiun Meteorologi Kualanamu,96035,10/14/2016,23.9,32.2,27.1,82,0,3,7.5
283,Stasiun Meteorologi Kualanamu,96035,10/15/2016,23.2,32.1,26.6,87,7.3,1,0.3
284,Stasiun Meteorologi Kualanamu,96035,10/16/2016,23.2,32.95,27.9,87,2.5,3,0.8
285,Stasiun Meteorologi Kualanamu,96035,10/17/2016,23.3,30.9,26.1,94,9.7,3,32.7
286,Stasiun Meteorologi Kualanamu,96035,10/18/2016,23.5,30.7,26.5,90,1.7,2,46.9
287,Stasiun Meteorologi Kualanamu,96035,10/19/2016,23.8,32.6,27.1,88,3.8,2,15.7
288,Stasiun Meteorologi Kualanamu,96035,10/20/2016,23.7,32.7,26.9,91,0.5,2,0
289,Stasiun Meteorologi Kualanamu,96035,10/21/2016,23.8,31.3,27,89,3.9,2,0
290,Stasiun Meteorologi Kualanamu,96035,10/22/2016,24.1,30.7,26.3,94,7.2,2,0
291,Stasiun Meteorologi Kualanamu,96035,10/23/2016,23.6,32.85,26.6,93,1,2,0
292,Stasiun Meteorologi Kualanamu,96035,10/24/2016,23.6,32,26.9,89,2.3,3,8.7
293,Stasiun Meteorologi Kualanamu,96035,10/25/2016,24.1,31.9,27.5,88,8.1,1,0.1
294,Stasiun Meteorologi Kualanamu,96035,10/26/2016,24.6,32.6,28.2,79,1.6,2,1.6
295,Stasiun Meteorologi Kualanamu,96035,10/27/2016,24.9,32.1,27.8,89,1.4,3,0.2
296,Stasiun Meteorologi Kualanamu,96035,10/28/2016,22.4,32.1,26.9,87,7.5,2,47.8
297,Stasiun Meteorologi Kualanamu,96035,10/29/2016,22.8,30.7,27.1,89,5,2,0.9
298,Stasiun Meteorologi Kualanamu,96035,10/30/2016,24.1,31.8,27.3,87,4.3,2,2.6
299,Stasiun Meteorologi Kualanamu,96035,10/31/2016,24.1,30.85,27.2,87,6.4,2,16.1
300,Stasiun Meteorologi Kualanamu,96035,11/1/2016,23.1,32.3,26.5,89,0,3,10.4
301,Stasiun Meteorologi Kualanamu,96035,11/2/2016,22.65,31.7,26.9,87,7.2,3,0.1
302,Stasiun Meteorologi Kualanamu,96035,11/3/2016,23.2,29.1,25.9,91,8.5,1,0.6
303,Stasiun Meteorologi Kualanamu,96035,11/4/2016,24.2,28.8,25.4,94,1.3,1,0
304,Stasiun Meteorologi Kualanamu,96035,11/5/2016,23.8,30.4,25.3,95,0,3,5.4
305,Stasiun Meteorologi Kualanamu,96035,11/6/2016,22.7,30.8,25.7,95,1.4,2,7.5
306,Stasiun Meteorologi Kualanamu,96035,11/7/2016,23.9,29.4,26.4,92,4.5,1,28.6
307,Stasiun Meteorologi Kualanamu,96050,11/8/2016,23.9,29.8,26.7,91,1,3,0.3
308,Stasiun Meteorologi Kualanamu,96035,11/9/2016,22.9,31.5,27.1,85,3.4,2,0.3
309,Stasiun Meteorologi Kualanamu,96035,11/10/2016,23,30.4,26.8,88,1.4,3,21.8
310,Stasiun Meteorologi Kualanamu,96035,11/11/2016,24.4,28.9,26.2,90,2.95,2,0.1
311,Stasiun Meteorologi Kualanamu,96035,11/12/2016,24.7,31.2,26.6,91,0,2,8.3
312,Stasiun Meteorologi Kualanamu,96035,11/13/2016,23.6,29.7,26.2,94,5.1,2,0.6
313,Stasiun Meteorologi Kualanamu,96035,11/14/2016,24.5,31.8,27.3,91,0.6,2,2.7
314,Stasiun Meteorologi Kualanamu,96035,11/15/2016,24.5,29.1,26.6,94,7,2,1.9
315,Stasiun Meteorologi Kualanamu,96035,11/16/2016,24.8,32.3,27,91,0,3,0
316,Stasiun Meteorologi Kualanamu,96035,11/17/2016,23.5,31.5,26.5,92,7,2,0
317,Stasiun Meteorologi Kualanamu,96035,11/18/2016,24,30.2,26.6,92,2.8,3,23.75
318,Stasiun Meteorologi Kualanamu,96035,11/19/2016,24.7,30.3,27,91,5.5,2,0
319,Stasiun Meteorologi Kualanamu,96035,11/20/2016,24.4,30.6,26.3,90,4.4,1,3
320,Stasiun Meteorologi Kualanamu,96035,11/21/2016,23,32.3,26.8,89,0,2,1.4
321,Stasiun Meteorologi Kualanamu,96035,11/22/2016,23.2,30.3,26.6,91,6.2,2,0
322,Stasiun Meteorologi Kualanamu,96035,11/23/2016,23.8,31.8,26.8,91,3.9,3,0
323,Stasiun Meteorologi Kualanamu,96035,11/24/2016,25.2,32.4,28.2,88,6.5,2,0
324,Stasiun Meteorologi Kualanamu,96035,11/25/2016,24.3,31.35,27.1,89,8.1,3,0.3
325,Stasiun Meteorologi Kualanamu,96035,11/26/2016,23.5,27.6,25.6,97,0,2,0
326,Stasiun Meteorologi Kualanamu,96035,11/27/2016,24,30.6,26.7,92,0,2,0
327,Stasiun Meteorologi Kualanamu,96035,11/28/2016,24.4,32.1,27.1,92,6.8,2,0.75
328,Stasiun Meteorologi Kualanamu,96035,11/29/2016,23.65,31.8,26.3,94,0.2,2,0.3
329,Stasiun Meteorologi Kualanamu,96035,11/30/2016,23.55,28.8,26.2,94,3.2,2,2.5
330,Stasiun Meteorologi Kualanamu,96035,12/1/2016,24.4,31.4,26.9,90,0,2,0.6
331,Stasiun Meteorologi Kualanamu,96045,12/2/2016,24,32.9,27.3,89,7.2,2,21.6
332,Stasiun Meteorologi Kualanamu,96035,12/3/2016,23.35,32.4,26.6,91,4,2,4.5
333,Stasiun Meteorologi Kualanamu,96035,12/4/2016,22.4,31.7,27.2,89,1.4,2,2.2
334,Stasiun Meteorologi Kualanamu,96035,12/5/2016,23.8,30.5,26.6,92,2.9,2,0.1
335,Stasiun Meteorologi Kualanamu,96055,12/6/2016,23.5,30.6,25.9,93,1.2,3,0
336,Stasiun Meteorologi Kualanamu,96035,12/7/2016,23.6,28.4,24.4,98,4,2,0
337,Stasiun Meteorologi Kualanamu,96035,12/8/2016,23,28.2,24.9,94,0,3,5.5
338,Stasiun Meteorologi Kualanamu,96035,12/9/2016,23.6,30.6,26.9,88,0,2,1.8
339,Stasiun Meteorologi Kualanamu,96035,12/10/2016,24.1,32.05,26.4,92,4.1,2,0
340,Stasiun Meteorologi Kualanamu,96035,12/11/2016,22.95,34.8,28.3,86,6.2,3,25.8
341,Stasiun Meteorologi Kualanamu,96035,12/12/2016,24.35,34.75,28.1,83,4.6,2,14.4
342,Stasiun Meteorologi Kualanamu,96035,12/13/2016,22.6,32.1,25.6,92,5.4,2,0.1
343,Stasiun Meteorologi Kualanamu,96035,12/14/2016,23.7,32.2,27.4,89,8.8,2,0
344,Stasiun Meteorologi Kualanamu,96035,12/15/2016,23,33.1,27.2,89,8.5,2,1.5
345,Stasiun Meteorologi Kualanamu,96035,12/16/2016,23.35,33.1,27.4,83,5.6,2,0
346,Stasiun Meteorologi Kualanamu,96035,12/17/2016,23.7,29.7,25.8,93,6.8,2,0.5
347,Stasiun Meteorologi Kualanamu,96035,12/18/2016,23.2,31,26.2,87,1.4,2,4.9
348,Stasiun Meteorologi Kualanamu,96035,12/19/2016,23.6,32.2,26.5,93,1.4,2,2.6
349,Stasiun Meteorologi Kualanamu,96035,12/20/2016,24.3,29.6,26.8,88,6.1,2,9.8
350,Stasiun Meteorologi Kualanamu,96035,12/21/2016,24.4,30.4,26.8,87,1.7,3,2.6
351,Stasiun Meteorologi Kualanamu,96035,12/22/2016,24.4,32.6,26.9,85,7,2,0
352,Stasiun Meteorologi Kualanamu,96035,12/23/2016,22.2,33.9,27.1,87,6.3,3,0
353,Stasiun Meteorologi Kualanamu,96035,12/24/2016,20.4,31.8,26.6,86,7.5,3,0
354,Stasiun Meteorologi Kualanamu,96035,12/25/2016,23,31.2,26.6,89,8.8,4,0.2
355,Stasiun Meteorologi Kualanamu,96035,12/26/2016,23.5,29.1,25.3,92,2,3,0
356,Stasiun Meteorologi Kualanamu,96035,12/27/2016,23.15,30.95,26.3,88,0.8,3,0.8
357,Stasiun Meteorologi Kualanamu,96035,12/28/2016,23.45,30.7,26,90,1.5,3,0
358,Stasiun Meteorologi Kualanamu,96035,12/29/2016,23.2,30.9,26.4,88,6.5,2,0
359,Stasiun Meteorologi Kualanamu,96051,12/30/2016,23.45,29.7,26.2,94,5.7,2,0
360,Stasiun Meteorologi Kualanamu,96035,12/31/2016,23.1,31.3,26.6,87,0.3,2,0
361,Stasiun Meteorologi Kualanamu,96035,1/1/2017,24,29,26.2,91,3,2,23.6
362,Stasiun Meteorologi Kualanamu,96035,1/2/2017,24.2,30.7,26.6,89,0,2,0
363,Stasiun Meteorologi Kualanamu,96035,1/3/2017,24,32.2,25.9,92,3,2,12.8
364,Stasiun Meteorologi Kualanamu,96035,1/4/2017,22.7,31,25.6,89,0,2,13.1
365,Stasiun Meteorologi Kualanamu,96035,1/5/2017,23.6,31,26.3,88,0.5,3,1
366,Stasiun Meteorologi Kualanamu,96035,1/6/2017,23.4,27.8,24.4,98,8.7,2,0
367,Stasiun Meteorologi Kualanamu,96035,1/7/2017,23.3,30.6,26.1,90,0,1,0.7
368,Stasiun Meteorologi Kualanamu,96035,1/8/2017,22.95,30.2,26.4,94,7.5,2,0
369,Stasiun Meteorologi Kualanamu,96035,1/9/2017,23.4,31.5,25.8,92,1.3,2,0
370,Stasiun Meteorologi Kualanamu,96035,1/10/2017,23.7,31.3,26.7,86,4.4,2,0
371,Stasiun Meteorologi Kualanamu,96035,1/11/2017,24.1,32.25,26.6,89,2.5,2,0
372,Stasiun Meteorologi Kualanamu,96035,1/12/2017,23.1,32.9,27.5,85,1.8,3,0
373,Stasiun Meteorologi Kualanamu,96035,1/13/2017,23.8,31.6,27.1,88,5,2,23
374,Stasiun Meteorologi Kualanamu,96035,1/14/2017,23.4,30.6,26.7,90,5.5,2,4
375,Stasiun Meteorologi Kualanamu,96035,1/15/2017,23.6,32.95,26.7,86,8.5,2,0
376,Stasiun Meteorologi Kualanamu,96035,1/16/2017,22.5,33,26.7,89,9.5,2,10.1
377,Stasiun Meteorologi Kualanamu,96035,1/17/2017,23.1,32.7,27,85,8.5,2,0
378,Stasiun Meteorologi Kualanamu,96035,1/18/2017,23.8,31.5,26.7,88,7.4,2,0
379,Stasiun Meteorologi Kualanamu,96052,1/19/2017,23,28.2,25.9,93,7,1,0
380,Stasiun Meteorologi Kualanamu,96035,1/20/2017,22.3,32.3,25.9,92,0,3,2
381,Stasiun Meteorologi Kualanamu,96035,1/21/2017,23,31.9,26.1,89,7.4,3,12.9
382,Stasiun Meteorologi Kualanamu,96035,1/22/2017,23.3,30.2,26.2,86,2.4,2,0
383,Stasiun Meteorologi Kualanamu,96035,1/23/2017,22.8,31.3,26.4,87,1.3,2,0.3
384,Stasiun Meteorologi Kualanamu,96035,1/24/2017,22.3,31.25,26,91,5.5,2,13.2
385,Stasiun Meteorologi Kualanamu,96035,1/25/2017,23,31.4,26.9,85,4.5,2,5.6
386,Stasiun Meteorologi Kualanamu,96035,1/26/2017,23.4,31.4,26.2,87,5.8,3,10.8
387,Stasiun Meteorologi Kualanamu,96035,1/27/2017,23.4,31.8,26.5,90,8.5,2,10
388,Stasiun Meteorologi Kualanamu,96035,1/28/2017,23.6,32.05,25.8,91,7.3,2,1.1
389,Stasiun Meteorologi Kualanamu,96035,1/29/2017,23.2,29.2,25,93,0,2,4.4
390,Stasiun Meteorologi Kualanamu,96035,1/30/2017,23.1,26.2,24.2,98,0.8,2,0
391,Stasiun Meteorologi Kualanamu,96035,1/31/2017,23.1,29.85,25.5,90,0,2,0
392,Stasiun Meteorologi Kualanamu,96035,2/1/2017,22.6,31.2,25.8,91,0,2,0
393,Stasiun Meteorologi Kualanamu,96035,2/2/2017,23.1,29.9,25.9,89,3,2,4.15
394,Stasiun Meteorologi Kualanamu,96035,2/3/2017,23.4,29.3,25.1,96,2.8,2,0
395,Stasiun Meteorologi Kualanamu,96035,2/4/2017,21.8,30.8,25.1,89,0.05,2,0
396,Stasiun Meteorologi Kualanamu,96035,2/5/2017,21.7,30.8,25.7,89,3.4,2,0
397,Stasiun Meteorologi Kualanamu,96035,2/6/2017,22.8,30.1,25.9,88,3.4,1,0
398,Stasiun Meteorologi Kualanamu,96035,2/7/2017,23.2,31.1,26.4,88,0.5,2,0
399,Stasiun Meteorologi Kualanamu,96035,2/8/2017,23.4,31.8,26.2,87,5.7,2,0
400,Stasiun Meteorologi Kualanamu,96035,2/9/2017,21.7,31.95,26.1,88,8.1,2,1.2
401,Stasiun Meteorologi Kualanamu,96035,2/10/2017,22.8,31.3,27.1,88,10.1,3,1.2
402,Stasiun Meteorologi Kualanamu,96035,2/11/2017,24,32.2,27,88,8.8,3,13.6
403,Stasiun Meteorologi Kualanamu,96035,2/12/2017,24.1,31.9,27.4,85,9.3,4,0.1
404,Stasiun Meteorologi Kualanamu,96035,2/13/2017,22.6,32.05,27.6,84,8.8,4,0.4
405,Stasiun Meteorologi Kualanamu,96035,2/14/2017,23.7,31.7,26.8,80,6.3,3,13.8
406,Stasiun Meteorologi Kualanamu,96035,2/15/2017,24.1,30.6,26.6,83,3.6,4,31
407,Stasiun Meteorologi Kualanamu,96035,2/16/2017,24.1,31.15,26,90,9.8,3,0
408,Stasiun Meteorologi Kualanamu,96035,2/17/2017,22.1,32.6,26.4,85,4,3,0.1
409,Stasiun Meteorologi Kualanamu,96035,2/18/2017,23.1,30.9,26.4,88,10.5,2,0
410,Stasiun Meteorologi Kualanamu,96035,2/19/2017,23.7,32.2,26.8,83,5.9,2,0
411,Stasiun Meteorologi Kualanamu,96035,2/20/2017,23.7,28.1,25.3,96,8.4,3,0
412,Stasiun Meteorologi Kualanamu,96035,2/21/2017,22.9,30.3,26.3,86,0.7,2,7
413,Stasiun Meteorologi Kualanamu,96035,2/22/2017,22.7,29.8,26.6,89,6.5,2,0.1
414,Stasiun Meteorologi Kualanamu,96035,2/23/2017,23.4,30.9,26.3,89,1.9,2,0
415,Stasiun Meteorologi Kualanamu,96035,2/24/2017,23.6,32.2,26.8,87,5,2,4.7
416,Stasiun Meteorologi Kualanamu,96035,2/25/2017,24.2,32.8,27.1,85,3.5,2,0
417,Stasiun Meteorologi Kualanamu,96035,2/26/2017,23.45,31.9,27.2,88,7.8,3,4.1
418,Stasiun Meteorologi Kualanamu,96054,2/27/2017,23.6,31.9,25.9,93,8.5,2,0.2
419,Stasiun Meteorologi Kualanamu,96035,2/28/2017,23.2,32.15,26.5,88,0.2,2,10
420,Stasiun Meteorologi Kualanamu,96035,3/1/2017,23.4,32.95,25.8,95,8.7,2,0.8
421,Stasiun Meteorologi Kualanamu,96035,3/2/2017,22.7,30.9,26.4,86,2.8,2,3.9
422,Stasiun Meteorologi Kualanamu,96035,3/3/2017,23.3,31.4,26.5,86,7.8,2,3.3
423,Stasiun Meteorologi Kualanamu,96035,3/4/2017,23,32.15,27,88,8.5,3,9.1
424,Stasiun Meteorologi Kualanamu,96035,3/5/2017,23.65,29.4,25.7,94,8.9,2,0
425,Stasiun Meteorologi Kualanamu,96035,3/6/2017,23.3,31.3,26.6,88,0,1,0.1
426,Stasiun Meteorologi Kualanamu,96035,3/7/2017,24,33.3,27.4,84,6.7,4,0
427,Stasiun Meteorologi Kualanamu,96035,3/8/2017,22.5,31.5,25.9,87,6.8,2,0
428,Stasiun Meteorologi Kualanamu,96035,3/9/2017,22.8,30.8,25.1,93,3.5,2,0
429,Stasiun Meteorologi Kualanamu,96035,3/10/2017,22,32.1,26.2,88,2.2,3,0
430,Stasiun Meteorologi Kualanamu,96035,3/11/2017,22.8,29.6,26.3,89,5.4,2,0
431,Stasiun Meteorologi Kualanamu,96035,3/12/2017,23.7,30.85,26.5,89,1.3,3,0
432,Stasiun Meteorologi Kualanamu,96035,3/13/2017,23.4,32.85,26.9,86,2.2,2,0
433,Stasiun Meteorologi Kualanamu,96035,3/14/2017,22,32.1,26.8,85,8.8,2,0
434,Stasiun Meteorologi Kualanamu,96035,3/15/2017,23,31.4,26.7,89,9,2,0
435,Stasiun Meteorologi Kualanamu,96035,3/16/2017,23.4,33.1,26.7,88,3,2,0
436,Stasiun Meteorologi Kualanamu,96035,3/17/2017,23.5,33.3,26.8,85,6.8,2,34.1
437,Stasiun Meteorologi Kualanamu,96035,3/18/2017,23.55,32.2,27.6,84,4.6,3,14.2
438,Stasiun Meteorologi Kualanamu,96035,3/19/2017,23.4,32.1,27,86,7.5,3,0
439,Stasiun Meteorologi Kualanamu,96048,3/20/2017,22.9,31.2,26.6,85,10,2,0.3
440,Stasiun Meteorologi Kualanamu,96035,3/21/2017,23.3,33.15,26.7,88,3.7,2,0.15
441,Stasiun Meteorologi Kualanamu,96035,3/22/2017,24.7,31.8,28,89,9.6,3,0
442,Stasiun Meteorologi Kualanamu,96035,3/23/2017,22.7,31.6,26.6,89,5.4,2,0
443,Stasiun Meteorologi Kualanamu,96035,3/24/2017,23.5,33.5,27.2,88,7.4,2,0
444,Stasiun Meteorologi Kualanamu,96035,3/25/2017,22.6,31.7,26.5,92,5.1,2,24.1
445,Stasiun Meteorologi Kualanamu,96035,3/26/2017,22.5,30.3,26.2,93,3,2,0.15
446,Stasiun Meteorologi Kualanamu,96035,3/27/2017,24.1,31.4,27.2,88,0.8,4,0
447,Stasiun Meteorologi Kualanamu,96044,3/28/2017,23.2,33,27.4,86,7.6,2,0.1
448,Stasiun Meteorologi Kualanamu,96040,3/29/2017,22.3,33.8,27.9,84,8.9,2,0
449,Stasiun Meteorologi Kualanamu,96035,3/30/2017,24.4,30.2,27.6,90,10.4,2,0.4
450,Stasiun Meteorologi Kualanamu,96035,3/31/2017,23.3,32.3,27.3,86,0.1,2,4.2
451,Stasiun Meteorologi Kualanamu,96035,4/1/2017,23.5,33.55,27.5,85,8,2,0
452,Stasiun Meteorologi Kualanamu,96035,4/2/2017,23.6,30.75,27.8,89,8.4,2,1.3
453,Stasiun Meteorologi Kualanamu,96035,4/3/2017,23.3,32.3,27.3,87,0.3,3,0
454,Stasiun Meteorologi Kualanamu,96035,4/4/2017,23.9,28.6,25.7,95,4.8,1,4.6
455,Stasiun Meteorologi Kualanamu,96035,4/5/2017,24.3,32.5,27.3,90,1.2,2,0
456,Stasiun Meteorologi Kualanamu,96035,4/6/2017,23.3,32.6,26.8,94,4.8,2,20.1
457,Stasiun Meteorologi Kualanamu,96035,4/7/2017,23.35,29.3,25.9,94,5,2,0
458,Stasiun Meteorologi Kualanamu,96035,4/8/2017,23.4,30.7,27.2,86,0,3,17.5
459,Stasiun Meteorologi Kualanamu,96035,4/9/2017,23.7,32.7,26.9,88,7.7,3,0
460,Stasiun Meteorologi Kualanamu,96035,4/10/2017,22.75,32.45,26.7,90,9.8,4,1.7
461,Stasiun Meteorologi Kualanamu,96035,4/11/2017,23.4,32,27.6,84,9.7,4,0.1
462,Stasiun Meteorologi Kualanamu,96035,4/12/2017,23.9,30.7,26.9,92,7.7,3,6.3
463,Stasiun Meteorologi Kualanamu,96035,4/13/2017,24.4,32.45,27.2,87,5.2,2,5.4
464,Stasiun Meteorologi Kualanamu,96035,4/14/2017,23.3,32.75,27.3,91,7.2,2,0
465,Stasiun Meteorologi Kualanamu,96035,4/15/2017,23.5,32.3,27.7,89,5.4,2,0
466,Stasiun Meteorologi Kualanamu,96035,4/16/2017,24,30.9,27,91,5.5,2,0
467,Stasiun Meteorologi Kualanamu,96035,4/17/2017,24.1,31.8,26.2,95,3,1,0
468,Stasiun Meteorologi Kualanamu,96035,4/18/2017,24,32.5,26.9,89,2.3,2,0
469,Stasiun Meteorologi Kualanamu,96035,4/19/2017,22.6,31.1,27.2,90,1.5,2,0
470,Stasiun Meteorologi Kualanamu,96035,4/20/2017,24.4,32.1,27.5,90,4.5,2,0
471,Stasiun Meteorologi Kualanamu,96035,4/21/2017,24.5,31.6,26.7,96,6.2,2,7
472,Stasiun Meteorologi Kualanamu,96035,4/22/2017,24,34.8,28.1,89,0.6,2,1.6
473,Stasiun Meteorologi Kualanamu,96035,4/23/2017,24.1,34.1,28.4,84,7,3,0
474,Stasiun Meteorologi Kualanamu,96035,4/24/2017,24.3,31.7,27.4,89,10.1,2,0
475,Stasiun Meteorologi Kualanamu,96035,4/25/2017,24.1,32.5,26.7,94,3.2,2,0
476,Stasiun Meteorologi Kualanamu,96047,4/26/2017,23.8,32.6,26.4,90,1.9,2,2.3
477,Stasiun Meteorologi Kualanamu,96035,4/27/2017,22.9,29.9,25.8,86,0,2,0
478,Stasiun Meteorologi Kualanamu,96035,4/28/2017,22,32,26.6,83,4.6,2,0
479,Stasiun Meteorologi Kualanamu,96035,4/29/2017,22.4,33.75,27.7,86,6.9,2,0
480,Stasiun Meteorologi Kualanamu,96035,4/30/2017,23.3,33.7,27.7,86,9.9,2,0
481,Stasiun Meteorologi Kualanamu,96035,5/1/2017,24.5,33.85,27.3,87,4.4,2,0
482,Stasiun Meteorologi Kualanamu,96035,5/2/2017,24,29.5,25.4,93,0,2,35.75
483,Stasiun Meteorologi Kualanamu,96035,5/3/2017,24,30.9,26.8,87,0,2,0
484,Stasiun Meteorologi Kualanamu,96035,5/4/2017,23.4,32.4,27.4,83,2.7,3,0.3
485,Stasiun Meteorologi Kualanamu,96035,5/5/2017,23.6,31.6,26.8,88,9.2,2,5.5
486,Stasiun Meteorologi Kualanamu,96035,5/6/2017,23.8,30.8,27.1,85,3,2,2.8
487,Stasiun Meteorologi Kualanamu,96035,5/7/2017,23.8,33.2,26.4,91,2.9,1,0
488,Stasiun Meteorologi Kualanamu,96035,5/8/2017,22.4,33.8,27.4,84,1.2,2,1.2
489,Stasiun Meteorologi Kualanamu,96035,5/9/2017,24.05,32.7,27.9,84,10.3,2,0
490,Stasiun Meteorologi Kualanamu,96035,5/10/2017,24.7,29.6,26.5,93,7.3,1,16.9
491,Stasiun Meteorologi Kualanamu,96046,5/11/2017,24.2,32.8,27.2,89,0,2,38.3
492,Stasiun Meteorologi Kualanamu,96035,5/12/2017,23.4,32.1,26.8,88,5.4,2,29.8
493,Stasiun Meteorologi Kualanamu,96035,5/13/2017,23.45,31.2,27.4,85,5.5,2,0
494,Stasiun Meteorologi Kualanamu,96035,5/14/2017,24.8,32.6,28,86,1.5,2,0
495,Stasiun Meteorologi Kualanamu,96035,5/15/2017,24.2,32.4,27.5,86,6.7,2,0
496,Stasiun Meteorologi Kualanamu,96035,5/16/2017,23.85,32.8,27.6,88,0.9,2,0
497,Stasiun Meteorologi Kualanamu,96035,5/17/2017,22.95,31.6,27.1,85,3.9,2,1.1
498,Stasiun Meteorologi Kualanamu,96035,5/18/2017,23.7,31.2,26.7,89,7.9,2,13.4
499,Stasiun Meteorologi Kualanamu,96035,5/19/2017,23.9,33.3,27.9,88,2.6,2,5.3
500,Stasiun Meteorologi Kualanamu,96035,5/20/2017,24,30,27.5,94,8.3,1,0.1
501,Stasiun Meteorologi Kualanamu,96035,5/21/2017,24.7,30.4,27.1,88,0.2,2,0
502,Stasiun Meteorologi Kualanamu,96035,5/22/2017,24.8,32.4,28.5,85,1.2,2,6.4
503,Stasiun Meteorologi Kualanamu,96035,5/23/2017,24.7,33.9,27.9,93,5.8,3,1.3
504,Stasiun Meteorologi Kualanamu,96035,5/24/2017,23.75,31.65,26.2,94,4.3,3,5.3
505,Stasiun Meteorologi Kualanamu,96035,5/25/2017,25,32.8,28.1,84,4.4,2,6
506,Stasiun Meteorologi Kualanamu,96035,5/26/2017,25.4,32,28.1,87,6.6,2,0.2
507,Stasiun Meteorologi Kualanamu,96035,5/27/2017,24.8,33.65,27,91,7.1,2,0
508,Stasiun Meteorologi Kualanamu,96035,5/28/2017,24.6,33.5,27.8,88,0.8,2,0
509,Stasiun Meteorologi Kualanamu,96035,5/29/2017,25,31.9,27.6,89,3.8,2,0
510,Stasiun Meteorologi Kualanamu,96035,5/30/2017,24.5,32.4,27.8,91,4.4,2,1.3
511,Stasiun Meteorologi Kualanamu,96035,5/31/2017,24.4,34.05,27.6,87,3,2,0.2
512,Stasiun Meteorologi Kualanamu,96043,6/1/2017,24.05,33.6,27.5,89,5.3,3,0
513,Stasiun Meteorologi Kualanamu,96035,6/2/2017,24,33.4,28.8,84,4.4,2,0
514,Stasiun Meteorologi Kualanamu,96035,6/3/2017,24.8,34.4,29.1,86,4.8,2,0
515,Stasiun Meteorologi Kualanamu,96035,6/4/2017,25.7,34.6,29.1,84,6.6,2,5.2
516,Stasiun Meteorologi Kualanamu,96035,6/5/2017,24.35,32.95,27.7,90,8.4,2,1.1
517,Stasiun Meteorologi Kualanamu,96035,6/6/2017,24.6,32.4,27.8,85,3.4,2,0
518,Stasiun Meteorologi Kualanamu,96035,6/7/2017,23.6,33.1,27.9,88,0.7,3,0
519,Stasiun Meteorologi Kualanamu,96035,6/8/2017,23.8,33,27.5,89,10.3,2,0
520,Stasiun Meteorologi Kualanamu,96035,6/9/2017,23.85,35.05,28.7,84,7.1,2,0
521,Stasiun Meteorologi Kualanamu,96035,6/10/2017,24.45,32.1,27.9,87,9.2,2,2.6
522,Stasiun Meteorologi Kualanamu,96035,6/11/2017,23.8,32.7,27.8,88,5.9,2,0
523,Stasiun Meteorologi Kualanamu,96035,6/12/2017,24.2,33.9,28.6,83,8.9,2,0
524,Stasiun Meteorologi Kualanamu,96035,6/13/2017,23.95,33.6,28.8,85,9,2,23
525,Stasiun Meteorologi Kualanamu,96035,6/14/2017,24.85,34.1,29,82,9.5,2,0
526,Stasiun Meteorologi Kualanamu,96035,6/15/2017,25,34.2,28.6,87,9.9,4,0
527,Stasiun Meteorologi Kualanamu,96035,6/16/2017,23.4,32.25,26.6,88,8.8,1,0
528,Stasiun Meteorologi Kualanamu,96035,6/17/2017,23.7,33.95,27.9,84,1.6,3,0
529,Stasiun Meteorologi Kualanamu,96035,6/18/2017,22.7,33.4,27.5,83,9.1,2,1.6
530,Stasiun Meteorologi Kualanamu,96035,6/19/2017,24,32.8,27.5,88,6.4,2,1.1
531,Stasiun Meteorologi Kualanamu,96035,6/20/2017,23.2,33.15,26.7,91,8.9,2,0
532,Stasiun Meteorologi Kualanamu,96035,6/21/2017,23.2,33.4,27.7,87,6.1,2,0
533,Stasiun Meteorologi Kualanamu,96035,6/22/2017,25,31.8,28.2,88,7.6,2,12
534,Stasiun Meteorologi Kualanamu,96035,6/23/2017,24.3,31,27,93,7.3,2,0.1
535,Stasiun Meteorologi Kualanamu,96035,6/24/2017,24.2,32.95,26,92,3.6,2,0
536,Stasiun Meteorologi Kualanamu,96039,6/25/2017,23,34.4,26.9,89,0,2,55.6
537,Stasiun Meteorologi Kualanamu,96035,6/26/2017,23.25,32.6,28,84,9.4,2,0
538,Stasiun Meteorologi Kualanamu,96035,6/27/2017,24.6,32.8,28,85,9.4,2,0
539,Stasiun Meteorologi Kualanamu,96035,6/28/2017,23.4,32.85,27.4,92,7.5,3,0
540,Stasiun Meteorologi Kualanamu,96035,6/29/2017,22.4,32.65,26.9,87,5,2,0.6
541,Stasiun Meteorologi Kualanamu,96035,6/30/2017,22.05,32.6,27.4,83,5.3,3,0
542,Stasiun Meteorologi Kualanamu,96035,7/1/2017,23.6,31.7,27,88,8.8,2,0
543,Stasiun Meteorologi Kualanamu,96035,7/2/2017,23.8,33.3,27.8,86,3,2,0
544,Stasiun Meteorologi Kualanamu,96035,7/3/2017,23.8,33.5,28.3,85,7.3,3,0
545,Stasiun Meteorologi Kualanamu,96035,7/4/2017,23.55,32.6,27.9,86,7.3,3,0
546,Stasiun Meteorologi Kualanamu,96035,7/5/2017,23.8,32.6,27.3,88,9.3,3,0.3
547,Stasiun Meteorologi Kualanamu,96035,7/6/2017,23.5,32.8,27.6,85,8.6,2,11.3
548,Stasiun Meteorologi Kualanamu,96035,7/7/2017,23.6,31.8,27.5,88,7,2,0.2
549,Stasiun Meteorologi Kualanamu,96035,7/8/2017,24.8,31.4,27.6,91,4,2,0
550,Stasiun Meteorologi Kualanamu,96035,7/9/2017,24.7,31.4,27.3,90,0.8,2,0
551,Stasiun Meteorologi Kualanamu,96035,7/10/2017,24.7,32.5,27,91,4.6,3,0
552,Stasiun Meteorologi Kualanamu,96035,7/11/2017,23.6,33.4,28.1,87,7.6,3,0
553,Stasiun Meteorologi Kualanamu,96035,7/12/2017,22.9,30.9,27.5,85,4.1,2,49.7
554,Stasiun Meteorologi Kualanamu,96035,7/13/2017,23.2,31.2,26.7,89,6,2,0.2
555,Stasiun Meteorologi Kualanamu,96035,7/14/2017,23.4,30.9,27.1,88,3.2,2,29.9
556,Stasiun Meteorologi Kualanamu,96035,7/15/2017,23.7,32.7,27.7,82,5.3,3,0.3
557,Stasiun Meteorologi Kualanamu,96035,7/16/2017,32.7,31.1,26.6,90,10,2,0
558,Stasiun Meteorologi Kualanamu,96035,7/17/2017,23,32.6,27,85,2.9,2,1.8
559,Stasiun Meteorologi Kualanamu,96035,7/18/2017,22.4,31.3,26.8,89,5.3,4,0
560,Stasiun Meteorologi Kualanamu,96035,7/19/2017,23.1,33.4,26.2,88,4.4,3,0
561,Stasiun Meteorologi Kualanamu,96035,7/20/2017,23,31.4,27.1,92,8.5,2,0
562,Stasiun Meteorologi Kualanamu,96035,7/21/2017,23.4,31.1,27.1,86,1.9,2,3.7
563,Stasiun Meteorologi Kualanamu,96035,7/22/2017,23.9,32.4,27.8,84,5.2,2,0
564,Stasiun Meteorologi Kualanamu,96035,7/23/2017,23.4,32.1,27.3,86,9.5,2,0
565,Stasiun Meteorologi Kualanamu,96035,7/24/2017,23.4,32.6,27.5,85,8.1,1,0
566,Stasiun Meteorologi Kualanamu,96035,7/25/2017,23,33.7,27,89,4.2,2,0
567,Stasiun Meteorologi Kualanamu,96035,7/26/2017,23,33.1,27.9,85,8.5,2,0
568,Stasiun Meteorologi Kualanamu,96035,7/27/2017,22.9,32.8,27.3,87,8,2,0
569,Stasiun Meteorologi Kualanamu,96035,7/28/2017,23.7,32.1,27.7,86,8,2,0
570,Stasiun Meteorologi Kualanamu,96035,7/29/2017,23.8,33.6,27.9,87,6.5,2,0
571,Stasiun Meteorologi Kualanamu,96035,7/30/2017,23.8,32.4,28.1,89,8.5,2,0
572,Stasiun Meteorologi Kualanamu,96035,7/31/2017,23.8,33.9,27.6,87,5.8,2,0
573,Stasiun Meteorologi Kualanamu,96035,8/1/2017,23.4,33.6,27.9,82,5.6,2,0
574,Stasiun Meteorologi Kualanamu,96035,8/2/2017,22.4,33.8,27.5,82,9.3,2,0
575,Stasiun Meteorologi Kualanamu,96035,8/3/2017,23.6,33.6,28.2,86,7.2,1,0
576,Stasiun Meteorologi Kualanamu,96035,8/4/2017,24.3,33.2,28.1,85,7.1,2,3.2
577,Stasiun Meteorologi Kualanamu,96035,8/5/2017,24.2,33,27.9,87,10.1,2,1.6
578,Stasiun Meteorologi Kualanamu,96035,8/6/2017,24.8,33.1,27.6,86,5.8,2,0
579,Stasiun Meteorologi Kualanamu,96035,8/7/2017,23.5,30.7,26.8,88,8.1,1,0
580,Stasiun Meteorologi Kualanamu,96035,8/8/2017,24.1,31.4,27.8,89,7.5,3,1
581,Stasiun Meteorologi Kualanamu,96035,8/9/2017,24.1,32.4,27.7,89,7.5,3,22.5
582,Stasiun Meteorologi Kualanamu,96035,8/10/2017,23.6,32.1,27.8,84,7.6,1,2.5
583,Stasiun Meteorologi Kualanamu,96035,8/11/2017,23.2,33.4,27.8,83,3.2,3,40.2
584,Stasiun Meteorologi Kualanamu,96035,8/12/2017,24.1,31,27.9,84,7.5,2,12
585,Stasiun Meteorologi Kualanamu,96035,8/13/2017,23.4,32.6,27.1,87,3.2,2,9.4
586,Stasiun Meteorologi Kualanamu,96035,8/14/2017,23.4,31.7,27.6,90,0.4,2,0.3
587,Stasiun Meteorologi Kualanamu,96035,8/15/2017,23,29.5,25.6,95,4.8,2,42.8
588,Stasiun Meteorologi Kualanamu,96035,8/16/2017,23.8,31.6,27.2,88,0,2,0.1
589,Stasiun Meteorologi Kualanamu,96035,8/17/2017,23.2,29.6,26.5,89,7.8,2,1.2
590,Stasiun Meteorologi Kualanamu,96035,8/18/2017,23.8,28.9,25.3,95,5.5,1,0.4
591,Stasiun Meteorologi Kualanamu,96035,8/19/2017,23.7,30.6,26.6,88,0,2,0
592,Stasiun Meteorologi Kualanamu,96035,8/20/2017,23.8,32,27.1,88,5,2,0
593,Stasiun Meteorologi Kualanamu,96035,8/21/2017,23.4,30.6,26.4,88,8.6,2,0
594,Stasiun Meteorologi Kualanamu,96035,8/22/2017,23.8,31.9,26.9,87,3,2,10.9
595,Stasiun Meteorologi Kualanamu,96035,8/23/2017,23.3,32,27.5,89,6.2,2,17.4
596,Stasiun Meteorologi Kualanamu,96035,8/24/2017,24.5,31.3,27.5,88,8.6,2,5.2
597,Stasiun Meteorologi Kualanamu,96035,8/25/2017,24.1,32.4,27.9,84,3,3,0
598,Stasiun Meteorologi Kualanamu,96035,8/26/2017,23.9,33.5,28.2,85,8.2,2,8.7
599,Stasiun Meteorologi Kualanamu,96035,8/27/2017,24.2,30.4,26.7,94,9.7,2,17.4
600,Stasiun Meteorologi Kualanamu,96035,8/28/2017,23.2,32.4,26.6,90,3.1,2,0
601,Stasiun Meteorologi Kualanamu,96035,8/29/2017,21.2,32.5,27.1,89,6.7,3,2.8
602,Stasiun Meteorologi Kualanamu,96035,8/30/2017,23.1,34.1,27.5,88,9.2,3,0.8
603,Stasiun Meteorologi Kualanamu,96035,8/31/2017,23.9,32.4,27.2,88,7.2,2,0.1
604,Stasiun Meteorologi Kualanamu,96035,9/1/2017,24.1,31.3,26.9,93,7.9,2,0.2
605,Stasiun Meteorologi Kualanamu,96035,9/2/2017,23.2,32.3,26.8,89,0.8,3,15.1
606,Stasiun Meteorologi Kualanamu,96035,9/3/2017,23.3,30,26.3,94,6.8,1,0.1
607,Stasiun Meteorologi Kualanamu,96035,9/4/2017,23.4,32.3,27.2,88,0.7,2,1.3
608,Stasiun Meteorologi Kualanamu,96035,9/5/2017,23.9,32,26.8,90,4.9,2,0.1
609,Stasiun Meteorologi Kualanamu,96035,9/6/2017,23,33.4,26.3,93,2.6,3,0.5
610,Stasiun Meteorologi Kualanamu,96035,9/7/2017,23,30.9,26.4,93,2.7,2,11.8
611,Stasiun Meteorologi Kualanamu,96035,9/8/2017,22.4,31.6,27.2,91,3.2,2,2.1
612,Stasiun Meteorologi Kualanamu,96035,9/9/2017,24.3,30.1,27.1,93,3.6,1,45.9
613,Stasiun Meteorologi Kualanamu,96035,9/10/2017,23.7,31,26.7,92,0.2,2,5.9
614,Stasiun Meteorologi Kualanamu,96035,9/11/2017,23.7,31.8,27,91,8,2,11.2
615,Stasiun Meteorologi Kualanamu,96035,9/12/2017,24.2,31.8,26.4,95,5.4,2,1.1
616,Stasiun Meteorologi Kualanamu,96035,9/13/2017,23.3,32,26.5,90,7,2,0
617,Stasiun Meteorologi Kualanamu,96035,9/14/2017,24.1,29.1,26.2,98,9.4,1,0
618,Stasiun Meteorologi Kualanamu,96035,9/15/2017,23,29.6,25.8,97,0,2,0
619,Stasiun Meteorologi Kualanamu,96035,9/16/2017,23.3,30.7,26.3,94,3.9,2,24.8
620,Stasiun Meteorologi Kualanamu,96035,9/17/2017,22.8,31.4,25.9,91,2.2,2,0
621,Stasiun Meteorologi Kualanamu,96035,9/18/2017,23.4,33.1,27.3,91,4.5,3,11.7
622,Stasiun Meteorologi Kualanamu,96035,9/19/2017,23.6,31,26.7,88,8.8,3,0.6
623,Stasiun Meteorologi Kualanamu,96035,9/20/2017,23.8,33.1,27.4,83,3.4,3,15.7
624,Stasiun Meteorologi Kualanamu,96035,9/21/2017,24.1,31,26,88,8.3,3,0.2
625,Stasiun Meteorologi Kualanamu,96035,9/22/2017,22.9,31.3,26.5,82,0.8,2,0.7
626,Stasiun Meteorologi Kualanamu,96035,9/23/2017,23.3,32,27.4,86,2.7,3,13.2
627,Stasiun Meteorologi Kualanamu,96035,9/24/2017,24.4,31.7,26.8,85,7.9,2,16.2
628,Stasiun Meteorologi Kualanamu,96035,9/25/2017,24.3,29.4,25.9,91,5.4,2,0
629,Stasiun Meteorologi Kualanamu,96035,9/26/2017,23.3,31.6,26.4,83,0.2,3,15.2
630,Stasiun Meteorologi Kualanamu,96035,9/27/2017,23.7,30.6,26.5,84,7.6,2,65.6
631,Stasiun Meteorologi Kualanamu,96035,9/28/2017,23.7,32.3,27.3,85,3.3,3,0.1
632,Stasiun Meteorologi Kualanamu,96035,9/29/2017,23.3,33.9,27.6,82,7.8,3,1.9
633,Stasiun Meteorologi Kualanamu,96035,9/30/2017,21.6,32,27.2,83,6.6,2,12.2
634,Stasiun Meteorologi Kualanamu,96035,10/1/2017,23.3,32.9,27.6,82,9.4,3,2.1
635,Stasiun Meteorologi Kualanamu,96035,10/2/2017,24.1,31.3,27.4,85,9.6,2,108
636,Stasiun Meteorologi Kualanamu,96035,10/3/2017,23.3,30.9,26.7,86,1.9,2,0.3
637,Stasiun Meteorologi Kualanamu,96035,10/4/2017,24,31.7,27.3,86,5.5,3,0
638,Stasiun Meteorologi Kualanamu,96035,10/5/2017,24.2,29.1,25.1,93,7.2,2,0
639,Stasiun Meteorologi Kualanamu,96035,10/6/2017,24.2,29.9,25.8,91,0,2,0
640,Stasiun Meteorologi Kualanamu,96035,10/7/2017,23.8,31.5,26.8,84,4.5,2,4.4
641,Stasiun Meteorologi Kualanamu,96035,10/8/2017,22.9,29.1,25.7,90,8.3,2,55.5
642,Stasiun Meteorologi Kualanamu,96035,10/9/2017,23.8,30.8,27,87,0.5,2,0
643,Stasiun Meteorologi Kualanamu,96035,10/10/2017,24.2,31.3,26.8,88,7.4,3,0
644,Stasiun Meteorologi Kualanamu,96035,10/11/2017,24.4,32.8,27.9,85,4.8,3,11.4
645,Stasiun Meteorologi Kualanamu,96035,10/12/2017,24.6,29.4,26.3,90,7.2,1,23
646,Stasiun Meteorologi Kualanamu,96035,10/13/2017,24.7,28.1,25.7,94,0.7,1,23.2
647,Stasiun Meteorologi Kualanamu,96035,10/14/2017,23.3,31.1,26.5,86,0.4,2,1
648,Stasiun Meteorologi Kualanamu,96035,10/15/2017,24.1,31.1,26.9,88,5,2,21.2
649,Stasiun Meteorologi Kualanamu,96035,10/16/2017,24,31.8,27.2,86,8.3,2,1.5
650,Stasiun Meteorologi Kualanamu,96035,10/17/2017,24.4,30.2,26.9,87,7.8,2,0
651,Stasiun Meteorologi Kualanamu,96035,10/18/2017,23.4,30.7,27.1,87,6.9,3,0
652,Stasiun Meteorologi Kualanamu,96035,10/19/2017,22.5,28.1,24.9,93,4.2,2,0
653,Stasiun Meteorologi Kualanamu,96035,10/20/2017,23,31.2,27.1,86,0,3,0
654,Stasiun Meteorologi Kualanamu,96035,10/21/2017,23,31.4,27,87,6.9,2,0
655,Stasiun Meteorologi Kualanamu,96035,10/22/2017,23.7,31.9,27.3,86,6.3,3,7.1
656,Stasiun Meteorologi Kualanamu,96035,10/23/2017,22.6,32.6,27.2,76,9.9,2,0.2
657,Stasiun Meteorologi Kualanamu,96035,10/24/2017,22.6,33.8,27.2,84,11.2,2,26.4
658,Stasiun Meteorologi Kualanamu,96035,10/25/2017,23.4,32.6,27.3,85,10.2,2,62.8
659,Stasiun Meteorologi Kualanamu,96035,10/26/2017,23.7,32.1,27.7,81,10.9,2,0
660,Stasiun Meteorologi Kualanamu,96035,10/27/2017,24.7,32.4,28.2,83,8.5,3,25
661,Stasiun Meteorologi Kualanamu,96035,10/28/2017,25,31.4,28.2,81,10.7,3,8.4
662,Stasiun Meteorologi Kualanamu,96035,10/29/2017,24.8,31.7,28.3,83,9.5,2,0.5
663,Stasiun Meteorologi Kualanamu,96035,10/30/2017,23.4,31.7,27.5,85,10.5,3,14.8
664,Stasiun Meteorologi Kualanamu,96035,10/31/2017,23.3,29.4,26.8,87,4.5,2,0.8
665,Stasiun Meteorologi Kualanamu,96035,11/1/2017,23.4,30.9,27.2,85,0.8,4,8.2
666,Stasiun Meteorologi Kualanamu,96035,11/2/2017,23.6,29.1,26.3,88,8.3,3,2.6
667,Stasiun Meteorologi Kualanamu,96035,11/3/2017,24.2,30.4,27.3,84,1.2,3,5.4
668,Stasiun Meteorologi Kualanamu,96035,11/4/2017,24.6,31.1,27.3,85,9.6,3,11.4
669,Stasiun Meteorologi Kualanamu,96035,11/5/2017,23.7,30.2,26.8,85,8,2,9
670,Stasiun Meteorologi Kualanamu,96035,11/6/2017,24.6,30.4,27.1,85,2.7,3,0.4
671,Stasiun Meteorologi Kualanamu,96035,11/7/2017,24.1,31.6,26.6,83,6.5,3,46.6
672,Stasiun Meteorologi Kualanamu,96035,11/8/2017,23.7,30.5,26.7,86,8.4,3,4.4
673,Stasiun Meteorologi Kualanamu,96035,11/9/2017,23.3,30.1,25.9,91,8.6,2,0.4
674,Stasiun Meteorologi Kualanamu,96035,11/10/2017,24.4,29.7,25.7,90,0.6,3,0
675,Stasiun Meteorologi Kualanamu,96035,11/11/2017,23.4,29.7,26.1,88,2.3,3,0
676,Stasiun Meteorologi Kualanamu,96035,11/12/2017,24,31.1,26.8,86,1.6,2,5.6
677,Stasiun Meteorologi Kualanamu,96035,11/13/2017,24.4,30.6,27.3,86,5,2,50
678,Stasiun Meteorologi Kualanamu,96035,11/14/2017,24.9,28.7,26.1,93,6.7,2,1.6
679,Stasiun Meteorologi Kualanamu,96035,11/15/2017,24.9,30.1,27.3,85,0,3,0
680,Stasiun Meteorologi Kualanamu,96035,11/16/2017,24.2,29.9,26.7,87,3,2,1.9
681,Stasiun Meteorologi Kualanamu,96035,11/17/2017,23.8,29.8,26.6,88,4.8,2,0.1
682,Stasiun Meteorologi Kualanamu,96035,11/18/2017,24.2,29.1,26.1,90,2.9,2,1.3
683,Stasiun Meteorologi Kualanamu,96035,11/19/2017,24.4,30.1,26.6,91,2.2,2,0
684,Stasiun Meteorologi Kualanamu,96035,11/20/2017,24.3,29.2,26.3,89,0.3,1,0
685,Stasiun Meteorologi Kualanamu,96035,11/21/2017,24.7,30.1,26.2,93,0,1,0
686,Stasiun Meteorologi Kualanamu,96035,11/22/2017,23.9,31.2,26.6,88,3.4,2,23.9
687,Stasiun Meteorologi Kualanamu,96035,11/23/2017,24.1,31.2,26.7,88,6.3,2,0
688,Stasiun Meteorologi Kualanamu,96035,11/24/2017,24.2,31.1,27.2,84,4.1,2,3.5
689,Stasiun Meteorologi Kualanamu,96035,11/25/2017,24.2,30.9,27.1,86,3.4,3,2
690,Stasiun Meteorologi Kualanamu,96035,11/26/2017,23.6,31.7,27.2,81,0.9,3,3.2
691,Stasiun Meteorologi Kualanamu,96035,11/27/2017,23.6,31.4,27.4,87,4,2,1
692,Stasiun Meteorologi Kualanamu,96035,11/28/2017,24.1,31.1,27,87,0,2,25
693,Stasiun Meteorologi Kualanamu,96035,11/29/2017,24.4,28.6,26.6,91,2.1,2,7.5
694,Stasiun Meteorologi Kualanamu,96035,11/30/2017,24.2,30.6,26.8,88,0.7,2,5.4
695,Stasiun Meteorologi Kualanamu,96035,12/1/2017,24.2,29.9,26.6,89,8.9,2,0
696,Stasiun Meteorologi Kualanamu,96035,12/2/2017,24.4,29.7,26.5,88,0.5,3,22
697,Stasiun Meteorologi Kualanamu,96035,12/3/2017,24.6,30.1,27,87,1.6,3,27.2
698,Stasiun Meteorologi Kualanamu,96035,12/4/2017,24,28,24.8,93,2.8,4,0.6
699,Stasiun Meteorologi Kualanamu,96035,12/5/2017,23.6,25.2,24.3,93,0,4,29
700,Stasiun Meteorologi Kualanamu,96035,12/6/2017,23.9,31.8,26.7,78,0,4,0
701,Stasiun Meteorologi Kualanamu,96035,12/7/2017,23.6,30.4,25.6,89,5.1,2,0
702,Stasiun Meteorologi Kualanamu,96035,12/8/2017,23,30.2,26.4,90,3.8,3,1.9
703,Stasiun Meteorologi Kualanamu,96035,12/9/2017,23.9,31,26.7,91,5.4,2,5.5
704,Stasiun Meteorologi Kualanamu,96035,12/10/2017,24.4,30.3,27.1,89,5.2,2,0
705,Stasiun Meteorologi Kualanamu,96035,12/11/2017,24.6,31.3,27.5,89,4.3,2,0
706,Stasiun Meteorologi Kualanamu,96035,12/12/2017,31.3,33.7,27.7,83,8.1,3,0
707,Stasiun Meteorologi Kualanamu,96035,12/13/2017,24.8,29.7,26.9,83,9.8,2,1.9
708,Stasiun Meteorologi Kualanamu,96035,12/14/2017,24.8,29.5,25.4,94,1.9,2,1.2
709,Stasiun Meteorologi Kualanamu,96035,12/15/2017,23.8,30.2,26,90,1.4,1,0.5
710,Stasiun Meteorologi Kualanamu,96035,12/16/2017,24,29.2,26.3,89,0,2,0
711,Stasiun Meteorologi Kualanamu,96035,12/17/2017,24.4,29.7,26.7,87,0.9,2,0.25
712,Stasiun Meteorologi Kualanamu,96035,12/18/2017,24.5,30,26.5,87,3.2,2,0
713,Stasiun Meteorologi Kualanamu,96035,12/19/2017,24.4,30.4,26.9,86,2.2,2,57.8
714,Stasiun Meteorologi Kualanamu,96035,12/20/2017,24.8,30.4,27.3,86,7.1,2,44.4
715,Stasiun Meteorologi Kualanamu,96035,12/21/2017,24.2,30.9,27.1,86,8.3,3,25.2
716,Stasiun Meteorologi Kualanamu,96035,12/22/2017,24.1,31.4,26.8,85,10.3,3,4.2
717,Stasiun Meteorologi Kualanamu,96035,12/23/2017,24.2,30.4,26.7,83,9.4,2,6.2
718,Stasiun Meteorologi Kualanamu,96035,12/24/2017,22.6,30.7,26.1,86,5,3,26.2
719,Stasiun Meteorologi Kualanamu,96035,12/25/2017,21.6,29.4,25.6,89,9.8,3,26.4
720,Stasiun Meteorologi Kualanamu,96035,12/26/2017,23,28.9,25.8,88,3.3,4,7.4
721,Stasiun Meteorologi Kualanamu,96035,12/27/2017,22.9,28.4,24.3,95,1.5,3,4.3
722,Stasiun Meteorologi Kualanamu,96035,12/28/2017,22.9,30.4,25.9,84,0,4,0
723,Stasiun Meteorologi Kualanamu,96035,12/29/2017,23,28.8,26.4,89,9.6,3,0
724,Stasiun Meteorologi Kualanamu,96035,12/30/2017,24.4,28.75,25.3,96,0.4,2,0
725,Stasiun Meteorologi Kualanamu,96035,12/31/2017,24.2,30,26.1,88,0.7,3,0
