6.14766126196408
3.6969169993154
7.89750267581024
10.881610164174
4.64865431702713
1.66485826726239
2.87629929029438
3.28032965015938
9.69360234367507
2.33937231711473
3.63153610876024
3.98311279674559
5.12797969907891
5.19098169186401
4.10329738742305
4.02300880146612
8.76165115878468
3.17743958006742
-0.369239667130275
5.13684898698101
4.82239653769521
4.04248198947537
2.80811875075471
0.207085349912059
2.26631616725657
0.850450660463532
3.57188643874739
4.37470644149453
2.5266448563767
3.24253753982059
3.62812137547857
2.57489011651879
3.76871649539787
1.15062478111731
3.6932685665973
3.09981042292392
-3.85971751330433
2.95670878990773
3.12876060376187
5.21597501243007
3.77774243119227
8.40655056169301
6.3869555075037
8.19774991898925
3.90780455164648
8.76232103092239
4.64677606217895
4.27075651714675
3.4839639920088
6.99354966743101
8.42386002062694
8.68781219197912
11.5912233003034
7.07813178118105
7.90477845716746
4.06106050573336
10.0255369827264
3.38832501531508
5.75262326065331
5.65432177062642
7.66056583198004
3.30828659752133
9.37837551494239
8.19482302551076
2.48732355045564
3.14947124783995
3.99818382436932
4.32153351821804
4.10397512821827
6.20340816316943
8.29885781952145
4.13871538573224
6.94083784080749
6.74415853078099
9.44185633478881
14.2648584423384
4.04221722060546
4.83008161100213
10.5367562060507
6.59472710675986
4.1528158252144
9.12011785802511
3.60151819442031
10.8170813861668
2.60063530280338
9.44828475232932
9.79309453270266
7.69555013366237
10.0826467992261
11.2721778656847
11.2071434580203
9.59533998317887
2.79509658040598
4.84279421078285
11.1487983801373
4.92771020736475
6.02167523777634
2.68392249285275
8.48329898260172
4.97232610081339
5.93461723220305
4.706741880531
4.55262218494387
3.32641269548559
5.09169316956967
5.21142169084633
4.12803657012134
5.47378501465201
10.7689397619851
8.00105333923358
4.73728240320613
3.9288964072517
4.91443753563768
4.3300903442141
5.28090356893176
7.70341651145406
10.1179012543328
12.8301946956928
9.55221287284028
5.68121712385196
5.7628668928774
10.7978833815074
3.24627489554964
4.7051582602567
3.60558749119377
9.713193247015
10.5299657688016
7.04186766203769
4.59999268391266
3.41952504821356
4.23273435623866
5.43619323096614
4.87732550648673
6.59984422281605
8.97747982079162
8.53832054678514
8.71472388402766
12.0615329561263
7.15073686378818
6.68032576124002
5.56288082832887
5.328113517924
5.42432116272451
5.65022976401284
5.33386060598008
