6.61679929982795
8.34320521485456
8.57731135275135
9.38612872451039
1.61978902581589
7.06610132020362
2.16503408444621
3.51628887902027
5.11232937890954
5.86765520215596
6.02167581119476
11.8854945415285
7.60976768611252
4.26735018805232
7.32426985716613
5.75713624646786
6.18903484504771
17.7105301152883
4.90588433490081
7.83338015371869
4.24734252155764
8.37659969885881
0.479681718925737
-1.52824172191621
5.37728159300722
6.66128901826385
0.632324209741126
8.29785671405391
5.12756393356178
6.7530281584165
6.84130142784179
4.19124801105725
0.309809477764807
-0.450943229624287
0.0547387884750456
2.31258123615535
9.02899749855983
8.18349609139174
7.38571565853235
0.115193275531875
9.29708155740876
6.31298118488083
5.73559205025551
4.22984806290637
5.74979075472965
-3.46365550220789
3.19682048245112
-3.99206904011508
4.4759587385122
4.1207864046406
-5.36816409090096
6.17973487792507
8.61916209100686
-1.19308180201019
2.34538772635837
24.7925822779954
4.89552572083399
0.0600826853780397
6.10181092930412
5.72245119541164
8.5592831663593
14.9591561631613
6.716425465197
7.97822266699958
8.72199965331
-1.68387349962476
0.835369742508045
5.05161135191706
5.82694653740456
1.26095616033682
6.88292923106848
6.04497161420903
5.10449601408081
6.44531333771032
0.112537078238558
5.90757287820881
8.35145412124293
0.941105078841345
0.0937354512315301
13.9500705726251
5.00310858634577
8.37094005648355
4.95980913339119
3.60951065987437
4.0598485999265
8.70292077454296
0.867512714504091
4.07526597903174
2.90989033835184
3.99132571565523
8.3393374513541
3.11406352671056
2.96442166535644
1.48159146141472
9.29692521703902
5.36091361951065
1.4425208766714
9.19284714670554
4.26026782261746
7.03408079470479
6.10912621747435
4.10117957510577
4.38077845138535
2.69914004744708
6.15238087946684
5.97957421069507
5.73360245128236
16.6411994594902
7.36988267118236
9.28359588467985
5.13812109598672
6.29273766292698
7.92104666699845
3.77999514165764
-2.97208546005807
3.73443692869034
5.29400467464701
10.2010819153529
2.89011212350837
5.36081726766261
8.08749537114133
3.89929999613656
7.24775796050274
7.61298334169973
8.12576367514862
6.05396912414965
7.12113199700726
3.05571540370243
2.05494496369051
6.64704294640105
8.97913681665533
4.46910482903191
6.55268212248049
3.97842597909836
3.74808090696796
-22.5911218795112
5.95976705538947
7.50974215764756
8.19119279674828
5.15217069315167
6.91137976899375
5.46038089146418
6.33814339067104
1.51844396608197
2.3615248428513
3.56284845336814
5.93808723539343
6.52580408278597
6.68193960696661
7.2700054038515
6.77361480906568
4.55414109714885
103.624885537742
-2.305750727601
5.75949755632746
7.68336988369031
5.18245145179737
5.02415182535527
8.45322630718081
9.05874930837642
1.10520037721039
6.35008240878333
4.17900444884985
4.62059583350041
-4.07089200660046
1.18033400352251
4.333980400856
6.94007860661567
1.88242130943459
11.1218757651292
6.44684034799996
7.15002580494241
6.36805165283478
5.172624587871
7.17239946617481
5.24070992484755
5.9332152424786
10.419432036339
1.57247860177384
-2.13325101346207
9.99140900368584
8.08087702862407
8.76380946320401
2.59737971139003
-0.656513714539437
0.810356454010715
5.86111860866275
1.38923384661242
-1.51670017942977
-4.87551635861308
-3.40581197194616
-1.54220746900604
8.80769244980834
3.32372262655574
8.06875208687359
3.73184949411963
-1.06348774062602
-0.0916262122150192
0.880912554486464
6.32852511570645
5.6040802294461
5.49701363637721
2.51357322313119
24.3438865759639
6.4139059315171
3.9920815410321
6.76877915152525
18.9116234666717
3.63754560232891
6.31720010755557
4.97795537080159
0.134071667778911
10.6632025520815
4.35008230399429
8.86866034232923
5.56201854192126
7.05867973445775
12.7081117136093
7.42174157110791
6.45393793623
9.87630574274317
5.3989332723763
4.83875776733225
7.18498194619522
13.645676460839
13.8829097901947
6.69148490950643
6.32309701102015
5.13840504420148
6.32047537945204
1.9172840008237
7.10964790559011
6.45559232910487
6.28190953755721
612.492067567486
190.912456457095
7.57957529060894
137.927620379135
1.18442238010365
-4.2149734806419
1.90899978190129
4.28341166641882
6.51047930240624
6.75839340062774
2.31411256281191
11.5296910270954
-0.480904621098464
4.21659377221557
6.39620200405551
-0.497654717037315
2.14719685622613
8.28176689154979
12.1733908869788
7.4871403377575
11.7390032056676
5.92600589563185
6.49710637902747
19.8613458810829
9.34754393801692
6.92771938405607
7.85547165379196
3.73594202980238
27.6444333161766
8.81260178260977
6.70990599358427
7.19086086210856
7.24166558466008
5.60080532922805
14.9227307776973
5.24794349013812
13.0491910475954
5.44448061620373
10.5573087294401
6.61664833867106
12.7504299605239
8.37518382322168
2.7317512103145
12.3683392287096
25.4086407089877
7.68361797637322
