8.37374995249545
6.92331125669183
12.8327303250584
4.82197318497853
7.46809875533913
12.6608294884922
7.64665811940819
12.0902456614472
9.28306329186527
7.83313807500457
10.0426832161964
3.33883232821406
9.91964234124118
5.38098430975815
8.47780748343878
12.4488709290694
7.91535496678567
11.4040697082947
9.54056642947169
6.30246977706934
7.06405785975489
7.74999474911148
7.62098923974074
9.43615261114101
8.70376269374429
3.37849265717519
9.38069555067101
10.1323212956975
9.58343797621802
7.82132585761569
3.05685924907957
6.25471159069235
8.60046719194197
8.40456753460359
9.73992069320271
7.64421933327371
5.85786848121588
7.44706130338458
4.60132894839513
7.47105597016078
6.22291714341009
8.99642026753611
5.14607184165446
6.25062968554377
7.72472500916813
-4.41353561135063
5.5373971241116
8.25107682506598
7.06855478595256
6.83045662514026
8.26506916476596
6.53222877517129
4.09773715519208
15.933765124402
9.02537905310687
4.09377187374335
3.40747188882397
6.22289171315273
10.1689866173759
8.45882766541201
10.0901511941073
8.12338806576673
9.04119739896138
14.8252489347526
10.0917019344013
9.13001618399557
7.23086453659961
6.9329686417022
2.93431727564908
9.19375099054743
7.52663239582624
6.5279981631853
