141.623656958873
131.597009800651
133.277028039208
133.277028039208
136.953151039191
134.779236053284
140.802490412078
137.96020722966
138.626016385222
139.960900924156
142.294253629509
143.961861072603
136.461488976329
134.27035250599
133.952857210167
132.939904394076
132.267309321412
133.614683700049
133.614683700049
133.783706613138
133.1083988331
132.267309321412
131.429806486113
132.267309321412
132.267309321412
131.429806486113
130.596104024032
131.931865724647
138.282225291956
132.771546477514
136.461488976329
132.267309321412
139.788436100182
132.603326832492
133.614683700049
132.771546477514
132.267309321412
139.120737730552
140.802490412078
138.948593282581
135.289173553747
131.931865724647
131.597009800651
131.597009800651
137.445586163017
132.771546477514
136.953151039191
133.952857210167
135.119080312995
133.614683700049
133.614683700049
133.614683700049
134.439860226365
134.949100537962
139.960900924156
139.120737730552
142.294253629509
133.783706613138
132.267309321412
136.611040749984
133.783706613138
132.267309321412
134.100967319548
132.267309321412
132.267309321412
133.277028039208
133.952857210167
137.96020722966
133.952857210167
133.952857210167
133.952857210167
133.614683700049
133.952857210167
133.952857210167
133.952857210167
135.438096778275
136.461488976329
133.614683700049
131.764363447825
131.429806486113
131.429806486113
136.461488976329
133.614683700049
130.429838079623
131.429806486113
133.952857210167
133.572448131104
136.611040749984
138.131914941238
133.952857210167
133.952857210167
134.27035250599
132.267309321412
131.597009800651
131.429806486113
131.429806486113
131.429806486113
134.439860226365
131.429806486113
131.429806486113
130.596104024032
130.929115464973
131.597009800651
132.435247201707
131.597009800651
132.435247201707
131.597009800651
131.429806486113
131.429806486113
131.429806486113
132.771546477514
132.267309321412
132.267309321412
139.120737730552
133.952857210167
133.952857210167
131.262755200343
133.1083988331
133.277028039208
135.438096778275
134.779236053284
132.267309321412
132.267309321412
132.939904394076
137.295635443649
135.949322662019
131.429806486113
132.099514921342
133.783706613138
131.597009800651
132.267309321412
131.931865724647
131.429806486113
133.445790250784
131.429806486113
131.931865724647
136.461488976329
131.931865724647
131.931865724647
132.099514921342
131.597009800651
131.429806486113
132.267309321412
133.952857210167
136.226632538666
133.783706613138
133.614683700049
131.262755200343
130.596104024032
130.929115464973
132.099514921342
131.764363447825
131.931865724647
131.429806486113
132.099514921342
132.267309321412
132.267309321412
132.771546477514
132.267309321412
131.095857632554
131.429806486113
131.262755200343
132.435247201707
132.939904394076
131.597009800651
133.445790250784
133.1083988331
134.949100537962
133.783706613138
133.277028039208
139.616033240389
135.778807073625
135.608397830746
131.931865724647
132.939904394076
130.596104024032
131.262755200343
131.931865724647
131.597009800651
131.931865724647
130.762530372778
130.929115464973
132.267309321412
135.119080312995
132.771546477514
132.267309321412
133.277028039208
133.277028039208
135.438096778275
134.27035250599
133.614683700049
133.783706613138
137.295635443649
134.779236053284
135.608397830746
142.294253629509
139.292951644703
145.760858389733
140.802490412078
132.099514921342
133.614683700049
135.949322662019
132.267309321412
134.439860226365
135.949322662019
137.617040939689
137.617040939689
137.295635443649
133.614683700049
137.617040939689
134.779236053284
133.952857210167
134.100967319548
132.267309321412
138.454082379842
141.450695517459
133.952857210167
132.603326832492
137.96020722966
133.952857210167
133.614683700049
132.267309321412
135.778807073625
132.099514921342
137.124347417614
134.100967319548
134.779236053284
132.267309321412
133.1083988331
132.939904394076
133.1083988331
132.771546477514
132.603326832492
132.099514921342
131.597009800651
130.762530372778
131.597009800651
132.771546477514
132.267309321412
133.614683700049
133.445790250784
132.435247201707
131.597009800651
132.435247201707
132.099514921342
130.762530372778
132.771546477514
134.100967319548
136.953151039191
135.438096778275
134.27035250599
133.614683700049
133.783706613138
137.295635443649
141.450695517459
135.608397830746
142.294253629509
139.292951644703
145.760858389733
140.802490412078
132.099514921342
133.614683700049
135.949322662019
132.267309321412
134.439860226365
135.949322662019
137.617040939689
137.617040939689
137.295635443649
133.614683700049
137.617040939689
134.779236053284
133.952857210167
134.100967319548
132.267309321412
138.454082379842
141.450695517459
133.952857210167
132.603326832492
132.267309321412
