10.2895339307006
7.92388883030792
9.23828320555659
2.68447028814717
12.3092288686391
0.604805557525669
10.7979836695815
6.18583361436916
9.80599459037439
4.87811968079771
11.9265916315175
1.26167801180549
0.545293033694962
2.93146386517137
1.09314108057315
10.2014332974399
5.67157710752905
3.77403672632431
1.79116596292587
4.79965547247404
6.72829193258535
8.52082870859151
4.35425624482747
3.31041469856005
7.79912355916604
9.95027321313064
8.63279979047483
3.90037929293861
-0.952987252863702
-5.07505294208149
-1.04762377658993
4.74637347116286
4.60221337680749
1.82840905233769
-1.37246565984114
10.1575733105675
-3.83901923580372
0.565978681228323
8.17665895930365
1.40701598961421
-1.55581449839139
6.31523593218557
8.42429471491708
9.58287423927489
15.6983327315644
5.23269509892599
6.04349503152251
11.5969499319599
13.2308982471485
7.2832214342216
13.5910190597463
7.03911733516227
5.0233101726661
1.7764768222014
10.1950346535707
5.31368565193202
8.82208681147865
4.55184363393173
5.82740901450557
1.1427311273681
13.3003146865192
7.21454815258247
13.6121060835477
3.92025998486328
7.35560374043416
10.3238933912105
3.76383171091898
10.0096088640987
20.6417377894679
13.2397531929484
