No,Tanggal,debit.x,debit.y
1,1/7/2016,131.8,133.3
2,1/8/2016,128.6,129.4
3,1/9/2016,135.7,129.4
4,1/10/2016,131,131
5,1/11/2016,131,129.4
6,1/12/2016,131.8,149
7,1/13/2016,133.3,135.7
8,1/14/2016,129.4,131.8
9,1/15/2016,129.4,131
10,1/16/2016,131,131.8
11,1/17/2016,129.4,131.8
12,1/18/2016,149,131.8
13,1/19/2016,135.7,142
14,1/20/2016,131.8,135.7
15,1/21/2016,131,149
16,1/22/2016,131.8,166.8
17,1/23/2016,131.8,136.5
18,1/24/2016,131.8,131.8
19,1/25/2016,142,129.4
20,1/26/2016,135.7,131
21,1/27/2016,149,130.2
22,1/28/2016,166.8,130.2
23,1/29/2016,136.5,132.5
24,1/30/2016,131.8,131.8
25,1/31/2016,129.4,131.8
26,2/1/2016,131,131.8
27,2/2/2016,130.2,131.8
28,2/3/2016,130.2,131.8
29,2/4/2016,132.5,131
30,2/5/2016,131.8,130.2
31,2/6/2016,131.8,134.1
32,2/7/2016,131.8,131
33,2/8/2016,131.8,148.2
34,2/9/2016,131.8,132.5
35,2/10/2016,131,131.8
36,2/11/2016,130.2,142
37,2/12/2016,134.1,151.4
38,2/13/2016,131,172.2
39,2/14/2016,148.2,152.1
40,2/15/2016,132.5,131.8
41,2/16/2016,131.8,131.8
42,2/17/2016,142,131.8
43,2/18/2016,151.4,130.2
44,2/19/2016,172.2,141.2
45,2/20/2016,152.1,134.9
46,2/21/2016,131.8,131.8
47,2/22/2016,131.8,131.8
48,2/23/2016,131.8,129.4
49,2/24/2016,130.2,130.2
50,2/25/2016,141.2,129.4
51,2/26/2016,134.9,131.8
52,2/27/2016,131.8,131.8
53,2/28/2016,131.8,131
54,2/29/2016,129.4,131
55,3/1/2016,130.2,131.8
56,3/2/2016,129.4,131.8
57,3/3/2016,131.8,131.8
58,3/4/2016,131.8,152.1
59,3/5/2016,131,145.9
60,3/6/2016,131,139.6
61,3/7/2016,131.8,139.6
62,3/8/2016,131.8,166.8
63,3/9/2016,131.8,173
64,3/10/2016,152.1,152.9
65,3/11/2016,145.9,136.5
66,3/12/2016,139.6,152.1
67,3/13/2016,139.6,154.5
68,3/14/2016,166.8,133.3
69,3/15/2016,173,131.8
70,3/16/2016,152.9,131.8
71,3/17/2016,136.5,131.8
72,3/18/2016,152.1,129.4
73,3/19/2016,154.5,130.2
74,3/20/2016,133.3,132.5
75,3/21/2016,131.8,159.9
76,3/22/2016,131.8,137.3
77,3/23/2016,131.8,131.8
78,3/24/2016,129.4,131
79,3/25/2016,130.2,131.8
80,3/26/2016,132.5,144.3
81,3/27/2016,159.9,132.5
82,3/28/2016,137.3,131.8
83,3/29/2016,131.8,131.8
84,3/30/2016,131,131
85,3/31/2016,131.8,130.2
86,4/1/2016,144.3,130.2
87,4/2/2016,132.5,131.8
88,4/3/2016,131.8,150.6
89,4/4/2016,131.8,155.2
90,4/5/2016,131,150.6
91,4/6/2016,130.2,191.3
92,4/7/2016,130.2,167.6
93,4/8/2016,131.8,156
94,4/9/2016,150.6,133.3
95,4/10/2016,155.2,131.8
96,4/11/2016,150.6,131
97,4/12/2016,191.3,129.4
98,4/13/2016,167.6,130.2
99,4/14/2016,156,131
100,4/15/2016,133.3,130.2
101,4/16/2016,131.8,132.5
102,4/17/2016,131,131.8
103,4/18/2016,129.4,131.8
104,4/19/2016,130.2,168.4
105,4/20/2016,131,141.2
106,4/21/2016,130.2,131.8
107,4/22/2016,132.5,132.5
108,4/23/2016,131.8,131.8
109,4/24/2016,131.8,136.5
110,4/25/2016,168.4,134.1
111,4/26/2016,141.2,149.8
112,4/27/2016,131.8,146.7
113,4/28/2016,132.5,161.4
114,4/29/2016,131.8,131.8
115,4/30/2016,136.5,131.8
116,5/1/2016,134.1,131.8
117,5/2/2016,149.8,156.8
118,5/3/2016,146.7,133.3
119,5/4/2016,161.4,131.8
120,5/5/2016,131.8,131.8
121,5/6/2016,131.8,205.6
122,5/7/2016,131.8,147.5
123,5/8/2016,156.8,134.9
124,5/9/2016,133.3,131.8
125,5/10/2016,131.8,130.2
126,5/11/2016,131.8,131
127,5/12/2016,205.6,130.2
128,5/13/2016,147.5,154.5
129,5/14/2016,134.9,131.8
130,5/15/2016,131.8,159.1
131,5/16/2016,130.2,131.8
132,5/17/2016,131,169.9
133,5/18/2016,130.2,162.2
134,5/19/2016,154.5,149
135,5/20/2016,131.8,138.1
136,5/21/2016,159.1,138.1
137,5/22/2016,131.8,134.1
138,5/23/2016,169.9,131.8
139,5/24/2016,162.2,131.8
140,5/25/2016,149,130.2
141,5/26/2016,138.1,129.4
142,5/27/2016,138.1,136.5
143,5/28/2016,134.1,130.2
144,5/29/2016,131.8,129.4
145,5/30/2016,131.8,129.4
146,5/31/2016,130.2,131.8
147,6/1/2016,129.4,131.8
148,6/2/2016,136.5,131.8
149,6/3/2016,130.2,180.6
150,6/4/2016,129.4,141.2
151,6/5/2016,129.4,138.1
152,6/6/2016,131.8,131.8
153,6/7/2016,131.8,131
154,6/8/2016,131.8,148.2
155,6/9/2016,180.6,138.8
156,6/10/2016,141.2,138.1
157,6/11/2016,138.1,139.6
158,6/12/2016,131.8,134.9
159,6/13/2016,131,131.8
160,6/14/2016,148.2,130.2
161,6/15/2016,138.8,130.2
162,6/16/2016,138.1,141.2
163,6/17/2016,139.6,134.1
164,6/18/2016,134.9,144.3
165,6/19/2016,131.8,143.6
166,6/20/2016,130.2,133.3
167,6/21/2016,130.2,131.8
168,6/22/2016,141.2,131
169,6/23/2016,134.1,130.2
170,6/24/2016,144.3,182.2
171,6/25/2016,143.6,154.5
172,6/26/2016,133.3,142
173,6/27/2016,131.8,136.5
174,6/28/2016,131,131.8
175,6/29/2016,130.2,131
176,6/30/2016,182.2,131
177,7/1/2016,154.5,131.8
178,7/2/2016,142,131.8
179,7/3/2016,136.5,131.8
180,7/4/2016,131.8,131.8
181,7/5/2016,131,173
182,7/6/2016,131,159.1
183,7/7/2016,131.8,142.8
184,7/8/2016,131.8,134.9
185,7/9/2016,131.8,131.8
186,7/10/2016,131.8,130.2
187,7/11/2016,173,130.2
188,7/12/2016,159.1,138.1
189,7/13/2016,142.8,131
190,7/14/2016,134.9,151.4
191,7/15/2016,131.8,147.5
192,7/16/2016,130.2,138.8
193,7/17/2016,130.2,131.8
194,7/18/2016,138.1,131.8
195,7/19/2016,131,131.8
196,7/20/2016,151.4,131
197,7/21/2016,147.5,131
198,7/22/2016,138.8,135.7
199,7/23/2016,131.8,162.2
200,7/24/2016,131.8,145.1
201,7/25/2016,131.8,131
202,7/26/2016,131,131.8
203,7/27/2016,131,131.8
204,7/28/2016,135.7,131.8
205,7/29/2016,162.2,130.2
206,7/30/2016,145.1,131.8
207,7/31/2016,131,134.9
208,8/1/2016,131.8,134.9
209,8/2/2016,131.8,131.8
210,8/3/2016,131.8,132.5
211,8/4/2016,130.2,131.8
212,8/5/2016,131.8,131.8
213,8/6/2016,134.9,144.3
214,8/7/2016,134.9,142.8
215,8/8/2016,131.8,139.6
216,8/9/2016,132.5,139.6
217,8/10/2016,131.8,138.8
218,8/11/2016,131.8,139.6
219,8/12/2016,144.3,136.5
220,8/13/2016,142.8,134.1
221,8/14/2016,139.6,134.9
222,8/15/2016,139.6,131
223,8/16/2016,138.8,138.8
224,8/17/2016,139.6,131.8
225,8/18/2016,136.5,146.7
226,8/19/2016,134.1,148.2
227,8/20/2016,134.9,131.8
228,8/21/2016,131,131.8
229,8/22/2016,138.8,138.1
230,8/23/2016,131.8,139.6
231,8/24/2016,146.7,134.9
232,8/25/2016,148.2,131
233,8/26/2016,131.8,138.1
234,8/27/2016,131.8,153.7
235,8/28/2016,138.1,131.8
236,8/29/2016,139.6,141.2
237,8/30/2016,134.9,131.8
238,8/31/2016,131,133.3
239,9/1/2016,138.1,133.3
240,9/2/2016,153.7,131.8
241,9/3/2016,131.8,144.3
242,9/4/2016,141.2,131.8
243,9/5/2016,131.8,131.8
244,9/6/2016,133.3,160.7
245,9/7/2016,133.3,152.1
246,9/8/2016,131.8,138.1
247,9/9/2016,144.3,131.8
248,9/10/2016,131.8,133.3
249,9/11/2016,131.8,132.5
250,9/12/2016,160.7,133.3
251,9/13/2016,152.1,130.2
252,9/14/2016,138.1,123.8
253,9/15/2016,131.8,123.8
254,9/16/2016,133.3,123.8
255,9/17/2016,132.5,125.4
256,9/18/2016,133.3,123.8
257,9/19/2016,130.2,124.6
258,9/20/2016,123.8,143.6
259,9/21/2016,123.8,131.8
260,9/22/2016,123.8,128.6
261,9/23/2016,125.4,125.4
262,9/24/2016,123.8,120.6
263,9/25/2016,124.6,123.8
264,9/26/2016,143.6,123.8
265,9/27/2016,131.8,131
266,9/28/2016,128.6,125.4
267,9/29/2016,125.4,122.2
268,9/30/2016,120.6,123.8
269,10/1/2016,123.8,123.8
270,10/2/2016,123.8,131.8
271,10/3/2016,131,131.8
272,10/4/2016,125.4,131.8
273,10/5/2016,122.2,123
274,10/6/2016,123.8,122.2
275,10/7/2016,123.8,123.8
276,10/8/2016,131.8,127.8
277,10/9/2016,131.8,122.2
278,10/10/2016,131.8,122.2
279,10/11/2016,123,122.2
280,10/12/2016,122.2,138.1
281,10/13/2016,123.8,133.3
282,10/14/2016,127.8,127
283,10/15/2016,122.2,122.2
284,10/16/2016,122.2,121.4
285,10/17/2016,122.2,123
286,10/18/2016,138.1,131.8
287,10/19/2016,133.3,129.4
288,10/20/2016,127,123.8
289,10/21/2016,122.2,123
290,10/22/2016,121.4,123
291,10/23/2016,123,123
292,10/24/2016,131.8,123
293,10/25/2016,129.4,129.4
294,10/26/2016,123.8,123.8
295,10/27/2016,123,138.1
296,10/28/2016,123,143.6
297,10/29/2016,123,131.8
298,10/30/2016,123,130.2
299,10/31/2016,129.4,130.2
300,11/1/2016,123.8,131.8
301,11/2/2016,138.1,131.8
302,11/3/2016,143.6,131.8
303,11/4/2016,131.8,130.2
304,11/5/2016,130.2,123.8
305,11/6/2016,130.2,123.8
306,11/7/2016,131.8,152.1
307,11/8/2016,131.8,130.2
308,11/9/2016,131.8,123.8
309,11/10/2016,130.2,126.2
310,11/11/2016,123.8,123.8
311,11/12/2016,123.8,123.8
312,11/13/2016,152.1,123.8
313,11/14/2016,130.2,123.8
314,11/15/2016,123.8,123.8
315,11/16/2016,126.2,133.3
316,11/17/2016,123.8,144.3
317,11/18/2016,123.8,133.3
318,11/19/2016,123.8,135.7
319,11/20/2016,123.8,132.5
320,11/21/2016,123.8,125.4
321,11/22/2016,133.3,127.8
322,11/23/2016,144.3,140.4
323,11/24/2016,133.3,142.8
324,11/25/2016,135.7,129.4
325,11/26/2016,132.5,147.5
326,11/27/2016,125.4,146.7
327,11/28/2016,127.8,141.2
328,11/29/2016,140.4,132.5
329,11/30/2016,142.8,131.8
330,12/1/2016,129.4,130.2
331,12/2/2016,147.5,131.8
332,12/3/2016,146.7,130.2
333,12/4/2016,141.2,127.8
334,12/5/2016,132.5,123.8
335,12/6/2016,131.8,123.8
336,12/7/2016,130.2,130.2
337,12/8/2016,131.8,123.8
338,12/9/2016,130.2,123.8
339,12/10/2016,127.8,122.2
340,12/11/2016,123.8,122.2
341,12/12/2016,123.8,122.2
342,12/13/2016,130.2,120.6
343,12/14/2016,123.8,120.6
344,12/15/2016,123.8,141.2
345,12/16/2016,122.2,122.2
346,12/17/2016,122.2,122.2
347,12/18/2016,122.2,122.2
348,12/19/2016,120.6,122.2
349,12/20/2016,120.6,131.8
350,12/21/2016,141.2,127.8
351,12/22/2016,122.2,122.2
352,12/23/2016,122.2,141.2
353,12/24/2016,122.2,132.5
354,12/25/2016,122.2,122.2
355,12/26/2016,131.8,128.6
356,12/27/2016,127.8,123
357,12/28/2016,122.2,122.2
358,12/29/2016,141.2,128.6
359,12/30/2016,132.5,122.2
360,12/31/2016,122.2,119.8
361,1/1/2017,128.6,119.8
362,1/2/2017,123,134.1
363,1/3/2017,122.2,91.5
364,1/4/2017,128.6,127
365,1/5/2017,122.2,119.8
366,1/6/2017,119.8,119.8
367,1/7/2017,119.8,130.2
368,1/8/2017,134.1,119.8
369,1/9/2017,91.5,119.8
370,1/10/2017,127,119.8
371,1/11/2017,119.8,131.8
372,1/12/2017,119.8,127
373,1/13/2017,130.2,119.8
374,1/14/2017,119.8,152.9
375,1/15/2017,119.8,106.2
376,1/16/2017,119.8,123.8
377,1/17/2017,131.8,123.8
378,1/18/2017,127,135.7
379,1/19/2017,119.8,129.4
380,1/20/2017,152.9,144.3
381,1/21/2017,106.2,145.1
382,1/22/2017,123.8,149
383,1/23/2017,123.8,138.1
384,1/24/2017,135.7,155.2
385,1/25/2017,129.4,138.1
386,1/26/2017,144.3,125.4
387,1/27/2017,145.1,123.8
388,1/28/2017,149,123.8
389,1/29/2017,138.1,130.2
390,1/30/2017,155.2,129.4
391,1/31/2017,138.1,123.8
392,2/1/2017,125.4,122.2
393,2/2/2017,123.8,148.2
394,2/3/2017,123.8,124.6
395,2/4/2017,130.2,122.2
396,2/5/2017,129.4,122.2
397,2/6/2017,123.8,121.4
398,2/7/2017,122.2,119.8
399,2/8/2017,148.2,126.2
400,2/9/2017,124.6,119.8
401,2/10/2017,122.2,119.8
402,2/11/2017,122.2,119.8
403,2/12/2017,121.4,123.8
404,2/13/2017,119.8,135.7
405,2/14/2017,126.2,128.6
406,2/15/2017,119.8,123.8
407,2/16/2017,119.8,151.4
408,2/17/2017,119.8,132.5
409,2/18/2017,123.8,131.8
410,2/19/2017,135.7,139.6
411,2/20/2017,128.6,127
412,2/21/2017,123.8,143.6
413,2/22/2017,151.4,123.8
414,2/23/2017,132.5,145.9
415,2/24/2017,131.8,145.9
416,2/25/2017,139.6,167.6
417,2/26/2017,127,120.6
418,2/27/2017,143.6,128.6
419,2/28/2017,123.8,128.6
420,3/1/2017,145.9,145.9
421,3/2/2017,145.9,135.7
422,3/3/2017,167.6,163.8
423,3/4/2017,120.6,150.6
424,3/5/2017,128.6,153.7
425,3/6/2017,128.6,159.9
426,3/7/2017,145.9,170.7
427,3/8/2017,135.7,178.4
428,3/9/2017,163.8,143.6
429,3/10/2017,150.6,133.3
430,3/11/2017,153.7,131.8
431,3/12/2017,159.9,127
432,3/13/2017,170.7,123.8
433,3/14/2017,178.4,130.2
434,3/15/2017,143.6,130.2
435,3/16/2017,133.3,131
436,3/17/2017,131.8,127.8
437,3/18/2017,127,123.8
438,3/19/2017,123.8,119.8
439,3/20/2017,130.2,123.8
440,3/21/2017,130.2,123.8
441,3/22/2017,131,119.8
442,3/23/2017,127.8,115.8
443,3/24/2017,123.8,122.2
444,3/25/2017,119.8,152.1
445,3/26/2017,123.8,126.2
446,3/27/2017,123.8,143.6
447,3/28/2017,119.8,123.8
448,3/29/2017,115.8,159.1
449,3/30/2017,122.2,125.4
450,3/31/2017,152.1,130.2
451,4/1/2017,126.2,126.2
452,4/2/2017,143.6,123.8
453,4/3/2017,123.8,156
454,4/4/2017,159.1,163.8
455,4/5/2017,125.4,155.2
456,4/6/2017,130.2,138.1
457,4/7/2017,126.2,122.2
458,4/8/2017,123.8,120.6
459,4/9/2017,156,120.6
460,4/10/2017,163.8,148.2
461,4/11/2017,155.2,126.2
462,4/12/2017,138.1,145.9
463,4/13/2017,122.2,131.8
464,4/14/2017,120.6,137.3
465,4/15/2017,120.6,130.2
466,4/16/2017,148.2,130.2
467,4/17/2017,126.2,130.2
468,4/18/2017,145.9,134.1
469,4/19/2017,131.8,136.5
470,4/20/2017,137.3,159.9
471,4/21/2017,130.2,156
472,4/22/2017,130.2,170.7
473,4/23/2017,130.2,131
474,4/24/2017,134.1,123.8
475,4/25/2017,136.5,144.3
476,4/26/2017,159.9,131
477,4/27/2017,156,123.8
478,4/28/2017,170.7,132.5
479,4/29/2017,131,123.8
480,4/30/2017,123.8,123.8
481,5/1/2017,144.3,128.6
482,5/2/2017,131,131.8
483,5/3/2017,123.8,150.6
484,5/4/2017,132.5,131.8
485,5/5/2017,123.8,131.8
486,5/6/2017,123.8,131.8
487,5/7/2017,128.6,130.2
488,5/8/2017,131.8,131.8
489,5/9/2017,150.6,131.8
490,5/10/2017,131.8,131.8
491,5/11/2017,131.8,138.8
492,5/12/2017,131.8,143.6
493,5/13/2017,130.2,130.2
494,5/14/2017,131.8,121.4
495,5/15/2017,131.8,119.8
496,5/16/2017,131.8,119.8
497,5/17/2017,138.8,143.6
498,5/18/2017,143.6,130.2
499,5/19/2017,130.2,115
500,5/20/2017,121.4,119.8
501,5/21/2017,119.8,131.8
502,5/22/2017,119.8,130
503,5/23/2017,143.6,144.3
504,5/24/2017,130.2,151.4
505,5/25/2017,115,131.8
506,5/26/2017,119.8,131.8
507,5/27/2017,131.8,133.3
508,5/28/2017,130,123.8
509,5/29/2017,144.3,120.6
510,5/30/2017,151.4,119.8
511,5/31/2017,131.8,119.8
512,6/1/2017,131.8,119.8
513,6/2/2017,133.3,134.1
514,6/3/2017,123.8,119.8
515,6/4/2017,120.6,119.8
516,6/5/2017,119.8,115.8
517,6/6/2017,119.8,117.4
518,6/7/2017,119.8,120.6
519,6/8/2017,134.1,124.6
520,6/9/2017,119.8,120.6
521,6/10/2017,119.8,124.6
522,6/11/2017,115.8,120.6
523,6/12/2017,117.4,119.8
524,6/13/2017,120.6,119.8
525,6/14/2017,124.6,119.8
526,6/15/2017,120.6,126.2
527,6/16/2017,124.6,123.8
528,6/17/2017,120.6,123.8
529,6/18/2017,119.8,156
530,6/19/2017,119.8,131.8
531,6/20/2017,119.8,131.8
532,6/21/2017,126.2,119
533,6/22/2017,123.8,127.8
534,6/23/2017,123.8,128.6
535,6/24/2017,156,138.8
536,6/25/2017,131.8,135.7
537,6/26/2017,131.8,123.8
538,6/27/2017,119,123.8
539,6/28/2017,127.8,127
540,6/29/2017,128.6,147.5
541,6/30/2017,138.8,141.2
542,7/1/2017,135.7,119.8
543,7/2/2017,123.8,123
544,7/3/2017,123.8,131
545,7/4/2017,127,120.6
546,7/5/2017,147.5,123.8
547,7/6/2017,141.2,122.2
548,7/7/2017,119.8,119.8
549,7/8/2017,123,129.4
550,7/9/2017,131,119.8
551,7/10/2017,120.6,122.2
552,7/11/2017,123.8,143.6
553,7/12/2017,122.2,122.2
554,7/13/2017,119.8,122.2
555,7/14/2017,129.4,123
556,7/15/2017,119.8,120.6
557,7/16/2017,122.2,119.8
558,7/17/2017,143.6,123.8
559,7/18/2017,122.2,131.8
560,7/19/2017,122.2,142.5
561,7/20/2017,123,131
562,7/21/2017,120.6,130.2
563,7/22/2017,119.8,119
564,7/23/2017,123.8,115.8
565,7/24/2017,131.8,117.4
566,7/25/2017,142.5,123
567,7/26/2017,131,121.4
568,7/27/2017,130.2,122.2
569,7/28/2017,119,119.8
570,7/29/2017,115.8,123
571,7/30/2017,117.4,123.8
572,7/31/2017,123,123.8
573,8/1/2017,121.4,126.2
574,8/2/2017,122.2,123.8
575,8/3/2017,119.8,118.2
576,8/4/2017,123,119.8
577,8/5/2017,123.8,119
578,8/6/2017,123.8,124.6
579,8/7/2017,126.2,127
580,8/8/2017,123.8,120.6
581,8/9/2017,118.2,129.4
582,8/10/2017,119.8,127.8
583,8/11/2017,119,136.5
584,8/12/2017,124.6,131
585,8/13/2017,127,128.6
586,8/14/2017,120.6,158.3
587,8/15/2017,129.4,140.4
588,8/16/2017,127.8,139.6
589,8/17/2017,136.5,122.2
590,8/18/2017,131,127
591,8/19/2017,128.6,115.8
592,8/20/2017,158.3,119
593,8/21/2017,140.4,122.2
594,8/22/2017,139.6,120.6
595,8/23/2017,122.2,122.2
596,8/24/2017,127,116.6
597,8/25/2017,115.8,117.4
598,8/26/2017,119,123.8
599,8/27/2017,122.2,137.3
600,8/28/2017,120.6,126.2
601,8/29/2017,122.2,123.8
602,8/30/2017,116.6,128.6
603,8/31/2017,117.4,128.6
604,9/1/2017,123.8,138.8
605,9/2/2017,137.3,133.3
606,9/3/2017,126.2,130.2
607,9/4/2017,123.8,131
608,9/5/2017,128.6,147.5
609,9/6/2017,128.6,135.7
610,9/7/2017,138.8,139.6
611,9/8/2017,133.3,170.7
612,9/9/2017,130.2,156.8
613,9/10/2017,131,186.7
614,9/11/2017,147.5,163.8
615,9/12/2017,135.7,123
616,9/13/2017,139.6,130.2
617,9/14/2017,170.7,141.2
618,9/15/2017,156.8,123.8
619,9/16/2017,186.7,134.1
620,9/17/2017,163.8,141.2
621,9/18/2017,123,149
622,9/19/2017,130.2,149
623,9/20/2017,141.2,147.5
624,9/21/2017,123.8,130.2
625,9/22/2017,134.1,149
626,9/23/2017,141.2,135.7
627,9/24/2017,149,131.8
628,9/25/2017,149,132.5
629,9/26/2017,147.5,123.8
630,9/27/2017,130.2,152.9
631,9/28/2017,149,166.8
632,9/29/2017,135.7,131.8
633,9/30/2017,131.8,125.4
634,10/1/2017,132.5,150.6
635,10/2/2017,123.8,131.8
636,10/3/2017,152.9,130.2
637,10/4/2017,166.8,123.8
638,10/5/2017,131.8,140.4
639,10/6/2017,125.4,123
640,10/7/2017,150.6,146.7
641,10/8/2017,131.8,132.5
642,10/9/2017,130.2,135.7
643,10/10/2017,123.8,123.8
644,10/11/2017,140.4,127.8
645,10/12/2017,123,127
646,10/13/2017,146.7,127.8
647,10/14/2017,132.5,126.2
648,10/15/2017,135.7,125.4
649,10/16/2017,123.8,123
650,10/17/2017,127.8,120.6
651,10/18/2017,127,116.6
652,10/19/2017,127.8,120.6
653,10/20/2017,126.2,126.2
654,10/21/2017,125.4,123.8
655,10/22/2017,123,130.2
656,10/23/2017,120.6,129.4
657,10/24/2017,116.6,124.6
658,10/25/2017,120.6,120.6
659,10/26/2017,126.2,124.6
660,10/27/2017,123.8,123
661,10/28/2017,130.2,116.6
662,10/29/2017,129.4,126.2
663,10/30/2017,124.6,132.5
664,10/31/2017,120.6,145.9
665,11/1/2017,124.6,138.8
666,11/2/2017,123,133.3
667,11/3/2017,116.6,130.2
668,11/4/2017,126.2,131
669,11/5/2017,132.5,147.5
670,11/6/2017,145.9,166.8
671,11/7/2017,138.8,139.6
672,11/8/2017,133.3,170.7
673,11/9/2017,130.2,156.8
674,11/10/2017,131,186.7
675,11/11/2017,147.5,163.8
676,11/12/2017,166.8,123
677,11/13/2017,139.6,130.2
678,11/14/2017,170.7,141.2
679,11/15/2017,156.8,123.8
680,11/16/2017,186.7,134.1
681,11/17/2017,163.8,141.2
682,11/18/2017,123,149
683,11/19/2017,130.2,149
684,11/20/2017,141.2,147.5
685,11/21/2017,123.8,130.2
686,11/22/2017,134.1,149
687,11/23/2017,141.2,135.7
688,11/24/2017,149,131.8
689,11/25/2017,149,132.5
690,11/26/2017,147.5,123.8
691,11/27/2017,130.2,152.9
692,11/28/2017,149,166.8
693,11/29/2017,135.7,131.8
694,11/30/2017,131.8,125.4
695,12/1/2017,132.5,123.8
696,12/2/2017,123.8,166.1
697,12/3/2017,152.9,182.2
698,12/4/2017,166.8,154.5
699,12/5/2017,131.8,146.7
700,12/6/2017,125.4,123.8
701,12/7/2017,123.8,123.8
702,12/8/2017,166.1,123.8
703,12/9/2017,182.2,134.9
704,12/10/2017,154.5,144.3
705,12/11/2017,146.7,127
706,12/12/2017,123.8,123.8
707,12/13/2017,123.8,139.6
708,12/14/2017,123.8,131.8
709,12/15/2017,134.9,125.4
710,12/16/2017,144.3,123.8
711,12/17/2017,127,136.5
712,12/18/2017,123.8,128.6
713,12/19/2017,139.6,123.8
714,12/20/2017,131.8,123.8
715,12/21/2017,125.4,123.8
716,12/22/2017,123.8,127
717,12/23/2017,136.5,156
718,12/24/2017,128.6,131.8
719,12/25/2017,123.8,135.7
720,12/26/2017,123.8,149
721,12/27/2017,123.8,133.3
722,12/28/2017,127,131.8
723,12/29/2017,156,135.7
724,12/30/2017,131.8,133.3
725,12/31/2017,135.7,125.4
